<svg width="143" height="32" viewBox="0 0 143 32" fill="none" xmlns="http://www.w3.org/2000/svg">
<g clip-path="url(#clip0_630_101501)">
<path d="M142.667 12.6292C142.667 14.8764 141.992 15.539 140.172 16.0864C138.205 16.6626 134.713 17.0372 132.629 17.0372C130.163 17.0372 127.081 16.8931 124.469 16.2881V13.6952H138.939V10.1515H128.696C125.614 10.1515 124.469 9.31599 124.469 6.37732V4.82156C124.469 2.48792 125.174 1.79647 127.081 1.30669C129.019 0.816915 132.188 0.5 134.272 0.5C136.797 0.5 139.82 0.701673 142.432 1.27788V3.87082H128.197V6.83829H138.44C141.522 6.83829 142.667 7.64498 142.667 10.6125V12.6292Z" fill="white"/>
<path d="M117.983 16.2593C114.989 16.8355 111.966 17.0084 109.031 17.0084C106.095 17.0084 103.043 16.8355 100.02 16.2593V1.27788C103.014 0.701673 106.066 0.5 108.972 0.5C111.907 0.5 114.871 0.672862 117.865 1.27788V3.95725H104.305V6.95353H113.14V10.0651H104.305V13.6087H117.924V16.2593H117.983Z" fill="white"/>
<path d="M94.8834 16.2593C92.1831 16.8355 89.4828 17.0084 86.8706 17.0084C84.2584 17.0084 81.4994 16.8643 78.7991 16.2593V0.874542H83.1137V13.4071H94.8834V16.2593Z" fill="white"/>
<path d="M73.6332 16.3745C72.1951 16.7779 70.2872 16.9219 68.8784 16.9507L62.2157 3.75558H61.8342L55.2008 16.9507C53.792 16.9219 52.119 16.7779 50.6808 16.3745L59.1045 0.903351H65.1215L73.6332 16.3745Z" fill="white"/>
<path d="M64.8574 12.4275C64.8574 13.9545 63.5953 15.1645 62.0397 15.1645C60.4841 15.1645 59.2513 13.9257 59.2513 12.4275C59.2513 10.9006 60.5134 9.69052 62.0397 9.69052C63.5953 9.69052 64.8574 10.9006 64.8574 12.4275Z" fill="white"/>
<path d="M45.4857 16.3745C44.1062 16.7779 42.6387 16.8931 41.1711 16.9219V10.2091H30.458V16.9219C28.9905 16.8931 27.5229 16.7491 26.1434 16.3745V1.16263C27.5229 0.759286 28.9905 0.644045 30.458 0.615234V7.09758H41.1711V0.615234C42.6387 0.644045 44.1062 0.788097 45.4857 1.16263V16.3745Z" fill="white"/>
<path d="M20.0971 3.98606H12.5245V16.6626H8.2393V3.98606H0.666748V1.27788C3.92471 0.701673 7.21201 0.5 10.3819 0.5C13.5518 0.5 16.8391 0.672862 20.0971 1.27788V3.98606Z" fill="white"/>
<path d="M6.33153 24.2398C6.33153 25.2481 6.03802 25.7379 5.24554 25.882V25.9108C6.21412 26.026 6.47828 26.6022 6.47828 27.6106C6.47828 29.1376 5.68581 29.5985 3.8954 29.5985C3.10292 29.5985 1.84083 29.5697 0.98965 29.5121C0.872246 29.5121 0.842896 29.4833 0.842896 29.368V22.4535C0.842896 22.3383 0.872246 22.3383 0.98965 22.3095C1.84083 22.2231 2.86811 22.1942 3.66059 22.1942C5.53905 22.2231 6.33153 22.7128 6.33153 24.2398ZM2.36915 23.4907V25.3634H3.33773C4.42371 25.3634 4.80528 25.2481 4.80528 24.4415C4.80528 23.6924 4.42371 23.4907 3.51383 23.4907H2.36915ZM2.36915 26.4294V28.3021H3.80734C4.62917 28.3021 4.98138 28.1004 4.98138 27.4089C4.98138 26.631 4.59982 26.4294 3.83669 26.4294H2.36915Z" fill="white"/>
<path d="M12.0256 24.2686C12.1136 24.2686 12.1723 24.3262 12.1723 24.4126V29.2528C12.1723 29.368 12.143 29.3968 12.0256 29.4256C11.3799 29.5409 10.4406 29.5985 9.73621 29.5985C7.8871 29.5985 7.41748 29.2528 7.41748 27.3225V24.4126C7.41748 24.3262 7.47618 24.2686 7.56424 24.2686H8.70892C8.79698 24.2686 8.85568 24.3262 8.85568 24.4126V26.948C8.85568 28.302 9.00243 28.3597 9.88296 28.3597H10.7341V24.4126C10.7341 24.3262 10.7928 24.2686 10.8809 24.2686H12.0256Z" fill="white"/>
<path d="M14.8433 22.8281C14.8433 23.3178 14.5498 23.5771 14.0215 23.5771C13.4931 23.5771 13.1703 23.289 13.1703 22.8281C13.1703 22.3383 13.4638 22.079 14.0215 22.079C14.5498 22.0502 14.8433 22.3383 14.8433 22.8281ZM14.5791 24.2686C14.6672 24.2686 14.7259 24.3262 14.7259 24.4126V29.3968C14.7259 29.5121 14.6672 29.5409 14.5791 29.5409H13.4344C13.3464 29.5409 13.2877 29.4833 13.2877 29.3968V24.4126C13.2877 24.3262 13.3464 24.2686 13.4344 24.2686H14.5791Z" fill="white"/>
<path d="M17.162 22.2807C17.2501 22.2807 17.3088 22.3383 17.3088 22.4247V29.4257C17.3088 29.5409 17.2501 29.5697 17.162 29.5697H16.0174C15.9293 29.5697 15.8706 29.5121 15.8706 29.4257V22.3959C15.8706 22.3095 15.9293 22.2519 16.0174 22.2519H17.162V22.2807Z" fill="white"/>
<path d="M22.9149 22.2807C23.0323 22.2807 23.0616 22.3383 23.0616 22.4247V29.1952C23.0616 29.3392 22.9736 29.4257 22.8561 29.4257C22.0637 29.5409 21.418 29.5985 20.7429 29.5985C18.7177 29.5985 18.248 29.0511 18.248 26.9191C18.248 24.8448 18.6883 24.2398 20.4494 24.2398C20.8896 24.2398 21.2712 24.2686 21.6234 24.2974V22.4247C21.6234 22.3095 21.6528 22.2807 21.7702 22.2807H22.9149ZM20.8016 25.4498C19.833 25.4498 19.7156 25.7091 19.7156 26.9191C19.7156 28.0428 19.8036 28.3885 20.7429 28.3885C20.9777 28.3885 21.3886 28.3597 21.6528 28.3309V25.4498H20.8016V25.4498Z" fill="white"/>
<path d="M25.7619 22.8281C25.7619 23.3178 25.4684 23.5771 24.94 23.5771C24.4117 23.5771 24.0889 23.289 24.0889 22.8281C24.0889 22.3383 24.3824 22.079 24.94 22.079C25.4684 22.0502 25.7619 22.3383 25.7619 22.8281ZM25.4684 24.2686C25.5564 24.2686 25.6151 24.3262 25.6151 24.4126V29.3968C25.6151 29.5121 25.5564 29.5409 25.4684 29.5409H24.3237C24.2356 29.5409 24.1769 29.4833 24.1769 29.3968V24.4126C24.1769 24.3262 24.2356 24.2686 24.3237 24.2686H25.4684Z" fill="white"/>
<path d="M31.5147 26.487V29.3968C31.5147 29.5121 31.456 29.5409 31.3679 29.5409H30.2232C30.1352 29.5409 30.0765 29.4833 30.0765 29.3968V26.8615C30.0765 25.5074 29.9297 25.4498 29.0492 25.4498H28.1687V29.3968C28.1687 29.5121 28.11 29.5409 28.0219 29.5409H26.8772C26.7892 29.5409 26.7305 29.4833 26.7305 29.3968V24.5279C26.7305 24.4126 26.7892 24.4126 26.8772 24.3838C27.5229 24.2398 28.4622 24.211 29.1666 24.211C31.0451 24.2398 31.5147 24.5855 31.5147 26.487Z" fill="white"/>
<path d="M37.062 24.4126C37.1794 24.4415 37.2675 24.5279 37.2675 24.6431V29.4257C37.2675 30.8374 36.974 31.4712 34.9194 31.4712C34.3324 31.4712 33.716 31.4424 33.1583 31.3271C33.0703 31.3271 33.0116 31.2695 33.0116 31.1831V30.4628C33.0116 30.3476 33.0409 30.3188 33.1583 30.3188H34.802C35.6532 30.3188 35.8586 30.1171 35.8586 29.5121V29.4545C35.4477 29.5409 35.0955 29.5697 34.6846 29.5697C32.9529 29.5697 32.4833 28.9647 32.4833 26.8039C32.4833 24.7584 32.9529 24.211 34.9781 24.211C35.7119 24.2398 36.5044 24.2974 37.062 24.4126ZM34.8901 25.4498C33.9508 25.4498 33.8628 25.7955 33.8628 26.9191C33.8628 28.1292 34.0095 28.3885 34.9781 28.3885C35.2129 28.3885 35.5651 28.3885 35.8293 28.3309V25.4498H34.8901V25.4498Z" fill="white"/>
<path d="M44.6933 25.8532V29.1087C44.6933 29.2528 44.6639 29.3392 44.4878 29.3968C43.8127 29.5409 42.9615 29.5985 42.3158 29.5985C40.8776 29.5985 40.1145 29.4545 40.1145 27.9851C40.1439 26.7175 40.8189 26.4294 42.081 26.4294H43.2844V26.0836C43.2844 25.6227 42.9909 25.421 42.3745 25.421H40.6428C40.5254 25.421 40.4961 25.3922 40.4961 25.277V24.4991C40.4961 24.3838 40.5254 24.355 40.6428 24.355C41.2298 24.2398 41.7875 24.211 42.3745 24.211C44.2823 24.2398 44.6933 24.8448 44.6933 25.8532ZM42.1691 27.3225C41.6701 27.3225 41.494 27.4954 41.494 27.8987C41.494 28.3597 41.6995 28.4749 42.3158 28.4749C42.5213 28.4749 42.9909 28.4461 43.2844 28.3885V27.3513H42.1691V27.3225Z" fill="white"/>
<path d="M50.8863 22.3095C51.0037 22.3383 51.0331 22.3671 51.0331 22.4823V23.2602C51.0331 23.3755 50.9744 23.4043 50.857 23.4043H50.0938C49.7123 23.4043 49.5655 23.4619 49.5655 23.7788V24.2686H50.7396C50.857 24.2686 50.8863 24.3262 50.857 24.4415L50.7102 25.2193C50.6809 25.3058 50.6221 25.3634 50.5341 25.3634H49.5655V29.3968C49.5655 29.5121 49.5068 29.5409 49.4188 29.5409H48.2741C48.186 29.5409 48.1273 29.4833 48.1273 29.3968V25.3634H47.5109C47.3935 25.3634 47.3348 25.3058 47.3348 25.2193V24.4126C47.3348 24.3262 47.3935 24.2686 47.5109 24.2686H48.1273V23.5483C48.1273 22.3671 48.9491 22.2231 49.8003 22.2231C50.1525 22.2231 50.5341 22.2519 50.8863 22.3095Z" fill="white"/>
<path d="M56.1108 24.2686C56.1988 24.2686 56.2575 24.3262 56.2575 24.4126V29.2528C56.2575 29.368 56.2282 29.3968 56.1108 29.4256C55.4651 29.5409 54.5258 29.5985 53.8214 29.5985C51.9723 29.5985 51.5027 29.2528 51.5027 27.3225V24.4126C51.5027 24.3262 51.5614 24.2686 51.6494 24.2686H52.7941C52.8822 24.2686 52.9409 24.3262 52.9409 24.4126V26.948C52.9409 28.302 53.0876 28.3597 53.9682 28.3597H54.8193V24.4126C54.8193 24.3262 54.878 24.2686 54.9661 24.2686H56.1108Z" fill="white"/>
<path d="M58.9872 22.8281C59.0753 22.7993 59.134 22.8569 59.134 22.9721V24.3262H60.0145C60.1319 24.3262 60.1906 24.3838 60.1906 24.4703V25.2193C60.1906 25.3058 60.1319 25.3634 60.0145 25.3634H59.134V27.9275C59.134 28.3309 59.2807 28.4173 59.6916 28.4173H60.0732C60.1906 28.4173 60.2493 28.4461 60.2493 28.5614V29.368C60.2493 29.4833 60.1906 29.5409 60.1025 29.5409C59.7797 29.5985 59.4862 29.6273 59.2807 29.6273C58.4589 29.6273 57.6958 29.5985 57.6958 28.4173V25.3346H57.1381C57.0207 25.3346 56.9913 25.277 56.9913 25.1905V24.4415C56.9913 24.355 57.05 24.2974 57.1381 24.2974H57.6958V23.2602C57.6958 23.1738 57.7251 23.1162 57.8425 23.1162L58.9872 22.8281Z" fill="white"/>
<path d="M65.5911 24.2686C65.6792 24.2686 65.7379 24.3262 65.7379 24.4126V29.2528C65.7379 29.368 65.7085 29.3968 65.5911 29.4256C64.9454 29.5409 64.0062 29.5985 63.3018 29.5985C61.4526 29.5985 60.983 29.2528 60.983 27.3225V24.4126C60.983 24.3262 61.0417 24.2686 61.1298 24.2686H62.2745C62.3625 24.2686 62.4212 24.3262 62.4212 24.4126V26.948C62.4212 28.302 62.568 28.3597 63.4485 28.3597H64.2997V24.4126C64.2997 24.3262 64.3584 24.2686 64.4464 24.2686H65.5911Z" fill="white"/>
<path d="M69.8764 24.3262C69.9938 24.355 70.0232 24.3838 70.0232 24.5279V25.3058C70.0232 25.3922 69.9645 25.4498 69.8471 25.4498H68.9372C68.4382 25.4498 68.2621 25.5362 68.2621 25.9396V29.4257C68.2621 29.5409 68.2034 29.5697 68.1154 29.5697H67C66.912 29.5697 66.8533 29.5121 66.8533 29.4257V25.5651C66.8533 24.3838 67.7044 24.2398 68.585 24.2398C68.8785 24.2398 69.5242 24.2686 69.8764 24.3262Z" fill="white"/>
<path d="M75.3063 26.8615V27.1496C75.3063 27.3513 75.2476 27.4089 75.0128 27.4089H72.019C72.0484 28.2444 72.2538 28.4173 73.105 28.4173H74.8074C74.8954 28.4173 74.9541 28.4749 74.9541 28.5614V29.3392C74.9541 29.4545 74.8954 29.4833 74.8074 29.4833C74.3084 29.5985 73.604 29.6273 72.9876 29.6273C71.0504 29.6273 70.5808 29.0799 70.5808 26.948C70.5808 24.7872 71.0504 24.2686 72.9876 24.2686C74.8367 24.2398 75.3063 24.7584 75.3063 26.8615ZM71.9897 26.487H73.8975C73.8975 25.6515 73.6627 25.4498 72.9582 25.4498C72.2538 25.4498 72.019 25.6515 71.9897 26.487Z" fill="white"/>
<path d="M85.1976 24.4127C85.315 24.4127 85.3443 24.4415 85.315 24.5567L84.4638 28.5325C84.2584 29.4545 84.1116 29.5985 83.3485 29.5985C82.4973 29.5985 82.4679 29.4833 82.2331 28.5325L81.6168 25.9108L81.0004 28.5325C80.7656 29.4833 80.7362 29.5985 79.8851 29.5985C79.1219 29.5985 78.9752 29.4545 78.7697 28.5325L77.9185 24.5567C77.8892 24.4415 77.9185 24.4127 78.0359 24.4127H78.7404C78.7991 24.4127 78.8284 24.4415 78.8578 24.5567L79.6503 28.4173C79.7383 28.7342 79.797 28.763 79.9144 28.763C80.0905 28.763 80.0905 28.7342 80.1786 28.4173L81.0884 24.7008C81.1178 24.5855 81.1471 24.5567 81.2352 24.5567H82.0277C82.1157 24.5567 82.1451 24.5855 82.1744 24.7008L83.1137 28.4173C83.2017 28.7342 83.2017 28.763 83.3778 28.763C83.4952 28.763 83.5539 28.7342 83.642 28.4173L84.4345 24.5567C84.4638 24.4415 84.4932 24.4127 84.5519 24.4127H85.1976Z" fill="white"/>
<path d="M90.4514 26.8327V27.092C90.4514 27.2937 90.3927 27.3513 90.0992 27.3513H87.0466C87.076 28.5037 87.2815 28.7918 88.3087 28.7918H89.8937C89.9817 28.7918 90.0405 28.8494 90.0405 28.9359V29.3392C90.0405 29.4256 89.9817 29.4833 89.8937 29.4833C89.3947 29.5409 88.8664 29.5697 88.2794 29.5697C86.489 29.5697 86.1074 29.0511 86.1074 26.948C86.1074 24.8448 86.489 24.3262 88.2794 24.3262C90.0111 24.355 90.422 24.8448 90.4514 26.8327ZM87.0466 26.631H89.5415C89.5121 25.4498 89.3067 25.1329 88.3381 25.1329C87.2815 25.1329 87.076 25.4498 87.0466 26.631Z" fill="white"/>
<path d="M97.2021 24.4415C97.2902 24.4415 97.3489 24.4991 97.3489 24.6143V25.0177C97.3489 25.1041 97.2902 25.1617 97.2021 25.1617H95.7639C94.6192 25.1617 94.4725 25.5362 94.4725 27.0056C94.4725 28.4749 94.6192 28.8206 95.7639 28.8206H97.2021C97.2902 28.8206 97.3489 28.8783 97.3489 28.9647V29.368C97.3489 29.4545 97.2902 29.5121 97.2021 29.5409C96.7032 29.5985 96.1455 29.6273 95.7346 29.6273C93.8855 29.6273 93.5039 29.1087 93.5039 27.0056C93.5039 24.9024 93.8561 24.3838 95.7346 24.3838C96.1455 24.355 96.7032 24.3838 97.2021 24.4415Z" fill="white"/>
<path d="M102.162 25.8243V29.1087C102.162 29.1952 102.162 29.3104 101.986 29.368C101.663 29.4833 100.812 29.5697 99.873 29.5697C98.6109 29.5697 98.0239 29.3104 98.0239 28.0427C98.0239 26.9191 98.6403 26.6022 99.7263 26.6022H101.282V25.9684C101.282 25.3922 100.93 25.1329 100.049 25.1329H98.6109C98.4935 25.1329 98.4642 25.1041 98.4642 24.9888V24.6143C98.4642 24.4991 98.4935 24.4703 98.6109 24.4703C99.1686 24.3838 99.6676 24.355 100.049 24.355C101.487 24.355 102.162 24.816 102.162 25.8243ZM99.6969 27.3513C99.1686 27.3513 98.9045 27.5242 98.9045 28.0427C98.9045 28.6766 99.2273 28.7918 100.02 28.7918C100.313 28.7918 100.871 28.763 101.253 28.6766V27.3225H99.6969V27.3513Z" fill="white"/>
<path d="M107.798 26.5446V29.3968C107.798 29.4833 107.739 29.5409 107.622 29.5409H107.005C106.917 29.5409 106.859 29.4833 106.859 29.3968V26.631C106.859 25.1905 106.565 25.1329 105.655 25.1329H104.334V29.3968C104.334 29.4833 104.276 29.5409 104.188 29.5409H103.542C103.454 29.5409 103.395 29.4833 103.395 29.3968V24.6431C103.395 24.5279 103.454 24.4991 103.542 24.4991C104.276 24.355 105.068 24.355 105.538 24.355C107.269 24.355 107.798 24.5567 107.798 26.5446Z" fill="white"/>
<path d="M115.077 25.8243V29.1087C115.077 29.1952 115.077 29.3104 114.901 29.368C114.578 29.4833 113.727 29.5697 112.787 29.5697C111.525 29.5697 110.938 29.3104 110.938 28.0427C110.938 26.9191 111.555 26.6022 112.641 26.6022H114.196V25.9684C114.196 25.3922 113.844 25.1329 112.964 25.1329H111.525C111.408 25.1329 111.379 25.1041 111.379 24.9888V24.6143C111.379 24.4991 111.408 24.4703 111.525 24.4703C112.083 24.3838 112.582 24.355 112.964 24.355C114.402 24.355 115.077 24.816 115.077 25.8243ZM112.611 27.3513C112.083 27.3513 111.819 27.5242 111.819 28.0427C111.819 28.6766 112.142 28.7918 112.934 28.7918C113.228 28.7918 113.785 28.763 114.167 28.6766V27.3225H112.611V27.3513Z" fill="white"/>
<path d="M117.131 22.4247C117.22 22.4247 117.278 22.4823 117.278 22.5688V29.3968C117.278 29.4833 117.22 29.5409 117.131 29.5409H116.486C116.398 29.5409 116.339 29.4833 116.339 29.3968V22.5688C116.339 22.4823 116.398 22.4247 116.486 22.4247H117.131Z" fill="white"/>
<path d="M119.362 22.4247C119.45 22.4247 119.509 22.4823 119.509 22.5688V29.3968C119.509 29.4833 119.45 29.5409 119.362 29.5409H118.716C118.628 29.5409 118.57 29.4833 118.57 29.3968V22.5688C118.57 22.4823 118.628 22.4247 118.716 22.4247H119.362Z" fill="white"/>
<path d="M124.029 22.9721C124.146 22.9433 124.205 23.0009 124.205 23.0874V24.4126H125.203C125.32 24.4126 125.35 24.4703 125.35 24.5567V24.9889C125.35 25.0753 125.291 25.1329 125.203 25.1329H124.205V28.3021C124.205 28.7054 124.322 28.8206 124.821 28.8206H125.291C125.408 28.8206 125.438 28.8494 125.438 28.9647V29.4257C125.438 29.5121 125.379 29.5697 125.291 29.5697C125.086 29.6273 124.851 29.6273 124.763 29.6273C124.088 29.6273 123.295 29.6273 123.295 28.5613V25.1329H122.767C122.679 25.1329 122.62 25.0753 122.62 24.9889V24.5567C122.62 24.4703 122.679 24.4126 122.767 24.4126H123.295V23.289C123.295 23.2026 123.325 23.145 123.413 23.145L124.029 22.9721Z" fill="white"/>
<path d="M128.842 24.4703C128.931 24.4991 128.989 24.5279 128.989 24.6431V25.0465C128.989 25.1329 128.931 25.1905 128.842 25.1905H128.021C127.346 25.1905 127.199 25.3058 127.199 25.7091V29.4545C127.199 29.5409 127.14 29.5985 127.052 29.5985H126.436C126.348 29.5985 126.289 29.5409 126.289 29.4545V25.4498C126.289 24.3838 127.258 24.355 127.815 24.355C127.991 24.355 128.666 24.3838 128.842 24.4703Z" fill="white"/>
<path d="M133.95 24.4126C134.038 24.4126 134.096 24.4703 134.096 24.5567V29.3104C134.096 29.4256 134.038 29.4256 133.95 29.4545C133.186 29.5985 132.394 29.5985 131.954 29.5985C130.251 29.5985 129.723 29.368 129.723 27.3801V24.5279C129.723 24.4414 129.782 24.3838 129.899 24.3838H130.515C130.604 24.3838 130.662 24.4414 130.662 24.5279V27.2937C130.662 28.7342 130.956 28.7918 131.866 28.7918H133.186V24.5567C133.186 24.4703 133.245 24.4126 133.333 24.4126H133.95Z" fill="white"/>
<path d="M138.675 24.4414C138.763 24.4414 138.822 24.4991 138.822 24.5855V24.9888C138.822 25.0753 138.763 25.1329 138.675 25.1329H136.885C136.444 25.1329 136.18 25.2769 136.18 25.6227V25.7379C136.18 25.9972 136.298 26.2277 136.767 26.4006L138.029 26.8903C138.91 27.2072 138.998 27.697 138.998 28.2156V28.3308C138.998 29.3968 138.352 29.5985 137.061 29.5985C136.239 29.5985 135.476 29.5409 135.3 29.5121C135.182 29.5121 135.153 29.4545 135.153 29.368V28.9647C135.153 28.8782 135.212 28.8206 135.3 28.8206H137.061C137.824 28.8206 138.059 28.7342 138.059 28.3308V28.2156C138.059 27.9563 137.941 27.7546 137.501 27.5818L136.151 27.0632C135.417 26.7751 135.241 26.2277 135.241 25.7091V25.5074C135.241 24.4703 136.151 24.3262 137.178 24.3262C137.618 24.355 138.117 24.3838 138.675 24.4414Z" fill="white"/>
<path d="M141.082 22.9721C141.199 22.9433 141.258 23.0009 141.258 23.0874V24.4126H142.256C142.373 24.4126 142.403 24.4703 142.403 24.5567V24.9889C142.403 25.0753 142.344 25.1329 142.256 25.1329H141.258V28.3021C141.258 28.7054 141.375 28.8206 141.874 28.8206H142.344C142.461 28.8206 142.491 28.8494 142.491 28.9647V29.4257C142.491 29.5121 142.432 29.5697 142.344 29.5697C142.139 29.6273 141.904 29.6273 141.816 29.6273C141.141 29.6273 140.348 29.6273 140.348 28.5613V25.1329H139.79C139.702 25.1329 139.644 25.0753 139.644 24.9889V24.5567C139.644 24.4703 139.702 24.4126 139.79 24.4126H140.319V23.289C140.319 23.2026 140.348 23.145 140.436 23.145L141.082 22.9721Z" fill="white"/>
</g>
<defs>
<clipPath id="clip0_630_101501">
<rect width="142" height="31" fill="white" transform="translate(0.666748 0.5)"/>
</clipPath>
</defs>
</svg>
