<svg width="56" height="75" viewBox="0 0 56 75" fill="none" xmlns="http://www.w3.org/2000/svg">
<path d="M0 0H56V46.6667L28 74.6667L0 46.6667V0Z" fill="#009286"/>
<path d="M28 18.666V74.666L56 46.666L28 18.666Z" fill="#F3C000"/>
</svg>
