<svg width="73" height="73" viewBox="0 0 73 73" fill="none" xmlns="http://www.w3.org/2000/svg">
<path d="M67.2413 64.491H6.08929C6.00588 64.491 5.92392 64.4693 5.85147 64.4279C5.77903 64.3866 5.71861 64.3271 5.67616 64.2553C5.63372 64.1835 5.61072 64.1018 5.60943 64.0184C5.60814 63.935 5.62861 63.8527 5.66881 63.7797L20.4466 36.9227C20.4868 36.8494 20.5455 36.788 20.6168 36.7444C20.6881 36.7007 20.7696 36.6765 20.8531 36.6741C20.9369 36.67 21.0201 36.6886 21.0941 36.7281C21.1681 36.7676 21.2299 36.8264 21.2731 36.8982L27.9903 47.5749L38.7807 30.4235C38.824 30.3517 38.8859 30.2929 38.96 30.2535C39.034 30.2141 39.1174 30.1956 39.2011 30.1998C39.2846 30.2022 39.3661 30.2264 39.4374 30.2699C39.5087 30.3134 39.5674 30.3748 39.6077 30.448L47.4456 44.6901L52.3479 36.8982C52.3917 36.8264 52.454 36.7677 52.5283 36.7282C52.6027 36.6888 52.6862 36.6701 52.7703 36.6741C52.8541 36.6768 52.9358 36.7016 53.0072 36.7458C53.0785 36.79 53.137 36.8522 53.1768 36.9261L67.6623 63.783C67.7017 63.8561 67.7215 63.9383 67.7197 64.0213C67.718 64.1044 67.6946 64.1856 67.6521 64.257C67.6095 64.3283 67.5491 64.3874 67.4769 64.4284C67.4046 64.4695 67.3229 64.491 67.2399 64.491H67.2413ZM6.90529 63.531H66.4354L52.7223 38.1059L47.8263 45.891C47.7829 45.9628 47.7209 46.0216 47.6469 46.061C47.5729 46.1005 47.4896 46.1192 47.4058 46.1152C47.3223 46.1126 47.2409 46.0884 47.1697 46.0448C47.0985 46.0012 47.0399 45.9397 46.9997 45.8665L39.1613 31.6245L28.3968 48.7321C28.3506 48.7968 28.2897 48.8496 28.219 48.886C28.1483 48.9223 28.07 48.9413 27.9905 48.9413C27.911 48.9413 27.8327 48.9223 27.762 48.886C27.6913 48.8496 27.6304 48.7968 27.5842 48.7321L20.8949 38.0997L6.90529 63.531Z" fill="#282824"/>
<path d="M26.8916 50.7026C26.8058 50.7025 26.7216 50.6794 26.6478 50.6357C26.5739 50.5921 26.5131 50.5294 26.4717 50.4543C26.4303 50.3792 26.4098 50.2943 26.4123 50.2086C26.4148 50.1228 26.4403 50.0393 26.486 49.9668L38.7807 30.4235C38.8143 30.3702 38.8581 30.324 38.9095 30.2875C38.961 30.2511 39.0191 30.2251 39.0806 30.2112C39.1421 30.1972 39.2057 30.1955 39.2679 30.2061C39.33 30.2167 39.3895 30.2395 39.4428 30.2731C39.4962 30.3067 39.5424 30.3504 39.5789 30.4019C39.6153 30.4533 39.6413 30.5115 39.6552 30.573C39.6692 30.6345 39.6709 30.6981 39.6603 30.7602C39.6497 30.8224 39.6269 30.8819 39.5933 30.9352L27.2981 50.4784C27.2549 50.5471 27.1949 50.6037 27.1238 50.6429C27.0527 50.6821 26.9728 50.7027 26.8916 50.7026Z" fill="#282824"/>
<path d="M39.189 31.1607C39.0617 31.1607 38.9396 31.1101 38.8496 31.0201C38.7596 30.9301 38.709 30.808 38.709 30.6807V9.05813C38.709 8.93082 38.7596 8.80873 38.8496 8.71871C38.9396 8.6287 39.0617 8.57812 39.189 8.57812C39.3163 8.57812 39.4384 8.6287 39.5284 8.71871C39.6184 8.80873 39.669 8.93082 39.669 9.05813V30.6807C39.669 30.808 39.6184 30.9301 39.5284 31.0201C39.4384 31.1101 39.3163 31.1607 39.189 31.1607Z" fill="#282824"/>
<path d="M45.9619 48.4302C45.8761 48.4301 45.7919 48.407 45.7181 48.3633C45.6442 48.3197 45.5835 48.257 45.5421 48.1819C45.5006 48.1068 45.4801 48.0219 45.4826 47.9362C45.4851 47.8504 45.5106 47.7669 45.5563 47.6943L52.3483 36.8982C52.417 36.7924 52.5246 36.7179 52.6478 36.6909C52.771 36.6638 52.8999 36.6863 53.0067 36.7536C53.1134 36.8208 53.1894 36.9274 53.2181 37.0502C53.2469 37.173 53.2262 37.3022 53.1605 37.4099L46.3684 48.206C46.3252 48.2747 46.2652 48.3313 46.1941 48.3705C46.123 48.4097 46.0431 48.4302 45.9619 48.4302Z" fill="#282824"/>
<path d="M42.2869 22.1219C41.1809 22.1228 40.0823 21.9413 39.0354 21.5848C38.9402 21.5526 38.8575 21.4914 38.799 21.4098C38.7404 21.3282 38.7089 21.2302 38.709 21.1297V10.2338C38.709 10.1576 38.7272 10.0826 38.762 10.0148C38.7968 9.9471 38.8472 9.88861 38.909 9.8442C38.9709 9.79979 39.0424 9.77074 39.1177 9.75943C39.193 9.74813 39.2699 9.7549 39.3421 9.77919C42.213 10.7464 44.5511 10.095 47.0264 9.40527C49.532 8.70783 52.1236 7.98591 55.2748 9.04671C55.37 9.07878 55.4528 9.13995 55.5115 9.22159C55.5701 9.30323 55.6017 9.40123 55.6016 9.50175V20.3977C55.6017 20.4739 55.5835 20.549 55.5488 20.6168C55.514 20.6846 55.4636 20.7432 55.4018 20.7876C55.3399 20.8321 55.2684 20.8612 55.193 20.8725C55.1177 20.8839 55.0407 20.8771 54.9685 20.8528C52.0967 19.8856 49.7591 20.5365 47.2837 21.2262C45.6676 21.7545 43.9859 22.056 42.2869 22.1219ZM39.669 20.7779C42.3915 21.5905 44.6452 20.9637 47.0264 20.3003C49.3621 19.6494 51.7732 18.9784 54.6416 19.7502V9.85023C51.9186 9.03759 49.6645 9.66495 47.2842 10.3302C44.948 10.9811 42.5379 11.6517 39.669 10.8808V20.7779Z" fill="#282824"/>
<path d="M53.2007 17.1373C53.0734 17.1373 52.9513 17.0867 52.8613 16.9967C52.7713 16.9067 52.7207 16.7846 52.7207 16.6573V10.9995C52.7207 10.8722 52.7713 10.7501 52.8613 10.6601C52.9513 10.5701 53.0734 10.5195 53.2007 10.5195C53.328 10.5195 53.4501 10.5701 53.5401 10.6601C53.6301 10.7501 53.6807 10.8722 53.6807 10.9995V16.6573C53.6807 16.7846 53.6301 16.9067 53.5401 16.9967C53.4501 17.0867 53.328 17.1373 53.2007 17.1373Z" fill="#282824"/>
<path d="M42.2865 20.2038C41.867 20.2037 41.4482 20.1716 41.0337 20.1078C40.9702 20.0996 40.9089 20.0787 40.8536 20.0465C40.7983 20.0143 40.75 19.9713 40.7115 19.9201C40.6731 19.8689 40.6452 19.8106 40.6296 19.7485C40.6141 19.6864 40.6111 19.6218 40.6209 19.5585C40.6306 19.4952 40.6529 19.4346 40.6865 19.38C40.7201 19.3255 40.7642 19.2783 40.8163 19.2411C40.8684 19.2039 40.9275 19.1775 40.9899 19.1634C41.0524 19.1494 41.117 19.148 41.1801 19.1593C42.1255 19.2947 43.0875 19.2633 44.0221 19.0667C44.0841 19.0551 44.1478 19.056 44.2095 19.0691C44.2711 19.0822 44.3296 19.1073 44.3816 19.143C44.4336 19.1787 44.478 19.2243 44.5124 19.2771C44.5467 19.33 44.5703 19.3891 44.5818 19.4511C44.5933 19.5131 44.5925 19.5768 44.5794 19.6385C44.5663 19.7001 44.5412 19.7586 44.5055 19.8106C44.4698 19.8626 44.4242 19.907 44.3713 19.9414C44.3184 19.9757 44.2593 19.9993 44.1973 20.0108C43.5676 20.1335 42.928 20.1981 42.2865 20.2038Z" fill="#282824"/>
<path d="M11.954 57.8185C11.8707 57.8184 11.7888 57.7966 11.7164 57.7552C11.644 57.7138 11.5837 57.6543 11.5413 57.5825C11.4989 57.5107 11.4759 57.4292 11.4747 57.3458C11.4734 57.2624 11.4939 57.1802 11.534 57.1071L13.6028 53.3468C13.6654 53.2376 13.7684 53.1574 13.8896 53.1233C14.0107 53.0893 14.1404 53.1043 14.2507 53.1649C14.361 53.2256 14.443 53.3272 14.4791 53.4477C14.5152 53.5683 14.5026 53.6982 14.4438 53.8095L12.375 57.5699C12.3336 57.6452 12.2726 57.7081 12.1986 57.7518C12.1245 57.7955 12.0401 57.8186 11.954 57.8185Z" fill="#282824"/>
<path d="M15.2978 51.737C15.217 51.7372 15.1375 51.7167 15.0669 51.6775C14.9554 51.6161 14.8728 51.5129 14.8374 51.3907C14.8019 51.2685 14.8164 51.1371 14.8778 51.0256L18.0031 45.3458C18.0328 45.2894 18.0735 45.2395 18.1227 45.1991C18.172 45.1586 18.2288 45.1283 18.2898 45.11C18.3509 45.0917 18.415 45.0858 18.4783 45.0925C18.5417 45.0993 18.6031 45.1186 18.659 45.1493C18.7148 45.18 18.764 45.2216 18.8036 45.2715C18.8432 45.3214 18.8725 45.3787 18.8897 45.4401C18.9069 45.5015 18.9118 45.5656 18.9039 45.6289C18.8961 45.6921 18.8757 45.7532 18.844 45.8085L15.7187 51.4883C15.6773 51.5637 15.6163 51.6265 15.5423 51.6703C15.4682 51.714 15.3838 51.737 15.2978 51.737Z" fill="#282824"/>
<path d="M57.8343 51.0963C57.7476 51.0964 57.6624 51.0729 57.588 51.0284C57.5135 50.984 57.4525 50.9202 57.4114 50.8438L53.3554 43.3241C53.3239 43.2686 53.3038 43.2072 53.2963 43.1438C53.2888 43.0804 53.294 43.016 53.3117 42.9546C53.3294 42.8932 53.3591 42.836 53.3992 42.7862C53.4393 42.7365 53.4889 42.6953 53.5452 42.6649C53.6014 42.6346 53.6631 42.6158 53.7267 42.6097C53.7903 42.6035 53.8545 42.6101 53.9155 42.6291C53.9765 42.648 54.0331 42.679 54.082 42.7201C54.1309 42.7613 54.1711 42.8118 54.2002 42.8686L58.2567 50.3883C58.2961 50.4614 58.316 50.5435 58.3142 50.6266C58.3124 50.7097 58.2891 50.7909 58.2465 50.8622C58.2039 50.9336 58.1436 50.9927 58.0713 51.0337C57.999 51.0747 57.9174 51.0963 57.8343 51.0963Z" fill="#282824"/>
<path d="M61.804 58.4561C61.7172 58.4563 61.632 58.433 61.5575 58.3886C61.4829 58.3442 61.4218 58.2805 61.3806 58.2041L59.3094 54.3641C59.249 54.252 59.2356 54.1205 59.2722 53.9986C59.3087 53.8766 59.3922 53.7741 59.5043 53.7137C59.6164 53.6533 59.7479 53.6399 59.8699 53.6765C59.9918 53.713 60.0943 53.7965 60.1547 53.9086L62.2259 57.7486C62.2652 57.8217 62.2849 57.9037 62.2831 57.9867C62.2813 58.0696 62.258 58.1507 62.2155 58.222C62.173 58.2932 62.1127 58.3523 62.0406 58.3933C61.9685 58.4344 61.887 58.456 61.804 58.4561Z" fill="#282824"/>
</svg>
