<svg width="57" height="56" viewBox="0 0 57 56" fill="none" xmlns="http://www.w3.org/2000/svg">
<g clip-path="url(#clip0_134_29347)">
<path d="M42.7985 27.0695C35.337 27.0695 29.2638 21.0006 29.2638 13.5347C29.2638 6.06892 35.337 0 42.7985 0C50.2601 0 56.3333 6.06892 56.3333 13.5347C56.3333 21.0006 50.2644 27.0695 42.7985 27.0695ZM42.7985 1.67626C36.2612 1.67626 30.9401 6.99732 30.9401 13.5347C30.9401 20.0721 36.2612 25.3932 42.7985 25.3932C49.3359 25.3932 54.657 20.0721 54.657 13.5347C54.6614 6.99732 49.3402 1.67626 42.7985 1.67626Z" fill="#9E9E9E"/>
<path d="M8.86932 13.5648V13.5347C8.86932 10.4272 11.1946 7.87842 14.5084 7.87842C16.5243 7.87842 17.7406 8.58331 18.7894 9.58047L17.5558 11.0031C16.679 10.1908 15.742 9.64493 14.4956 9.64493C12.4196 9.64493 10.8894 11.3642 10.8894 13.5046V13.5347C10.8894 15.6752 12.4024 17.4073 14.4956 17.4073C15.8409 17.4073 16.6962 16.8744 17.6332 16.0018L18.8667 17.2526C17.7277 18.4388 16.477 19.191 14.4311 19.191C11.2419 19.191 8.86932 16.7067 8.86932 13.5648Z" fill="#9E9E9E"/>
<path d="M13.8681 27.0695C6.40655 27.0695 0.333313 21.0006 0.333313 13.5347C0.333313 6.06892 6.40655 0 13.8681 0C21.3297 0 27.4028 6.06892 27.4028 13.5347C27.4028 21.0006 21.3297 27.0695 13.8681 27.0695ZM13.8681 1.67626C7.33064 1.67626 2.00958 6.99732 2.00958 13.5347C2.00958 20.0721 7.33064 25.3932 13.8681 25.3932C20.4055 25.3932 25.7265 20.0764 25.7265 13.5347C25.7265 6.99732 20.4098 1.67626 13.8681 1.67626Z" fill="#9E9E9E"/>
<path d="M9.93533 36.9982H14.0099C17.4441 36.9982 19.821 39.3577 19.821 42.4352V42.4653C19.821 45.5426 17.4484 47.9324 14.0099 47.9324H9.93533V36.9982ZM11.8566 38.7474V46.1832H14.0099C16.3052 46.1832 17.8052 44.6359 17.8052 42.4953V42.4653C17.8052 40.3249 16.3052 38.7474 14.0099 38.7474H11.8566Z" fill="#9E9E9E"/>
<path d="M38.8575 36.9982H46.9637V38.7173H40.7787V41.5583H46.263V43.2777H40.7787V46.2132H47.0412V47.9324H38.8575V36.9982Z" fill="#9E9E9E"/>
<path d="M42.7985 56C35.337 56 29.2638 49.9312 29.2638 42.4653C29.2638 35.0037 35.3327 28.9305 42.7985 28.9305C50.2601 28.9305 56.3333 34.9994 56.3333 42.4653C56.3333 49.9312 50.2644 56 42.7985 56ZM42.7985 30.6069C36.2612 30.6069 30.9401 35.9279 30.9401 42.4653C30.9401 49.0027 36.2612 54.3237 42.7985 54.3237C49.3359 54.3237 54.657 49.0027 54.657 42.4653C54.6614 35.9279 49.3402 30.6069 42.7985 30.6069Z" fill="#9E9E9E"/>
<path d="M13.8681 56C6.40655 56 0.333313 49.9312 0.333313 42.4653C0.333313 35.0037 6.40225 28.9305 13.8681 28.9305C21.3297 28.9305 27.4028 34.9994 27.4028 42.4653C27.4028 49.9312 21.3297 56 13.8681 56ZM13.8681 30.6069C7.33064 30.6069 2.00958 35.9279 2.00958 42.4653C2.00958 49.0027 7.33064 54.3237 13.8681 54.3237C20.4055 54.3237 25.7265 49.0069 25.7265 42.4653C25.7265 35.9279 20.4098 30.6069 13.8681 30.6069Z" fill="#9E9E9E"/>
</g>
<defs>
<clipPath id="clip0_134_29347">
<rect width="56" height="56" fill="white" transform="translate(0.333313)"/>
</clipPath>
</defs>
</svg>
