<svg width="144" height="64" viewBox="0 0 144 64" fill="none" xmlns="http://www.w3.org/2000/svg">
<g clip-path="url(#clip0_352_41136)">
<path d="M3.84205 55.136C4.97944 55.136 5.88077 55.4134 6.53531 55.9894C7.20057 56.5654 7.53321 57.3227 7.53321 58.304C7.53321 59.3067 7.18984 60.1174 6.49239 60.7147C5.79493 61.3014 4.86141 61.5894 3.67037 61.5894H2.49006V63.7974H0.333313V55.1254H3.84205V55.136ZM3.80986 59.712C4.77557 59.712 5.38719 59.168 5.38719 58.3147C5.38719 57.536 4.77557 57.0454 3.80986 57.0454H2.50079V59.7227H3.80986V59.712ZM15.7417 61.3014V63.808H13.5743V55.136H17.3834C18.4779 55.136 19.3578 55.4134 20.0123 55.968C20.6668 56.512 20.9995 57.2587 20.9995 58.1867C20.9995 59.3707 20.3986 60.352 19.3363 60.8747L21.5789 63.808H18.9715L17.083 61.3014H15.7417ZM17.3512 59.36C18.2097 59.36 18.8427 58.8907 18.8427 58.1867C18.8427 57.5147 18.2097 57.0347 17.3512 57.0347H15.7525V59.3494H17.3512V59.36ZM31.6867 54.9654C32.9957 54.9654 34.0795 55.4027 34.9701 56.2774C35.8499 57.1414 36.3006 58.2187 36.3006 59.4774C36.3006 60.736 35.8499 61.8134 34.9701 62.688C34.0902 63.552 32.9957 63.9894 31.6867 63.9894C30.3776 63.9894 29.2724 63.552 28.3925 62.688C27.5126 61.8134 27.0727 60.736 27.0727 59.4774C27.0727 58.2187 27.5126 57.1414 28.3925 56.2774C29.2831 55.392 30.3883 54.9654 31.6867 54.9654ZM31.6867 61.984C32.3841 61.984 32.9528 61.7387 33.4142 61.2587C33.8756 60.7574 34.1117 60.1707 34.1117 59.4774C34.1117 58.7734 33.8756 58.1867 33.4142 57.7067C32.9528 57.2054 32.3734 56.9707 31.6867 56.9707C30.9999 56.9707 30.4205 57.216 29.9591 57.7067C29.4977 58.1867 29.2617 58.7734 29.2617 59.4774C29.2617 60.1814 29.4977 60.768 29.9591 61.2587C30.4205 61.7387 30.9999 61.984 31.6867 61.984ZM46.2796 55.136C47.653 55.136 48.7797 55.5414 49.6703 56.352C50.5502 57.152 50.9901 58.1867 50.9901 59.4454C50.9901 60.736 50.5502 61.7814 49.6703 62.592C48.7904 63.392 47.653 63.808 46.2796 63.808H42.7816V55.136H46.2796ZM46.2796 61.8667C46.9878 61.8667 47.5887 61.632 48.0608 61.1734C48.5329 60.704 48.7797 60.128 48.7797 59.4347C48.7797 58.7627 48.5329 58.1974 48.0608 57.7494C47.5887 57.2907 46.9878 57.056 46.2796 57.056H44.9491V61.8667H46.2796ZM65.3577 59.7654C65.3577 61.0987 65.0036 62.1334 64.2632 62.8907C63.5336 63.6267 62.5464 64 61.291 64C60.0356 64 59.0377 63.6267 58.3188 62.8907C57.5891 62.1334 57.2457 61.1094 57.2457 59.7654V55.136H59.424V59.7974C59.424 61.12 60.1536 61.9734 61.291 61.9734C62.4284 61.9734 63.1795 61.12 63.1795 59.7974V55.136H65.3577V59.7654ZM78.4591 60.2134H80.691C80.5515 61.344 80.0794 62.2507 79.2854 62.9547C78.4913 63.648 77.5042 63.9894 76.3239 63.9894C75.0041 63.9894 73.9096 63.5734 73.0297 62.7094C72.1498 61.856 71.7099 60.768 71.7099 59.4667C71.7099 58.1654 72.1498 57.0987 73.0297 56.2454C73.9096 55.392 75.0041 54.9547 76.3239 54.9547C77.5042 54.9547 78.4913 55.296 79.2854 56C80.0794 56.6934 80.5515 57.5894 80.691 58.7307H78.4591C78.2123 57.6214 77.4505 56.9707 76.3024 56.9707C75.5942 56.9707 75.0041 57.216 74.5534 57.6854C74.1027 58.1547 73.8881 58.7414 73.8881 59.4667C73.8881 60.192 74.1027 60.7894 74.5534 61.2694C75.0041 61.7387 75.5942 61.9734 76.3024 61.9734C77.4505 61.9734 78.2231 61.3227 78.4591 60.2134ZM90.9812 57.0667V63.808H88.8244V57.0667H86.0453V55.136H93.771V57.0667H90.9812ZM103.482 55.136C104.619 55.136 105.52 55.4134 106.175 55.9894C106.84 56.5654 107.173 57.3227 107.173 58.304C107.173 59.3067 106.83 60.1174 106.132 60.7147C105.435 61.3014 104.501 61.5894 103.31 61.5894H102.13V63.7974H99.9623V55.1254H103.482V55.136ZM103.45 59.712C104.415 59.712 105.027 59.168 105.027 58.3147C105.027 57.536 104.415 57.0454 103.45 57.0454H102.14V59.7227H103.45V59.712ZM115.381 63.808H113.214V55.136H115.381V63.808ZM130.071 63.808H128.408L124.223 59.0507V63.808H122.056V55.136H123.708L127.914 60.0214V55.136H130.071V63.808ZM138.912 58.592H142.786V60.4267H138.912V61.9307H143.333V63.808H136.745V55.136H143.333V57.0134H138.912V58.592Z" fill="#D9D9D9"/>
<path opacity="0.4" d="M71.8387 45.92C89.9296 31.1787 89.9296 14.7413 71.8387 0C53.7477 14.7413 53.7477 31.1787 71.8387 45.92Z" fill="#737373"/>
<path opacity="0.4" d="M69.5317 45.8346C69.5317 45.8346 70.5833 45.8986 71.0876 45.9093H72.5898C73.1048 45.8986 74.1564 45.8346 74.1457 45.8346C78.1695 45.5146 81.6567 44.352 84.5324 42.3893C84.9723 27.0933 75.047 17.0666 55.6148 13.7706C52.7069 21.5893 51.7198 28.5333 52.5782 34.4853C55.765 41.28 61.5914 45.2053 69.5317 45.8346Z" fill="#AFAFAF"/>
<path opacity="0.4" d="M69.5317 45.8346C69.5317 45.8346 70.5833 45.8986 71.0876 45.9093H72.5898C73.1048 45.8986 74.1564 45.8346 74.1457 45.8346C82.0859 45.2053 87.9124 41.2906 91.0992 34.4853C91.9684 28.5226 90.9705 21.5786 88.0626 13.7706C68.6304 17.056 58.7051 27.0933 59.145 42.3893C62.0207 44.3413 65.4972 45.5146 69.5317 45.8346Z" fill="#AFAFAF"/>
<path opacity="0.4" d="M69.5317 45.8347C82.5259 46.7414 91.0241 40.128 93.2882 27.3814C80.294 26.4747 71.7851 33.088 69.5317 45.8347Z" fill="#737373"/>
<path opacity="0.4" d="M74.1457 45.8347C61.1515 46.7414 52.6533 40.128 50.3892 27.3814C63.3726 26.4747 71.8816 33.088 74.1457 45.8347Z" fill="#737373"/>
<path opacity="0.4" d="M71.8387 38.4747C73.9954 34.0267 77.3003 30.8267 81.6138 29.024C79.4892 25.088 76.2165 21.8133 71.8387 19.2427C67.4608 21.8133 64.1881 25.088 62.0635 29.024C66.3663 30.8373 69.6819 34.0267 71.8387 38.4747Z" fill="url(#paint0_linear_352_41136)"/>
<path opacity="0.4" d="M83.1267 32.5013C82.7083 31.296 82.2039 30.1333 81.6031 29.0347C77.2896 30.8373 73.9847 34.0267 71.8279 38.4853C72.6649 40.2133 73.3302 42.1333 73.8023 44.2453C73.9203 44.768 74.0276 45.2907 74.1242 45.8347C78.148 45.5147 81.6352 44.352 84.5109 42.3893C84.6289 38.7947 84.1568 35.488 83.1267 32.5013Z" fill="url(#paint1_linear_352_41136)"/>
<path opacity="0.4" d="M62.0636 29.0347C61.4627 30.144 60.9584 31.296 60.5399 32.5013C59.5098 35.488 59.0484 38.784 59.145 42.3787C62.0206 44.3413 65.4972 45.504 69.5317 45.824C69.6283 45.28 69.7356 44.7573 69.8536 44.2347C70.3365 42.1333 70.991 40.2133 71.8279 38.4747C69.6819 34.0267 66.3663 30.8373 62.0636 29.0347Z" fill="url(#paint2_linear_352_41136)"/>
<path opacity="0.4" d="M59.9819 14.656C58.5763 14.3147 57.117 14.016 55.604 13.76C53.7907 18.624 52.7284 23.136 52.385 27.296C54.7134 27.2747 56.8917 27.5093 58.8982 28C60.0034 28.2667 61.0549 28.608 62.0636 29.024C64.1881 25.088 67.4608 21.8133 71.8387 19.2427C68.5231 17.312 64.5637 15.7653 59.9819 14.656Z" fill="url(#paint3_linear_352_41136)"/>
<path opacity="0.4" d="M88.0626 13.76C86.5927 14.005 85.1324 14.3039 83.6847 14.656C79.103 15.7653 75.1543 17.3013 71.8387 19.2533C76.2166 21.824 79.4892 25.0987 81.6138 29.0347C82.6117 28.6187 83.674 28.2773 84.7792 28.0107C86.7857 27.52 88.9532 27.2853 91.2923 27.3067C90.9383 23.1467 89.876 18.624 88.0626 13.76Z" fill="url(#paint4_linear_352_41136)"/>
<path opacity="0.4" d="M83.6847 14.656C81.6138 9.67467 77.6651 4.74667 71.8387 0C66.0123 4.74667 62.0636 9.67467 59.9927 14.656C64.5744 15.7653 68.5231 17.3013 71.8387 19.2533C75.1543 17.312 79.103 15.7653 83.6847 14.656Z" fill="url(#paint5_linear_352_41136)"/>
</g>
<defs>
<linearGradient id="paint0_linear_352_41136" x1="71.8354" y1="40.0757" x2="71.8354" y2="5.27574" gradientUnits="userSpaceOnUse">
<stop stop-color="#34A79E" stop-opacity="0"/>
<stop offset="0.138" stop-color="#34A79E" stop-opacity="0.124"/>
<stop offset="1" stop-color="#34A79E" stop-opacity="0.9"/>
</linearGradient>
<linearGradient id="paint1_linear_352_41136" x1="72.4202" y1="40.8501" x2="83.2285" y2="35.6826" gradientUnits="userSpaceOnUse">
<stop stop-color="#2E957C" stop-opacity="0"/>
<stop offset="0.141" stop-color="#2E957C" stop-opacity="0.113"/>
<stop offset="1" stop-color="#2E957C" stop-opacity="0.8"/>
</linearGradient>
<linearGradient id="paint2_linear_352_41136" x1="70.3279" y1="41.4485" x2="60.5988" y2="35.5329" gradientUnits="userSpaceOnUse">
<stop stop-color="#979797" stop-opacity="0"/>
<stop offset="0.141" stop-color="#959595" stop-opacity="0.113"/>
<stop offset="1" stop-color="#919191" stop-opacity="0.8"/>
</linearGradient>
<linearGradient id="paint3_linear_352_41136" x1="64.3104" y1="28.6848" x2="58.1024" y2="13.2363" gradientUnits="userSpaceOnUse">
<stop stop-color="#34A79E" stop-opacity="0"/>
<stop offset="0.138" stop-color="#34A79E" stop-opacity="0.11"/>
<stop offset="1" stop-color="#34A79E" stop-opacity="0.8"/>
</linearGradient>
<linearGradient id="paint4_linear_352_41136" x1="79.4399" y1="28.3616" x2="85.7525" y2="13.0349" gradientUnits="userSpaceOnUse">
<stop stop-color="#9D9D9D" stop-opacity="0"/>
<stop offset="0.138" stop-color="#A5A5A5" stop-opacity="0.11"/>
<stop offset="1" stop-color="#AAAAAA" stop-opacity="0.8"/>
</linearGradient>
<linearGradient id="paint5_linear_352_41136" x1="71.799" y1="21.0464" x2="71.9082" y2="1.79413" gradientUnits="userSpaceOnUse">
<stop stop-color="#999999" stop-opacity="0"/>
<stop offset="0.138" stop-color="#969696" stop-opacity="0.083"/>
<stop offset="1" stop-color="#969696" stop-opacity="0.6"/>
</linearGradient>
<clipPath id="clip0_352_41136">
<rect width="143" height="64" fill="white" transform="translate(0.333313)"/>
</clipPath>
</defs>
</svg>
