<svg width="140" height="150" viewBox="0 0 140 150" fill="none" xmlns="http://www.w3.org/2000/svg">
<path d="M107.787 48.849H90.2578C90.0739 48.849 89.8976 48.7759 89.7675 48.6459C89.6375 48.5159 89.5645 48.3395 89.5645 48.1556V30.6268C89.5645 30.4897 89.6052 30.3557 89.6814 30.2417C89.7575 30.1277 89.8658 30.0388 89.9925 29.9864C90.1192 29.9339 90.2585 29.9202 90.393 29.9469C90.5275 29.9736 90.651 30.0397 90.748 30.1366L108.277 47.6654C108.374 47.7624 108.44 47.8859 108.467 48.0204C108.493 48.1549 108.48 48.2943 108.427 48.4209C108.375 48.5476 108.286 48.6559 108.172 48.7321C108.058 48.8083 107.924 48.8489 107.787 48.849ZM90.9511 47.4623H106.112L90.9511 32.3005V47.4623Z" fill="black"/>
<path d="M107.787 120.067H36.2138C36.03 120.067 35.8536 119.994 35.7236 119.864C35.5936 119.734 35.5205 119.557 35.5205 119.374V30.6269C35.5205 30.443 35.5936 30.2667 35.7236 30.1367C35.8536 30.0066 36.03 29.9336 36.2138 29.9336H90.2578C90.4417 29.9336 90.618 30.0067 90.748 30.1367L108.277 47.6656C108.407 47.7956 108.48 47.9719 108.48 48.1558V119.374C108.48 119.557 108.407 119.734 108.277 119.864C108.147 119.994 107.971 120.067 107.787 120.067ZM36.9072 118.68H107.093V48.4456L89.9707 31.3203H36.9072V118.68Z" fill="black"/>
<path d="M69.5373 48.8473H41.6958C41.5119 48.8473 41.3355 48.7743 41.2055 48.6442C41.0755 48.5142 41.0024 48.3379 41.0024 48.154V36.1406C41.0024 35.9567 41.0755 35.7804 41.2055 35.6503C41.3355 35.5203 41.5119 35.4473 41.6958 35.4473H69.5373C69.7211 35.4473 69.8975 35.5203 70.0275 35.6503C70.1576 35.7804 70.2306 35.9567 70.2306 36.1406V48.154C70.2306 48.3379 70.1576 48.5142 70.0275 48.6442C69.8975 48.7743 69.7211 48.8473 69.5373 48.8473ZM42.3891 47.4607H68.8439V36.8339H42.3891V47.4607Z" fill="black"/>
<path d="M80.8857 87.6362C80.7018 87.6362 80.5255 87.5632 80.3955 87.4331C80.2654 87.3031 80.1924 87.1268 80.1924 86.9429V81.539C80.1924 81.3552 80.2654 81.1788 80.3955 81.0488C80.5255 80.9188 80.7018 80.8457 80.8857 80.8457C81.0696 80.8457 81.246 80.9188 81.376 81.0488C81.506 81.1788 81.5791 81.3552 81.5791 81.539V86.9429C81.5791 87.1268 81.506 87.3031 81.376 87.4331C81.246 87.5632 81.0696 87.6362 80.8857 87.6362Z" fill="black"/>
<path d="M72.3274 73.8262C67.7424 73.8262 64.3159 68.2518 64.3159 63.2681C64.355 61.1691 65.2162 59.1693 66.7144 57.6987C68.2126 56.2282 70.2281 55.4043 72.3274 55.4043C74.4267 55.4043 76.4422 56.2282 77.9404 57.6987C79.4386 59.1693 80.2998 61.1691 80.3389 63.2681C80.3389 68.2518 76.9124 73.8262 72.3274 73.8262ZM72.3274 56.7785C70.6083 56.8256 68.9706 57.5205 67.7421 58.7239C66.5136 59.9273 65.7852 61.5504 65.7026 63.2681C65.7026 67.9827 68.9217 72.4395 72.3274 72.4395C75.733 72.4395 78.9522 67.9821 78.9522 63.2681C78.8696 61.5504 78.1411 59.9273 76.9127 58.7239C75.6842 57.5205 74.0464 56.8256 72.3274 56.7785Z" fill="black"/>
<path d="M86.0706 87.6025H57.9296C57.7457 87.6025 57.5694 87.5295 57.4393 87.3995C57.3093 87.2694 57.2363 87.0931 57.2363 86.9092V82.5211C57.2229 81.8772 57.3049 81.235 57.4796 80.6151C58.2347 78.0955 60.3694 76.3587 63.8243 75.4546L67.7472 74.3335C67.8426 74.3061 67.9429 74.2996 68.0411 74.3143C68.1393 74.329 68.2332 74.3646 68.3164 74.4188C69.3677 75.2423 70.6647 75.6898 72.0001 75.6898C73.3355 75.6898 74.6325 75.2423 75.6838 74.4188C75.767 74.3646 75.8609 74.329 75.9591 74.3143C76.0573 74.2996 76.1576 74.3061 76.253 74.3335L80.1911 75.4581C83.6308 76.3594 85.7655 78.0928 86.5213 80.6158C86.6957 81.2355 86.7775 81.8775 86.7639 82.5211V86.9092C86.7639 87.0931 86.6909 87.2694 86.5609 87.3995C86.4308 87.5295 86.2545 87.6025 86.0706 87.6025ZM58.6229 86.2159H85.3773V82.5211C85.39 82.0121 85.3278 81.504 85.1928 81.0131C84.5855 78.9886 82.7794 77.5693 79.8244 76.7955L76.1726 75.7555C74.9517 76.6168 73.4942 77.0791 72.0001 77.0791C70.506 77.0791 69.0485 76.6168 67.8276 75.7555L64.1904 76.7955C61.2208 77.5735 59.4147 78.9927 58.808 81.0179C58.6727 81.5086 58.6103 82.0165 58.6229 82.5253V86.2159Z" fill="black"/>
<path d="M63.769 87.6362C63.5851 87.6362 63.4088 87.5632 63.2788 87.4331C63.1487 87.3031 63.0757 87.1268 63.0757 86.9429V81.539C63.0757 81.3552 63.1487 81.1788 63.2788 81.0488C63.4088 80.9188 63.5851 80.8457 63.769 80.8457C63.9529 80.8457 64.1293 80.9188 64.2593 81.0488C64.3893 81.1788 64.4624 81.3552 64.4624 81.539V86.9429C64.4624 87.1268 64.3893 87.3031 64.2593 87.4331C64.1293 87.5632 63.9529 87.6362 63.769 87.6362Z" fill="black"/>
<path d="M102.304 93.2636H41.6958C41.5119 93.2636 41.3355 93.1906 41.2055 93.0606C41.0755 92.9305 41.0024 92.7542 41.0024 92.5703C41.0024 92.3864 41.0755 92.2101 41.2055 92.08C41.3355 91.95 41.5119 91.877 41.6958 91.877H102.304C102.488 91.877 102.664 91.95 102.794 92.08C102.924 92.2101 102.998 92.3864 102.998 92.5703C102.998 92.7542 102.924 92.9305 102.794 93.0606C102.664 93.1906 102.488 93.2636 102.304 93.2636Z" fill="black"/>
<path d="M102.304 100.014H41.6958C41.5119 100.014 41.3355 99.9406 41.2055 99.8106C41.0755 99.6805 41.0024 99.5042 41.0024 99.3203C41.0024 99.1364 41.0755 98.9601 41.2055 98.83C41.3355 98.7 41.5119 98.627 41.6958 98.627H102.304C102.488 98.627 102.664 98.7 102.794 98.83C102.924 98.9601 102.998 99.1364 102.998 99.3203C102.998 99.5042 102.924 99.6805 102.794 99.8106C102.664 99.9406 102.488 100.014 102.304 100.014Z" fill="black"/>
<path d="M102.304 106.764H41.6958C41.5119 106.764 41.3355 106.691 41.2055 106.561C41.0755 106.431 41.0024 106.254 41.0024 106.07C41.0024 105.886 41.0755 105.71 41.2055 105.58C41.3355 105.45 41.5119 105.377 41.6958 105.377H102.304C102.488 105.377 102.664 105.45 102.794 105.58C102.924 105.71 102.998 105.886 102.998 106.07C102.998 106.254 102.924 106.431 102.794 106.561C102.664 106.691 102.488 106.764 102.304 106.764Z" fill="black"/>
<path d="M102.304 113.516H41.6958C41.5119 113.516 41.3355 113.443 41.2055 113.313C41.0755 113.182 41.0024 113.006 41.0024 112.822C41.0024 112.638 41.0755 112.462 41.2055 112.332C41.3355 112.202 41.5119 112.129 41.6958 112.129H102.304C102.488 112.129 102.664 112.202 102.794 112.332C102.924 112.462 102.998 112.638 102.998 112.822C102.998 113.006 102.924 113.182 102.794 113.313C102.664 113.443 102.488 113.516 102.304 113.516Z" fill="black"/>
<path d="M125 1.92316L127.699 11.948L127.774 12.226L128.052 12.3008L138.077 15L128.052 17.6992L127.774 17.774L127.699 18.052L125 28.0768L122.301 18.052L122.226 17.774L121.948 17.6992L111.923 15L121.948 12.3008L122.226 12.226L122.301 11.948L125 1.92316Z" fill="#D1D100" stroke="white"/>
<path d="M18 89.9232L20.0628 97.5844L20.1376 97.8624L20.4156 97.9372L28.0768 100L20.4156 102.063L20.1376 102.138L20.0628 102.416L18 110.077L15.9372 102.416L15.8624 102.138L15.5844 102.063L7.92316 100L15.5844 97.9372L15.8624 97.8624L15.9372 97.5844L18 89.9232Z" fill="#D1D100" stroke="white"/>
<path d="M38.7947 12.9976L36.8623 20.2443L36.8252 20.3833L36.9269 20.4852L42.2237 25.7948L34.977 23.8625L34.838 23.8254L34.7361 23.9271L29.4264 29.2239L31.3588 21.9772L31.3959 21.8381L31.2942 21.7362L25.9974 16.4266L33.2441 18.359L33.3832 18.396L33.4851 18.2944L38.7947 12.9976Z" fill="#D1D100" stroke="white" stroke-width="0.5"/>
<path d="M38.7947 12.9976L36.8623 20.2443L36.8252 20.3833L36.9269 20.4852L42.2237 25.7948L34.977 23.8625L34.838 23.8254L34.7361 23.9271L29.4264 29.2239L31.3588 21.9772L31.3959 21.8381L31.2942 21.7362L25.9974 16.4266L33.2441 18.359L33.3832 18.396L33.4851 18.2944L38.7947 12.9976Z" fill="#D1D100" stroke="white" stroke-width="0.5"/>
<path d="M121.795 125.998L119.862 133.244L119.825 133.383L119.927 133.485L125.224 138.795L117.977 136.863L117.838 136.825L117.736 136.927L112.426 142.224L114.359 134.977L114.396 134.838L114.294 134.736L108.997 129.427L116.244 131.359L116.383 131.396L116.485 131.294L121.795 125.998Z" fill="#D1D100" stroke="white" stroke-width="0.5"/>
</svg>
