<svg width="46" height="46" viewBox="0 0 46 46" fill="none" xmlns="http://www.w3.org/2000/svg">
<path fill-rule="evenodd" clip-rule="evenodd" d="M24.2289 2.94272C23.5134 2.28732 22.4164 2.28732 21.7031 2.94272L18.3394 6.03366C17.941 6.3998 17.403 6.57471 16.8648 6.51307L12.3215 5.99271C11.3581 5.88237 10.4718 6.52717 10.2807 7.47729L9.37967 11.9582C9.27294 12.489 8.94102 12.9469 8.46995 13.2133L4.49308 15.4623C3.64984 15.9391 3.31265 16.9824 3.71674 17.8644L5.62252 22.0236C5.84826 22.5163 5.84924 23.0824 5.6252 23.5751L3.73381 27.7343C3.33276 28.6163 3.67356 29.6596 4.51845 30.1364L8.5031 32.3854C8.97509 32.6518 9.30859 33.1097 9.41716 33.6405L10.3337 38.1214C10.528 39.0715 11.4166 39.7163 12.3796 39.606L16.9211 39.0856C17.4591 39.024 17.9977 39.1989 18.3974 39.565L21.7718 42.656C22.4873 43.3114 23.5843 43.3114 24.2975 42.656L27.6612 39.565C28.0596 39.1989 28.5977 39.024 29.1358 39.0856L33.6792 39.606C34.6425 39.7163 35.5289 39.0715 35.72 38.1214L36.621 33.6405C36.7277 33.1097 37.0596 32.6518 37.5307 32.3854L41.5076 30.1364C42.3508 29.6596 42.688 28.6163 42.2839 27.7343L40.3781 23.5751C40.1524 23.0824 40.1514 22.5163 40.3755 22.0236L42.2668 17.8644C42.6679 16.9824 42.3271 15.9391 41.4822 15.4623L37.4976 13.2133C37.0256 12.9469 36.6921 12.489 36.5835 11.9582L35.667 7.47729C35.4726 6.52717 34.584 5.88237 33.621 5.99271L29.0795 6.51307C28.5416 6.57471 28.0029 6.3998 27.6032 6.03366L24.2289 2.94272ZM31.3951 19.5294C31.9094 18.9522 31.8577 18.0666 31.2797 17.5513C30.7016 17.0359 29.816 17.086 29.3017 17.6632L21.4445 26.4803L15.4675 21.7054C14.8625 21.222 13.981 21.32 13.4987 21.9242C13.0164 22.5284 13.1158 23.41 13.7209 23.8934L20.7357 29.4975C21.3177 29.9624 22.1609 29.8918 22.6557 29.3365L31.3951 19.5294Z" fill="#2196F3"/>
</svg>
