<svg width="89" height="40" viewBox="0 0 89 40" fill="none" xmlns="http://www.w3.org/2000/svg">
<g clip-path="url(#clip0_1026_79706)">
<path d="M71.1128 9.16382L74.6287 13.0335L78.0136 9.16382H85.2415L78.1777 17.0966L85.3383 25.0943H77.8188L74.336 21.1939L70.8849 25.0943H63.624L70.722 17.1296L63.624 9.16382H71.1128Z" fill="#87A097"/>
<path d="M63.6241 9.16374V14.5462H55.5852V19.4853H63.6241V25.0942H49.6772V0H63.6241V5.59351H55.5852V9.16374H63.6241Z" fill="#87A097"/>
<path d="M43.7939 0V10.2697H43.729C42.4256 8.77465 40.7987 8.25468 38.9108 8.25468C35.0431 8.25468 32.1292 10.8817 31.1068 14.3528C29.9392 10.5279 26.9309 8.18276 22.4705 8.18276C18.8483 8.18276 15.9876 9.80634 14.4952 12.4522V9.16374H7.00764V5.59351H15.1788V0H0.333496V25.0942H7.00764V14.5462H13.6605C13.4622 15.3209 13.3559 16.1509 13.3559 17.027C13.3559 22.2609 17.3607 25.9349 22.4705 25.9349C26.768 25.9349 29.6003 23.9198 31.0974 20.247H25.3772C24.6039 21.3518 24.0171 21.6784 22.4705 21.6784C20.6771 21.6784 19.1304 20.1161 19.1304 18.2638H30.7774C31.2827 22.4212 34.5259 26.0068 38.9758 26.0068C40.8955 26.0068 42.6535 25.0635 43.7278 23.4718H43.7928V25.0965H49.6759V0H43.7939ZM19.317 14.6205C19.6877 13.0264 20.9262 11.9853 22.4716 11.9853C24.1729 11.9853 25.3477 12.9945 25.657 14.6205C25.7869 14.6205 19.317 14.6205 19.317 14.6205ZM40.2225 21.274C38.0537 21.274 36.7054 19.2554 36.7054 17.1484C36.7054 14.8964 37.8778 12.7304 40.2225 12.7304C42.6535 12.7304 43.6216 14.8964 43.6216 17.1484C43.6216 19.2837 42.5956 21.274 40.2225 21.274Z" fill="#7C807C"/>
<path d="M49.6782 37.6419V28.6492H54.6534V29.3201H50.4988V32.6356H54.4775V33.3065H50.4988V36.9687H54.8388V37.6408H49.6782V37.6419Z" fill="#7C807C"/>
<path d="M55.4326 37.6419L57.8588 34.4124L55.5578 31.3574H56.4905L58.3689 33.8535L60.2095 31.3574H61.1422L58.8045 34.4124L61.2414 37.6419H60.2968L58.2815 34.9701L56.3665 37.6419H55.4326Z" fill="#7C807C"/>
<path d="M62.8199 39.9999H62.0607V33.2332C62.0607 32.6118 62.0607 31.9799 62.0229 31.3573H62.7703L62.7951 32.3017C63.2662 31.5554 63.8884 31.2087 64.8222 31.2087C66.762 31.2087 67.5944 32.8099 67.5944 34.4984C67.5944 36.1891 66.762 37.7903 64.8222 37.7903C63.9509 37.7903 63.2673 37.4555 62.8199 36.7339V39.9999ZM66.7868 34.4984C66.7868 33.1577 66.226 31.8407 64.7349 31.8407C63.3299 31.8407 62.8199 32.9962 62.8199 34.4984C62.8199 36.0017 63.3299 37.156 64.7349 37.156C66.2272 37.156 66.7868 35.8401 66.7868 34.4984Z" fill="#7C807C"/>
<path d="M71.4951 31.9398C70.2389 31.9398 69.8021 32.9962 69.8021 34.088V37.6418H69.0429V33.2061C69.0429 32.5977 69.0311 31.9787 69.0063 31.3573H69.7549L69.8033 32.264C70.1764 31.5448 70.7997 31.2087 71.6321 31.2087C71.7442 31.2087 71.8682 31.2205 71.9804 31.2335V31.9916C71.8056 31.9645 71.6687 31.9398 71.4951 31.9398Z" fill="#7C807C"/>
<path d="M72.9097 34.6351C72.9097 36.05 73.5803 37.2173 74.9605 37.2173C76.029 37.2173 76.5272 36.5098 76.7137 35.8024H77.4351C77.0986 37.1182 76.2899 37.7903 74.8601 37.7903C72.9452 37.7903 72.0986 36.3743 72.0986 34.6115C72.0986 32.8111 72.9818 31.2087 74.9593 31.2087C76.9617 31.2087 77.4965 32.9585 77.4965 34.6351H72.9097ZM72.9333 34.0645H76.6889C76.6889 32.8347 76.1057 31.7794 74.9109 31.7794C73.8294 31.7782 73.0821 32.5977 72.9333 34.0645Z" fill="#7C807C"/>
<path d="M80.4589 37.7903C79.1661 37.7903 78.1968 37.1807 78.1968 35.8024H78.9559C78.9559 36.7457 79.5769 37.2173 80.4978 37.2173C81.3562 37.2173 82.0268 36.807 82.0268 35.9651C82.0268 35.207 81.244 35.0077 80.4235 34.7719C79.4294 34.4866 78.3467 34.1753 78.3467 32.9585C78.3467 31.6061 79.4778 31.2087 80.5356 31.2087C81.7529 31.2087 82.662 31.6792 82.6986 32.9832H81.9394C81.9028 32.2393 81.368 31.8171 80.5592 31.8171C79.9252 31.8171 79.1543 32.0647 79.1543 32.8842C79.1543 33.6306 79.9252 33.8416 80.7458 34.0645C81.7422 34.3368 82.8355 34.6351 82.8355 35.8531C82.8343 37.268 81.7411 37.7903 80.4589 37.7903Z" fill="#7C807C"/>
<path d="M85.7193 37.7903C84.4254 37.7903 83.4561 37.1807 83.4561 35.8024H84.2152C84.2152 36.7457 84.8362 37.2173 85.7583 37.2173C86.6166 37.2173 87.2872 36.807 87.2872 35.9651C87.2872 35.207 86.5033 35.0077 85.6827 34.7719C84.6886 34.4866 83.6072 34.1753 83.6072 32.9585C83.6072 31.6061 84.7382 31.2087 85.7961 31.2087C87.0133 31.2087 87.9224 31.6792 87.959 32.9832H87.1999C87.1633 32.2393 86.6284 31.8171 85.8197 31.8171C85.1857 31.8171 84.4147 32.0647 84.4147 32.8842C84.4147 33.6306 85.1857 33.8416 86.0074 34.0645C87.0027 34.3368 88.0971 34.6351 88.0971 35.8531C88.0948 37.268 87.0003 37.7903 85.7193 37.7903Z" fill="#7C807C"/>
</g>
<defs>
<clipPath id="clip0_1026_79706">
<rect width="88" height="40" fill="white" transform="translate(0.333496)"/>
</clipPath>
</defs>
</svg>
