<svg width="499" height="328" viewBox="0 0 499 328" fill="none" xmlns="http://www.w3.org/2000/svg">
<path fill-rule="evenodd" clip-rule="evenodd" d="M362.705 35.8174L128.877 42.7861L251.826 241.803L362.705 35.8174ZM359.302 37.9197L132.399 44.682L251.707 237.804L359.302 37.9197Z" fill="#336FEE"/>
<path d="M9.40765 36.6045C9.40765 37.4165 9.12765 38.0932 8.56765 38.6345C8.01698 39.1665 7.17232 39.4325 6.03365 39.4325H4.15765V43.5065H2.88365V33.7485H6.03365C7.13498 33.7485 7.97032 34.0145 8.53965 34.5465C9.11832 35.0785 9.40765 35.7645 9.40765 36.6045ZM6.03365 38.3825C6.74298 38.3825 7.26565 38.2285 7.60165 37.9205C7.93765 37.6125 8.10565 37.1739 8.10565 36.6045C8.10565 35.4005 7.41498 34.7985 6.03365 34.7985H4.15765V38.3825H6.03365Z" fill="white"/>
<path d="M18.1611 39.3765C18.1611 39.6192 18.1471 39.8759 18.1191 40.1465H11.9871C12.0337 40.9025 12.2904 41.4952 12.7571 41.9245C13.2331 42.3445 13.8071 42.5545 14.4791 42.5545C15.0297 42.5545 15.4871 42.4285 15.8511 42.1765C16.2244 41.9152 16.4857 41.5699 16.6351 41.1405H18.0071C17.8017 41.8779 17.3911 42.4799 16.7751 42.9465C16.1591 43.4039 15.3937 43.6325 14.4791 43.6325C13.7511 43.6325 13.0977 43.4692 12.5191 43.1425C11.9497 42.8159 11.5017 42.3539 11.1751 41.7565C10.8484 41.1499 10.6851 40.4499 10.6851 39.6565C10.6851 38.8632 10.8437 38.1679 11.1611 37.5705C11.4784 36.9732 11.9217 36.5159 12.4911 36.1985C13.0697 35.8719 13.7324 35.7085 14.4791 35.7085C15.2071 35.7085 15.8511 35.8672 16.4111 36.1845C16.9711 36.5019 17.4004 36.9405 17.6991 37.5005C18.0071 38.0512 18.1611 38.6765 18.1611 39.3765ZM16.8451 39.1105C16.8451 38.6252 16.7377 38.2099 16.5231 37.8645C16.3084 37.5099 16.0144 37.2439 15.6411 37.0665C15.2771 36.8799 14.8711 36.7865 14.4231 36.7865C13.7791 36.7865 13.2284 36.9919 12.7711 37.4025C12.3231 37.8132 12.0664 38.3825 12.0011 39.1105H16.8451Z" fill="white"/>
<path d="M21.2867 37.0805C21.5107 36.6419 21.828 36.3012 22.2387 36.0585C22.6587 35.8159 23.1674 35.6945 23.7647 35.6945V37.0105H23.4287C22.0007 37.0105 21.2867 37.7852 21.2867 39.3345V43.5065H20.0127V35.8345H21.2867V37.0805Z" fill="white"/>
<path d="M28.1214 43.6325C27.5334 43.6325 27.006 43.5345 26.5394 43.3385C26.0727 43.1332 25.704 42.8532 25.4334 42.4985C25.1627 42.1345 25.0134 41.7192 24.9854 41.2525H26.3014C26.3387 41.6352 26.516 41.9479 26.8334 42.1905C27.16 42.4332 27.5847 42.5545 28.1074 42.5545C28.5927 42.5545 28.9754 42.4472 29.2554 42.2325C29.5354 42.0179 29.6754 41.7472 29.6754 41.4205C29.6754 41.0845 29.526 40.8372 29.2274 40.6785C28.9287 40.5105 28.4667 40.3472 27.8414 40.1885C27.272 40.0392 26.8054 39.8899 26.4414 39.7405C26.0867 39.5819 25.7787 39.3532 25.5174 39.0545C25.2654 38.7465 25.1394 38.3452 25.1394 37.8505C25.1394 37.4585 25.256 37.0992 25.4894 36.7725C25.7227 36.4459 26.054 36.1892 26.4834 36.0025C26.9127 35.8065 27.4027 35.7085 27.9534 35.7085C28.8027 35.7085 29.4887 35.9232 30.0114 36.3525C30.534 36.7819 30.814 37.3699 30.8514 38.1165H29.5774C29.5494 37.7152 29.386 37.3932 29.0874 37.1505C28.798 36.9079 28.406 36.7865 27.9114 36.7865C27.454 36.7865 27.09 36.8845 26.8194 37.0805C26.5487 37.2765 26.4134 37.5332 26.4134 37.8505C26.4134 38.1025 26.4927 38.3125 26.6514 38.4805C26.8194 38.6392 27.0247 38.7699 27.2674 38.8725C27.5194 38.9659 27.8647 39.0732 28.3034 39.1945C28.854 39.3439 29.302 39.4932 29.6474 39.6425C29.9927 39.7825 30.2867 39.9972 30.5294 40.2865C30.7814 40.5759 30.912 40.9539 30.9214 41.4205C30.9214 41.8405 30.8047 42.2185 30.5714 42.5545C30.338 42.8905 30.0067 43.1565 29.5774 43.3525C29.1574 43.5392 28.672 43.6325 28.1214 43.6325Z" fill="white"/>
<path d="M36.2358 43.6325C35.5172 43.6325 34.8638 43.4692 34.2758 43.1425C33.6972 42.8159 33.2398 42.3539 32.9038 41.7565C32.5772 41.1499 32.4138 40.4499 32.4138 39.6565C32.4138 38.8725 32.5818 38.1819 32.9178 37.5845C33.2632 36.9779 33.7298 36.5159 34.3178 36.1985C34.9058 35.8719 35.5638 35.7085 36.2918 35.7085C37.0198 35.7085 37.6778 35.8719 38.2658 36.1985C38.8538 36.5159 39.3158 36.9732 39.6518 37.5705C39.9972 38.1679 40.1698 38.8632 40.1698 39.6565C40.1698 40.4499 39.9925 41.1499 39.6378 41.7565C39.2925 42.3539 38.8212 42.8159 38.2238 43.1425C37.6265 43.4692 36.9638 43.6325 36.2358 43.6325ZM36.2358 42.5125C36.6932 42.5125 37.1225 42.4052 37.5238 42.1905C37.9252 41.9759 38.2472 41.6539 38.4898 41.2245C38.7418 40.7952 38.8678 40.2725 38.8678 39.6565C38.8678 39.0405 38.7465 38.5179 38.5038 38.0885C38.2612 37.6592 37.9438 37.3419 37.5518 37.1365C37.1598 36.9219 36.7352 36.8145 36.2778 36.8145C35.8112 36.8145 35.3818 36.9219 34.9898 37.1365C34.6072 37.3419 34.2992 37.6592 34.0658 38.0885C33.8325 38.5179 33.7158 39.0405 33.7158 39.6565C33.7158 40.2819 33.8278 40.8092 34.0518 41.2385C34.2852 41.6679 34.5932 41.9899 34.9758 42.2045C35.3585 42.4099 35.7785 42.5125 36.2358 42.5125Z" fill="white"/>
<path d="M45.7529 35.6945C46.6862 35.6945 47.4422 35.9792 48.0209 36.5485C48.5996 37.1085 48.8889 37.9205 48.8889 38.9845V43.5065H47.6289V39.1665C47.6289 38.4012 47.4376 37.8179 47.0549 37.4165C46.6722 37.0059 46.1496 36.8005 45.4869 36.8005C44.8149 36.8005 44.2782 37.0105 43.8769 37.4305C43.4849 37.8505 43.2889 38.4619 43.2889 39.2645V43.5065H42.0149V35.8345H43.2889V36.9265C43.5409 36.5345 43.8816 36.2312 44.3109 36.0165C44.7496 35.8019 45.2302 35.6945 45.7529 35.6945Z" fill="white"/>
<path d="M50.664 39.6425C50.664 38.8585 50.8226 38.1725 51.14 37.5845C51.4573 36.9872 51.8913 36.5252 52.442 36.1985C53.002 35.8719 53.6226 35.7085 54.304 35.7085C54.976 35.7085 55.5593 35.8532 56.054 36.1425C56.5486 36.4319 56.9173 36.7959 57.16 37.2345V35.8345H58.448V43.5065H57.16V42.0785C56.908 42.5265 56.53 42.8999 56.026 43.1985C55.5313 43.4879 54.9526 43.6325 54.29 43.6325C53.6086 43.6325 52.9926 43.4645 52.442 43.1285C51.8913 42.7925 51.4573 42.3212 51.14 41.7145C50.8226 41.1079 50.664 40.4172 50.664 39.6425ZM57.16 39.6565C57.16 39.0779 57.0433 38.5739 56.81 38.1445C56.5766 37.7152 56.2593 37.3885 55.858 37.1645C55.466 36.9312 55.032 36.8145 54.556 36.8145C54.08 36.8145 53.646 36.9265 53.254 37.1505C52.862 37.3745 52.5493 37.7012 52.316 38.1305C52.0826 38.5599 51.966 39.0639 51.966 39.6425C51.966 40.2305 52.0826 40.7439 52.316 41.1825C52.5493 41.6119 52.862 41.9432 53.254 42.1765C53.646 42.4005 54.08 42.5125 54.556 42.5125C55.032 42.5125 55.466 42.4005 55.858 42.1765C56.2593 41.9432 56.5766 41.6119 56.81 41.1825C57.0433 40.7439 57.16 40.2352 57.16 39.6565Z" fill="white"/>
<path d="M62.0449 33.1465V43.5065H60.7709V33.1465H62.0449Z" fill="white"/>
<path d="M65.0442 34.5885C64.8016 34.5885 64.5962 34.5045 64.4282 34.3365C64.2602 34.1685 64.1762 33.9632 64.1762 33.7205C64.1762 33.4779 64.2602 33.2725 64.4282 33.1045C64.5962 32.9365 64.8016 32.8525 65.0442 32.8525C65.2776 32.8525 65.4736 32.9365 65.6322 33.1045C65.8002 33.2725 65.8842 33.4779 65.8842 33.7205C65.8842 33.9632 65.8002 34.1685 65.6322 34.3365C65.4736 34.5045 65.2776 34.5885 65.0442 34.5885ZM65.6602 35.8345V43.5065H64.3862V35.8345H65.6602Z" fill="white"/>
<path d="M70.7175 43.6325C70.1295 43.6325 69.6022 43.5345 69.1355 43.3385C68.6689 43.1332 68.3002 42.8532 68.0295 42.4985C67.7589 42.1345 67.6095 41.7192 67.5815 41.2525H68.8975C68.9349 41.6352 69.1122 41.9479 69.4295 42.1905C69.7562 42.4332 70.1809 42.5545 70.7035 42.5545C71.1889 42.5545 71.5715 42.4472 71.8515 42.2325C72.1315 42.0179 72.2715 41.7472 72.2715 41.4205C72.2715 41.0845 72.1222 40.8372 71.8235 40.6785C71.5249 40.5105 71.0629 40.3472 70.4375 40.1885C69.8682 40.0392 69.4015 39.8899 69.0375 39.7405C68.6829 39.5819 68.3749 39.3532 68.1135 39.0545C67.8615 38.7465 67.7355 38.3452 67.7355 37.8505C67.7355 37.4585 67.8522 37.0992 68.0855 36.7725C68.3189 36.4459 68.6502 36.1892 69.0795 36.0025C69.5089 35.8065 69.9989 35.7085 70.5495 35.7085C71.3989 35.7085 72.0849 35.9232 72.6075 36.3525C73.1302 36.7819 73.4102 37.3699 73.4475 38.1165H72.1735C72.1455 37.7152 71.9822 37.3932 71.6835 37.1505C71.3942 36.9079 71.0022 36.7865 70.5075 36.7865C70.0502 36.7865 69.6862 36.8845 69.4155 37.0805C69.1449 37.2765 69.0095 37.5332 69.0095 37.8505C69.0095 38.1025 69.0889 38.3125 69.2475 38.4805C69.4155 38.6392 69.6209 38.7699 69.8635 38.8725C70.1155 38.9659 70.4609 39.0732 70.8995 39.1945C71.4502 39.3439 71.8982 39.4932 72.2435 39.6425C72.5889 39.7825 72.8829 39.9972 73.1255 40.2865C73.3775 40.5759 73.5082 40.9539 73.5175 41.4205C73.5175 41.8405 73.4009 42.2185 73.1675 42.5545C72.9342 42.8905 72.6029 43.1565 72.1735 43.3525C71.7535 43.5392 71.2682 43.6325 70.7175 43.6325Z" fill="white"/>
<path d="M82.486 39.3765C82.486 39.6192 82.472 39.8759 82.444 40.1465H76.312C76.3587 40.9025 76.6153 41.4952 77.082 41.9245C77.558 42.3445 78.132 42.5545 78.804 42.5545C79.3547 42.5545 79.812 42.4285 80.176 42.1765C80.5493 41.9152 80.8107 41.5699 80.96 41.1405H82.332C82.1267 41.8779 81.716 42.4799 81.1 42.9465C80.484 43.4039 79.7187 43.6325 78.804 43.6325C78.076 43.6325 77.4227 43.4692 76.844 43.1425C76.2747 42.8159 75.8267 42.3539 75.5 41.7565C75.1733 41.1499 75.01 40.4499 75.01 39.6565C75.01 38.8632 75.1687 38.1679 75.486 37.5705C75.8033 36.9732 76.2467 36.5159 76.816 36.1985C77.3947 35.8719 78.0573 35.7085 78.804 35.7085C79.532 35.7085 80.176 35.8672 80.736 36.1845C81.296 36.5019 81.7253 36.9405 82.024 37.5005C82.332 38.0512 82.486 38.6765 82.486 39.3765ZM81.17 39.1105C81.17 38.6252 81.0627 38.2099 80.848 37.8645C80.6333 37.5099 80.3393 37.2439 79.966 37.0665C79.602 36.8799 79.196 36.7865 78.748 36.7865C78.104 36.7865 77.5533 36.9919 77.096 37.4025C76.648 37.8132 76.3913 38.3825 76.326 39.1105H81.17Z" fill="white"/>
<path d="M83.8616 39.6425C83.8616 38.8585 84.0203 38.1725 84.3376 37.5845C84.655 36.9872 85.089 36.5252 85.6396 36.1985C86.1996 35.8719 86.825 35.7085 87.5156 35.7085C88.113 35.7085 88.6683 35.8485 89.1816 36.1285C89.695 36.3992 90.087 36.7585 90.3576 37.2065V33.1465H91.6456V43.5065H90.3576V42.0645C90.1056 42.5219 89.7323 42.8999 89.2376 43.1985C88.743 43.4879 88.1643 43.6325 87.5016 43.6325C86.8203 43.6325 86.1996 43.4645 85.6396 43.1285C85.089 42.7925 84.655 42.3212 84.3376 41.7145C84.0203 41.1079 83.8616 40.4172 83.8616 39.6425ZM90.3576 39.6565C90.3576 39.0779 90.241 38.5739 90.0076 38.1445C89.7743 37.7152 89.457 37.3885 89.0556 37.1645C88.6636 36.9312 88.2296 36.8145 87.7536 36.8145C87.2776 36.8145 86.8436 36.9265 86.4516 37.1505C86.0596 37.3745 85.747 37.7012 85.5136 38.1305C85.2803 38.5599 85.1636 39.0639 85.1636 39.6425C85.1636 40.2305 85.2803 40.7439 85.5136 41.1825C85.747 41.6119 86.0596 41.9432 86.4516 42.1765C86.8436 42.4005 87.2776 42.5125 87.7536 42.5125C88.2296 42.5125 88.6636 42.4005 89.0556 42.1765C89.457 41.9432 89.7743 41.6119 90.0076 41.1825C90.241 40.7439 90.3576 40.2352 90.3576 39.6565Z" fill="white"/>
<path d="M4.72403 54.5885C4.48136 54.5885 4.27603 54.5045 4.10803 54.3365C3.94936 54.1685 3.87003 53.9632 3.87003 53.7205C3.87003 53.4779 3.94936 53.2725 4.10803 53.1045C4.27603 52.9365 4.48136 52.8525 4.72403 52.8525C4.9667 52.8525 5.16736 52.9365 5.32603 53.1045C5.49403 53.2725 5.57803 53.4779 5.57803 53.7205C5.57803 53.9632 5.49403 54.1685 5.32603 54.3365C5.16736 54.5045 4.9667 54.5885 4.72403 54.5885ZM5.35403 65.1725C5.35403 65.8539 5.18136 66.3532 4.83603 66.6705C4.4907 66.9879 3.9867 67.1465 3.32403 67.1465H2.58203V66.0685H3.11403C3.4687 66.0685 3.71603 65.9985 3.85603 65.8585C4.00536 65.7185 4.08003 65.4805 4.08003 65.1445V55.8345H5.35403V65.1725Z" fill="white"/>
<path d="M11.0267 63.6325C10.308 63.6325 9.65469 63.4692 9.06669 63.1425C8.48802 62.8159 8.03069 62.3539 7.69469 61.7565C7.36802 61.1499 7.20469 60.4499 7.20469 59.6565C7.20469 58.8725 7.37269 58.1819 7.70869 57.5845C8.05402 56.9779 8.52069 56.5159 9.10869 56.1985C9.69669 55.8719 10.3547 55.7085 11.0827 55.7085C11.8107 55.7085 12.4687 55.8719 13.0567 56.1985C13.6447 56.5159 14.1067 56.9732 14.4427 57.5705C14.788 58.1679 14.9607 58.8632 14.9607 59.6565C14.9607 60.4499 14.7834 61.1499 14.4287 61.7565C14.0834 62.3539 13.612 62.8159 13.0147 63.1425C12.4174 63.4692 11.7547 63.6325 11.0267 63.6325ZM11.0267 62.5125C11.484 62.5125 11.9134 62.4052 12.3147 62.1905C12.716 61.9759 13.038 61.6539 13.2807 61.2245C13.5327 60.7952 13.6587 60.2725 13.6587 59.6565C13.6587 59.0405 13.5374 58.5179 13.2947 58.0885C13.052 57.6592 12.7347 57.3419 12.3427 57.1365C11.9507 56.9219 11.526 56.8145 11.0687 56.8145C10.602 56.8145 10.1727 56.9219 9.78069 57.1365C9.39802 57.3419 9.09002 57.6592 8.85669 58.0885C8.62335 58.5179 8.50669 59.0405 8.50669 59.6565C8.50669 60.2819 8.61869 60.8092 8.84269 61.2385C9.07602 61.6679 9.38402 61.9899 9.76669 62.2045C10.1494 62.4099 10.5694 62.5125 11.0267 62.5125Z" fill="white"/>
<path d="M18.0798 57.2625C18.3411 56.8052 18.7238 56.4319 19.2278 56.1425C19.7318 55.8532 20.3058 55.7085 20.9498 55.7085C21.6404 55.7085 22.2611 55.8719 22.8118 56.1985C23.3624 56.5252 23.7964 56.9872 24.1138 57.5845C24.4311 58.1725 24.5898 58.8585 24.5898 59.6425C24.5898 60.4172 24.4311 61.1079 24.1138 61.7145C23.7964 62.3212 23.3578 62.7925 22.7978 63.1285C22.2471 63.4645 21.6311 63.6325 20.9498 63.6325C20.2871 63.6325 19.7038 63.4879 19.1998 63.1985C18.7051 62.9092 18.3318 62.5405 18.0798 62.0925V63.5065H16.8058V53.1465H18.0798V57.2625ZM23.2878 59.6425C23.2878 59.0639 23.1711 58.5599 22.9378 58.1305C22.7044 57.7012 22.3871 57.3745 21.9858 57.1505C21.5938 56.9265 21.1598 56.8145 20.6838 56.8145C20.2171 56.8145 19.7831 56.9312 19.3818 57.1645C18.9898 57.3885 18.6724 57.7199 18.4298 58.1585C18.1964 58.5879 18.0798 59.0872 18.0798 59.6565C18.0798 60.2352 18.1964 60.7439 18.4298 61.1825C18.6724 61.6119 18.9898 61.9432 19.3818 62.1765C19.7831 62.4005 20.2171 62.5125 20.6838 62.5125C21.1598 62.5125 21.5938 62.4005 21.9858 62.1765C22.3871 61.9432 22.7044 61.6119 22.9378 61.1825C23.1711 60.7439 23.2878 60.2305 23.2878 59.6425Z" fill="white"/>
<path d="M39.5651 55.6945C40.1625 55.6945 40.6945 55.8205 41.1611 56.0725C41.6278 56.3152 41.9965 56.6839 42.2671 57.1785C42.5378 57.6732 42.6731 58.2752 42.6731 58.9845V63.5065H41.4131V59.1665C41.4131 58.4012 41.2218 57.8179 40.8391 57.4165C40.4658 57.0059 39.9571 56.8005 39.3131 56.8005C38.6505 56.8005 38.1231 57.0152 37.7311 57.4445C37.3391 57.8645 37.1431 58.4759 37.1431 59.2785V63.5065H35.8831V59.1665C35.8831 58.4012 35.6918 57.8179 35.3091 57.4165C34.9358 57.0059 34.4271 56.8005 33.7831 56.8005C33.1205 56.8005 32.5931 57.0152 32.2011 57.4445C31.8091 57.8645 31.6131 58.4759 31.6131 59.2785V63.5065H30.3391V55.8345H31.6131V56.9405C31.8651 56.5392 32.2011 56.2312 32.6211 56.0165C33.0505 55.8019 33.5218 55.6945 34.0351 55.6945C34.6791 55.6945 35.2485 55.8392 35.7431 56.1285C36.2378 56.4179 36.6065 56.8425 36.8491 57.4025C37.0638 56.8612 37.4185 56.4412 37.9131 56.1425C38.4078 55.8439 38.9585 55.6945 39.5651 55.6945Z" fill="white"/>
<path d="M44.457 59.6425C44.457 58.8585 44.6156 58.1725 44.933 57.5845C45.2503 56.9872 45.6843 56.5252 46.235 56.1985C46.795 55.8719 47.4156 55.7085 48.097 55.7085C48.769 55.7085 49.3523 55.8532 49.847 56.1425C50.3416 56.4319 50.7103 56.7959 50.953 57.2345V55.8345H52.241V63.5065H50.953V62.0785C50.701 62.5265 50.323 62.8999 49.819 63.1985C49.3243 63.4879 48.7456 63.6325 48.083 63.6325C47.4016 63.6325 46.7856 63.4645 46.235 63.1285C45.6843 62.7925 45.2503 62.3212 44.933 61.7145C44.6156 61.1079 44.457 60.4172 44.457 59.6425ZM50.953 59.6565C50.953 59.0779 50.8363 58.5739 50.603 58.1445C50.3696 57.7152 50.0523 57.3885 49.651 57.1645C49.2589 56.9312 48.825 56.8145 48.349 56.8145C47.873 56.8145 47.4389 56.9265 47.047 57.1505C46.655 57.3745 46.3423 57.7012 46.109 58.1305C45.8756 58.5599 45.759 59.0639 45.759 59.6425C45.759 60.2305 45.8756 60.7439 46.109 61.1825C46.3423 61.6119 46.655 61.9432 47.047 62.1765C47.4389 62.4005 47.873 62.5125 48.349 62.5125C48.825 62.5125 49.2589 62.4005 49.651 62.1765C50.0523 61.9432 50.3696 61.6119 50.603 61.1825C50.8363 60.7439 50.953 60.2352 50.953 59.6565Z" fill="white"/>
<path d="M56.1179 56.8845V61.4065C56.1179 61.7799 56.1972 62.0459 56.3559 62.2045C56.5146 62.3539 56.7899 62.4285 57.1819 62.4285H58.1199V63.5065H56.9719C56.2626 63.5065 55.7306 63.3432 55.3759 63.0165C55.0212 62.6899 54.8439 62.1532 54.8439 61.4065V56.8845H53.8499V55.8345H54.8439V53.9025H56.1179V55.8345H58.1199V56.8845H56.1179Z" fill="white"/>
<path d="M59.3575 59.6565C59.3575 58.8632 59.5162 58.1725 59.8335 57.5845C60.1508 56.9872 60.5895 56.5252 61.1495 56.1985C61.7188 55.8719 62.3675 55.7085 63.0955 55.7085C64.0382 55.7085 64.8128 55.9372 65.4195 56.3945C66.0355 56.8519 66.4415 57.4865 66.6375 58.2985H65.2655C65.1348 57.8319 64.8782 57.4632 64.4955 57.1925C64.1222 56.9219 63.6555 56.7865 63.0955 56.7865C62.3675 56.7865 61.7795 57.0385 61.3315 57.5425C60.8835 58.0372 60.6595 58.7419 60.6595 59.6565C60.6595 60.5805 60.8835 61.2945 61.3315 61.7985C61.7795 62.3025 62.3675 62.5545 63.0955 62.5545C63.6555 62.5545 64.1222 62.4239 64.4955 62.1625C64.8688 61.9012 65.1255 61.5279 65.2655 61.0425H66.6375C66.4322 61.8265 66.0215 62.4565 65.4055 62.9325C64.7895 63.3992 64.0195 63.6325 63.0955 63.6325C62.3675 63.6325 61.7188 63.4692 61.1495 63.1425C60.5895 62.8159 60.1508 62.3539 59.8335 61.7565C59.5162 61.1592 59.3575 60.4592 59.3575 59.6565Z" fill="white"/>
<path d="M72.3154 55.6945C72.8941 55.6945 73.4167 55.8205 73.8834 56.0725C74.3501 56.3152 74.7141 56.6839 74.9754 57.1785C75.2461 57.6732 75.3814 58.2752 75.3814 58.9845V63.5065H74.1214V59.1665C74.1214 58.4012 73.9301 57.8179 73.5474 57.4165C73.1647 57.0059 72.6421 56.8005 71.9794 56.8005C71.3074 56.8005 70.7707 57.0105 70.3694 57.4305C69.9774 57.8505 69.7814 58.4619 69.7814 59.2645V63.5065H68.5074V53.1465H69.7814V56.9265C70.0334 56.5345 70.3787 56.2312 70.8174 56.0165C71.2654 55.8019 71.7647 55.6945 72.3154 55.6945Z" fill="white"/>
<path d="M84.6325 59.3765C84.6325 59.6192 84.6185 59.8759 84.5905 60.1465H78.4585C78.5051 60.9025 78.7618 61.4952 79.2285 61.9245C79.7045 62.3445 80.2785 62.5545 80.9505 62.5545C81.5012 62.5545 81.9585 62.4285 82.3225 62.1765C82.6958 61.9152 82.9572 61.5699 83.1065 61.1405H84.4785C84.2732 61.8779 83.8625 62.4799 83.2465 62.9465C82.6305 63.4039 81.8652 63.6325 80.9505 63.6325C80.2225 63.6325 79.5692 63.4692 78.9905 63.1425C78.4212 62.8159 77.9732 62.3539 77.6465 61.7565C77.3198 61.1499 77.1565 60.4499 77.1565 59.6565C77.1565 58.8632 77.3151 58.1679 77.6325 57.5705C77.9498 56.9732 78.3932 56.5159 78.9625 56.1985C79.5412 55.8719 80.2038 55.7085 80.9505 55.7085C81.6785 55.7085 82.3225 55.8672 82.8825 56.1845C83.4425 56.5019 83.8718 56.9405 84.1705 57.5005C84.4785 58.0512 84.6325 58.6765 84.6325 59.3765ZM83.3165 59.1105C83.3165 58.6252 83.2092 58.2099 82.9945 57.8645C82.7798 57.5099 82.4858 57.2439 82.1125 57.0665C81.7485 56.8799 81.3425 56.7865 80.8945 56.7865C80.2505 56.7865 79.6998 56.9919 79.2425 57.4025C78.7945 57.8132 78.5378 58.3825 78.4725 59.1105H83.3165Z" fill="white"/>
<path d="M89.2001 63.6325C88.6121 63.6325 88.0848 63.5345 87.6181 63.3385C87.1515 63.1332 86.7828 62.8532 86.5121 62.4985C86.2415 62.1345 86.0921 61.7192 86.0641 61.2525H87.3801C87.4174 61.6352 87.5948 61.9479 87.9121 62.1905C88.2388 62.4332 88.6635 62.5545 89.1861 62.5545C89.6715 62.5545 90.0541 62.4472 90.3341 62.2325C90.6141 62.0179 90.7541 61.7472 90.7541 61.4205C90.7541 61.0845 90.6048 60.8372 90.3061 60.6785C90.0075 60.5105 89.5455 60.3472 88.9201 60.1885C88.3508 60.0392 87.8841 59.8899 87.5201 59.7405C87.1655 59.5819 86.8575 59.3532 86.5961 59.0545C86.3441 58.7465 86.2181 58.3452 86.2181 57.8505C86.2181 57.4585 86.3348 57.0992 86.5681 56.7725C86.8015 56.4459 87.1328 56.1892 87.5621 56.0025C87.9915 55.8065 88.4815 55.7085 89.0321 55.7085C89.8815 55.7085 90.5675 55.9232 91.0901 56.3525C91.6128 56.7819 91.8928 57.3699 91.9301 58.1165H90.6561C90.6281 57.7152 90.4648 57.3932 90.1661 57.1505C89.8768 56.9079 89.4848 56.7865 88.9901 56.7865C88.5328 56.7865 88.1688 56.8845 87.8981 57.0805C87.6275 57.2765 87.4921 57.5332 87.4921 57.8505C87.4921 58.1025 87.5715 58.3125 87.7301 58.4805C87.8981 58.6392 88.1035 58.7699 88.3461 58.8725C88.5981 58.9659 88.9435 59.0732 89.3821 59.1945C89.9328 59.3439 90.3808 59.4932 90.7261 59.6425C91.0715 59.7825 91.3655 59.9972 91.6081 60.2865C91.8601 60.5759 91.9908 60.9539 92.0001 61.4205C92.0001 61.8405 91.8835 62.2185 91.6501 62.5545C91.4168 62.8905 91.0855 63.1565 90.6561 63.3525C90.2361 63.5392 89.7508 63.6325 89.2001 63.6325Z" fill="white"/>
<path fill-rule="evenodd" clip-rule="evenodd" d="M174 50C174 72.0914 156.091 90 134 90C111.909 90 94 72.0914 94 50C94 27.9086 111.909 10 134 10C156.091 10 174 27.9086 174 50ZM164 50C164 66.5685 150.569 80 134 80C117.431 80 104 66.5685 104 50C104 33.4315 117.431 20 134 20C150.569 20 164 33.4315 164 50Z" fill="#0F0F0D"/>
<path fill-rule="evenodd" clip-rule="evenodd" d="M134 80C150.569 80 164 66.5685 164 50C164 33.4315 150.569 20 134 20C117.431 20 104 33.4315 104 50C104 66.5685 117.431 80 134 80Z" fill="white"/>
<path fill-rule="evenodd" clip-rule="evenodd" d="M139.577 38.6065C134.891 33.9202 127.293 33.9202 122.607 38.6065C117.92 43.2928 117.92 50.8908 122.607 55.5771C127.293 60.2634 134.891 60.2634 139.577 55.5771C144.263 50.8908 144.263 43.2928 139.577 38.6065ZM120.485 36.4852C126.343 30.6273 135.841 30.6273 141.698 36.4852C147.198 41.9851 147.534 50.6932 142.707 56.5853L148.992 62.8694L146.87 64.9908L140.585 58.7066C134.693 63.5344 125.985 63.1983 120.485 57.6984C114.627 51.8405 114.627 42.3431 120.485 36.4852Z" fill="#40403E"/>
<path d="M132.333 43.9997V41.333C132.333 40.8026 132.123 40.2939 131.748 39.9188C131.373 39.5437 130.864 39.333 130.333 39.333L127.667 45.333V52.6663H135.187C135.508 52.67 135.82 52.5573 136.065 52.349C136.31 52.1407 136.472 51.8509 136.52 51.533L137.44 45.533C137.469 45.3419 137.456 45.1468 137.402 44.9612C137.349 44.7756 137.255 44.6039 137.128 44.458C137.001 44.3122 136.844 44.1956 136.668 44.1165C136.492 44.0373 136.3 43.9975 136.107 43.9997H132.333ZM127.667 52.6663H125.667C125.313 52.6663 124.974 52.5259 124.724 52.2758C124.474 52.0258 124.333 51.6866 124.333 51.333V46.6663C124.333 46.3127 124.474 45.9736 124.724 45.7235C124.974 45.4735 125.313 45.333 125.667 45.333H127.667" fill="#40403E"/>
<path fill-rule="evenodd" clip-rule="evenodd" d="M406.729 40.7207C406.729 62.8121 388.82 80.7207 366.729 80.7207C344.637 80.7207 326.729 62.8121 326.729 40.7207C326.729 18.6293 344.637 0.720703 366.729 0.720703C388.82 0.720703 406.729 18.6293 406.729 40.7207ZM396.729 40.7207C396.729 57.2892 383.297 70.7207 366.729 70.7207C350.16 70.7207 336.729 57.2892 336.729 40.7207C336.729 24.1522 350.16 10.7207 366.729 10.7207C383.297 10.7207 396.729 24.1522 396.729 40.7207Z" fill="#0F0F0D"/>
<path fill-rule="evenodd" clip-rule="evenodd" d="M366.729 70.7207C383.297 70.7207 396.729 57.2892 396.729 40.7207C396.729 24.1522 383.297 10.7207 366.729 10.7207C350.16 10.7207 336.729 24.1522 336.729 40.7207C336.729 57.2892 350.16 70.7207 366.729 70.7207Z" fill="white"/>
<g clip-path="url(#clip0_3149_27438)">
<path d="M372.477 32.8343H360.979C360.835 32.8343 360.697 32.7771 360.596 32.6753C360.494 32.5735 360.437 32.4354 360.437 32.2914V30.006C360.437 29.5367 360.529 29.0721 360.709 28.6386C360.889 28.2052 361.153 27.8116 361.485 27.4802C361.817 27.1489 362.212 26.8864 362.646 26.7078C363.08 26.5292 363.545 26.438 364.014 26.4395H369.442C370.388 26.4395 371.296 26.8152 371.964 27.4841C372.633 28.1529 373.009 29.0601 373.009 30.006V32.2914C373.009 32.4335 372.953 32.57 372.854 32.6715C372.754 32.773 372.619 32.8314 372.477 32.8343ZM361.522 31.7486H371.934V30.006C371.933 29.6795 371.868 29.3563 371.743 29.055C371.617 28.7536 371.433 28.4799 371.202 28.2495C370.971 28.0192 370.696 27.8366 370.394 27.7124C370.092 27.5881 369.769 27.5245 369.442 27.5252H364.014C363.356 27.5266 362.726 27.7884 362.261 28.2534C361.796 28.7183 361.535 29.3485 361.533 30.006L361.522 31.7486Z" fill="#40403E"/>
<path d="M361.522 31.7486H371.934V30.006C371.933 29.6795 371.868 29.3563 371.743 29.055C371.617 28.7536 371.433 28.4799 371.202 28.2495C370.971 28.0192 370.696 27.8366 370.394 27.7124C370.092 27.5881 369.769 27.5245 369.442 27.5252H364.014C363.356 27.5266 362.726 27.7884 362.261 28.2534C361.796 28.7183 361.535 29.3485 361.533 30.006L361.522 31.7486Z" fill="#40403E"/>
<path d="M366.728 25.3553C366.072 25.3553 365.431 25.1608 364.886 24.7964C364.34 24.4319 363.915 23.9139 363.664 23.3078C363.413 22.7017 363.347 22.0348 363.475 21.3914C363.603 20.748 363.919 20.157 364.383 19.6932C364.847 19.2293 365.438 18.9134 366.081 18.7854C366.725 18.6574 367.392 18.7231 367.998 18.9742C368.604 19.2252 369.122 19.6503 369.486 20.1958C369.851 20.7412 370.045 21.3825 370.045 22.0385C370.044 22.9177 369.694 23.7606 369.072 24.3823C368.451 25.004 367.608 25.3539 366.728 25.3553ZM366.728 19.8074C366.287 19.8074 365.856 19.9382 365.489 20.1834C365.122 20.4286 364.836 20.777 364.667 21.1847C364.498 21.5924 364.454 22.041 364.54 22.4738C364.626 22.9066 364.839 23.3041 365.151 23.6162C365.463 23.9282 365.86 24.1407 366.293 24.2268C366.726 24.3129 367.175 24.2687 367.582 24.0998C367.99 23.9309 368.338 23.645 368.584 23.2781C368.829 22.9112 368.96 22.4798 368.96 22.0385C368.96 21.4468 368.725 20.8793 368.306 20.4609C367.888 20.0425 367.32 19.8074 366.728 19.8074Z" fill="#40403E"/>
<path d="M366.728 19.8074C366.287 19.8074 365.856 19.9382 365.489 20.1834C365.122 20.4286 364.836 20.777 364.667 21.1847C364.498 21.5924 364.454 22.041 364.54 22.4738C364.626 22.9066 364.839 23.3041 365.151 23.6162C365.463 23.9282 365.86 24.1407 366.293 24.2268C366.726 24.3129 367.175 24.2687 367.582 24.0998C367.99 23.9309 368.338 23.645 368.584 23.2781C368.829 22.9112 368.96 22.4798 368.96 22.0385C368.96 21.4468 368.725 20.8793 368.306 20.4609C367.888 20.0425 367.32 19.8074 366.728 19.8074Z" fill="#40403E"/>
<path d="M385.186 56.72H373.683C373.539 56.72 373.4 56.6628 373.299 56.561C373.197 56.4592 373.14 56.3211 373.14 56.1772V53.8917C373.141 52.9463 373.517 52.0399 374.186 51.3714C374.854 50.7028 375.761 50.3266 376.706 50.3252H382.162C383.107 50.3266 384.014 50.7028 384.682 51.3714C385.351 52.0399 385.727 52.9463 385.728 53.8917V56.1772C385.728 56.3211 385.671 56.4592 385.569 56.561C385.468 56.6628 385.33 56.72 385.186 56.72ZM374.225 55.6343H384.643V53.8917C384.641 53.2342 384.379 52.604 383.915 52.1391C383.45 51.6742 382.819 51.4123 382.162 51.4109H376.706C376.049 51.4123 375.418 51.6742 374.954 52.1391C374.489 52.604 374.227 53.2342 374.225 53.8917V55.6343Z" fill="#40403E"/>
<path d="M374.225 55.6343H384.643V53.8917C384.641 53.2342 384.379 52.604 383.915 52.1391C383.45 51.6742 382.819 51.4123 382.162 51.4109H376.706C376.049 51.4123 375.418 51.6742 374.954 52.1391C374.489 52.604 374.227 53.2342 374.225 53.8917V55.6343Z" fill="#40403E"/>
<path d="M379.436 49.2401C378.78 49.2401 378.139 49.0456 377.594 48.6811C377.048 48.3167 376.623 47.7986 376.372 47.1926C376.121 46.5865 376.055 45.9196 376.183 45.2762C376.311 44.6328 376.627 44.0418 377.091 43.5779C377.555 43.1141 378.146 42.7982 378.789 42.6702C379.433 42.5422 380.1 42.6079 380.706 42.8589C381.312 43.11 381.83 43.5351 382.194 44.0805C382.559 44.626 382.753 45.2673 382.753 45.9233C382.752 46.8025 382.402 47.6453 381.78 48.267C381.159 48.8888 380.316 49.2387 379.436 49.2401ZM379.436 43.6922C378.995 43.6922 378.564 43.823 378.197 44.0682C377.83 44.3133 377.544 44.6618 377.375 45.0695C377.206 45.4771 377.162 45.9258 377.248 46.3585C377.334 46.7913 377.547 47.1889 377.859 47.5009C378.171 47.813 378.568 48.0254 379.001 48.1115C379.434 48.1976 379.883 48.1534 380.29 47.9846C380.698 47.8157 381.046 47.5297 381.292 47.1628C381.537 46.7959 381.668 46.3646 381.668 45.9233C381.668 45.3315 381.433 44.7641 381.014 44.3456C380.596 43.9272 380.028 43.6922 379.436 43.6922Z" fill="#40403E"/>
<path d="M379.436 43.6922C378.995 43.6922 378.564 43.823 378.197 44.0682C377.83 44.3133 377.544 44.6618 377.375 45.0695C377.206 45.4771 377.162 45.9258 377.248 46.3585C377.334 46.7913 377.547 47.1889 377.859 47.5009C378.171 47.813 378.568 48.0254 379.001 48.1115C379.434 48.1976 379.883 48.1534 380.29 47.9846C380.698 47.8157 381.046 47.5297 381.292 47.1628C381.537 46.7959 381.668 46.3646 381.668 45.9233C381.668 45.3315 381.433 44.7641 381.014 44.3456C380.596 43.9272 380.028 43.6922 379.436 43.6922Z" fill="#40403E"/>
<path d="M359.774 56.72H348.271C348.127 56.72 347.989 56.6628 347.888 56.561C347.786 56.4592 347.729 56.3211 347.729 56.1772V53.8917C347.73 52.9463 348.106 52.0399 348.775 51.3714C349.443 50.7028 350.35 50.3266 351.295 50.3252H356.751C357.696 50.3266 358.603 50.7028 359.271 51.3714C359.94 52.0399 360.316 52.9463 360.317 53.8917V56.1772C360.317 56.3211 360.26 56.4592 360.158 56.561C360.056 56.6628 359.918 56.72 359.774 56.72ZM348.814 55.6343H359.232V53.8917C359.23 53.2342 358.968 52.604 358.503 52.1391C358.038 51.6742 357.408 51.4123 356.751 51.4109H351.322C350.994 51.408 350.669 51.4701 350.365 51.5934C350.062 51.7167 349.785 51.8989 349.552 52.1295C349.319 52.3601 349.134 52.6345 349.007 52.9369C348.88 53.2394 348.815 53.5639 348.814 53.8917V55.6343Z" fill="#40403E"/>
<path d="M348.814 55.6343H359.232V53.8917C359.23 53.2342 358.968 52.604 358.503 52.1391C358.038 51.6742 357.408 51.4123 356.751 51.4109H351.322C350.994 51.408 350.669 51.4701 350.365 51.5934C350.062 51.7167 349.785 51.8989 349.552 52.1295C349.319 52.3601 349.134 52.6345 349.007 52.9369C348.88 53.2394 348.815 53.5639 348.814 53.8917V55.6343Z" fill="#40403E"/>
<path d="M354.02 49.2401C353.364 49.2401 352.723 49.0456 352.177 48.6811C351.632 48.3167 351.207 47.7986 350.956 47.1926C350.705 46.5865 350.639 45.9196 350.767 45.2762C350.895 44.6328 351.211 44.0418 351.675 43.5779C352.138 43.1141 352.729 42.7982 353.373 42.6702C354.016 42.5422 354.683 42.6079 355.289 42.8589C355.895 43.11 356.413 43.5351 356.778 44.0805C357.142 44.626 357.337 45.2673 357.337 45.9233C357.335 46.8025 356.985 47.6453 356.364 48.267C355.742 48.8888 354.899 49.2387 354.02 49.2401ZM354.02 43.6922C353.579 43.6922 353.147 43.823 352.78 44.0682C352.414 44.3133 352.128 44.6618 351.959 45.0695C351.79 45.4771 351.746 45.9258 351.832 46.3585C351.918 46.7913 352.13 47.1889 352.442 47.5009C352.754 47.813 353.152 48.0254 353.585 48.1115C354.017 48.1976 354.466 48.1534 354.874 47.9846C355.281 47.8157 355.63 47.5297 355.875 47.1628C356.12 46.7959 356.251 46.3646 356.251 45.9233C356.25 45.332 356.014 44.7653 355.596 44.3472C355.178 43.9291 354.611 43.6936 354.02 43.6922Z" fill="#40403E"/>
<path d="M354.02 43.6922C353.579 43.6922 353.147 43.823 352.78 44.0682C352.414 44.3133 352.128 44.6618 351.959 45.0695C351.79 45.4771 351.746 45.9258 351.832 46.3585C351.918 46.7913 352.13 47.1889 352.442 47.5009C352.754 47.813 353.152 48.0254 353.585 48.1115C354.017 48.1976 354.466 48.1534 354.874 47.9846C355.281 47.8157 355.63 47.5297 355.875 47.1628C356.12 46.7959 356.251 46.3646 356.251 45.9233C356.25 45.332 356.014 44.7653 355.596 44.3472C355.178 43.9291 354.611 43.6936 354.02 43.6922Z" fill="#40403E"/>
<path fill-rule="evenodd" clip-rule="evenodd" d="M365.229 41.0099V34.7207H368.229V40.9707L373.629 45.0207L371.829 47.4207L366.769 43.6259L362.179 47.3816L360.279 45.0598L365.229 41.0099Z" fill="#40403E"/>
</g>
<path d="M416.518 24.6802V34.4382H415.244V30.0142H410.274V34.4382H409V24.6802H410.274V28.9642H415.244V24.6802H416.518Z" fill="white"/>
<path d="M419.522 25.5202C419.279 25.5202 419.074 25.4362 418.906 25.2682C418.738 25.1002 418.654 24.8948 418.654 24.6522C418.654 24.4095 418.738 24.2042 418.906 24.0362C419.074 23.8682 419.279 23.7842 419.522 23.7842C419.755 23.7842 419.951 23.8682 420.11 24.0362C420.278 24.2042 420.362 24.4095 420.362 24.6522C420.362 24.8948 420.278 25.1002 420.11 25.2682C419.951 25.4362 419.755 25.5202 419.522 25.5202ZM420.138 26.7662V34.4382H418.864V26.7662H420.138Z" fill="white"/>
<path d="M425.643 26.6402C426.306 26.6402 426.884 26.7848 427.379 27.0742C427.883 27.3635 428.256 27.7275 428.499 28.1662V26.7662H429.787V34.6062C429.787 35.3062 429.638 35.9268 429.339 36.4682C429.04 37.0188 428.611 37.4482 428.051 37.7562C427.5 38.0642 426.856 38.2182 426.119 38.2182C425.111 38.2182 424.271 37.9802 423.599 37.5042C422.927 37.0282 422.53 36.3795 422.409 35.5582H423.669C423.809 36.0248 424.098 36.3982 424.537 36.6782C424.976 36.9675 425.503 37.1122 426.119 37.1122C426.819 37.1122 427.388 36.8928 427.827 36.4542C428.275 36.0155 428.499 35.3995 428.499 34.6062V32.9962C428.247 33.4442 427.874 33.8175 427.379 34.1162C426.884 34.4148 426.306 34.5642 425.643 34.5642C424.962 34.5642 424.341 34.3962 423.781 34.0602C423.23 33.7242 422.796 33.2528 422.479 32.6462C422.162 32.0395 422.003 31.3488 422.003 30.5742C422.003 29.7902 422.162 29.1042 422.479 28.5162C422.796 27.9188 423.23 27.4568 423.781 27.1302C424.341 26.8035 424.962 26.6402 425.643 26.6402ZM428.499 30.5882C428.499 30.0095 428.382 29.5055 428.149 29.0762C427.916 28.6468 427.598 28.3202 427.197 28.0962C426.805 27.8628 426.371 27.7462 425.895 27.7462C425.419 27.7462 424.985 27.8582 424.593 28.0822C424.201 28.3062 423.888 28.6328 423.655 29.0622C423.422 29.4915 423.305 29.9955 423.305 30.5742C423.305 31.1622 423.422 31.6755 423.655 32.1142C423.888 32.5435 424.201 32.8748 424.593 33.1082C424.985 33.3322 425.419 33.4442 425.895 33.4442C426.371 33.4442 426.805 33.3322 427.197 33.1082C427.598 32.8748 427.916 32.5435 428.149 32.1142C428.382 31.6755 428.499 31.1668 428.499 30.5882Z" fill="white"/>
<path d="M435.918 26.6262C436.497 26.6262 437.019 26.7522 437.486 27.0042C437.953 27.2468 438.317 27.6155 438.578 28.1102C438.849 28.6048 438.984 29.2068 438.984 29.9162V34.4382H437.724V30.0982C437.724 29.3328 437.533 28.7495 437.15 28.3482C436.767 27.9375 436.245 27.7322 435.582 27.7322C434.91 27.7322 434.373 27.9422 433.972 28.3622C433.58 28.7822 433.384 29.3935 433.384 30.1962V34.4382H432.11V24.0782H433.384V27.8582C433.636 27.4662 433.981 27.1628 434.42 26.9482C434.868 26.7335 435.367 26.6262 435.918 26.6262Z" fill="white"/>
<path d="M446.555 28.7682V29.8462H440.969V28.7682H446.555Z" fill="white"/>
<path d="M448.64 30.5882C448.64 29.7948 448.799 29.1042 449.116 28.5162C449.433 27.9188 449.872 27.4568 450.432 27.1302C451.001 26.8035 451.65 26.6402 452.378 26.6402C453.321 26.6402 454.095 26.8688 454.702 27.3262C455.318 27.7835 455.724 28.4182 455.92 29.2302H454.548C454.417 28.7635 454.161 28.3948 453.778 28.1242C453.405 27.8535 452.938 27.7182 452.378 27.7182C451.65 27.7182 451.062 27.9702 450.614 28.4742C450.166 28.9688 449.942 29.6735 449.942 30.5882C449.942 31.5122 450.166 32.2262 450.614 32.7302C451.062 33.2342 451.65 33.4862 452.378 33.4862C452.938 33.4862 453.405 33.3555 453.778 33.0942C454.151 32.8328 454.408 32.4595 454.548 31.9742H455.92C455.715 32.7582 455.304 33.3882 454.688 33.8642C454.072 34.3308 453.302 34.5642 452.378 34.5642C451.65 34.5642 451.001 34.4008 450.432 34.0742C449.872 33.7475 449.433 33.2855 449.116 32.6882C448.799 32.0908 448.64 31.3908 448.64 30.5882Z" fill="white"/>
<path d="M457.314 30.5742C457.314 29.7902 457.473 29.1042 457.79 28.5162C458.107 27.9188 458.541 27.4568 459.092 27.1302C459.652 26.8035 460.273 26.6402 460.954 26.6402C461.626 26.6402 462.209 26.7848 462.704 27.0742C463.199 27.3635 463.567 27.7275 463.81 28.1662V26.7662H465.098V34.4382H463.81V33.0102C463.558 33.4582 463.18 33.8315 462.676 34.1302C462.181 34.4195 461.603 34.5642 460.94 34.5642C460.259 34.5642 459.643 34.3962 459.092 34.0602C458.541 33.7242 458.107 33.2528 457.79 32.6462C457.473 32.0395 457.314 31.3488 457.314 30.5742ZM463.81 30.5882C463.81 30.0095 463.693 29.5055 463.46 29.0762C463.227 28.6468 462.909 28.3202 462.508 28.0962C462.116 27.8628 461.682 27.7462 461.206 27.7462C460.73 27.7462 460.296 27.8582 459.904 28.0822C459.512 28.3062 459.199 28.6328 458.966 29.0622C458.733 29.4915 458.616 29.9955 458.616 30.5742C458.616 31.1622 458.733 31.6755 458.966 32.1142C459.199 32.5435 459.512 32.8748 459.904 33.1082C460.296 33.3322 460.73 33.4442 461.206 33.4442C461.682 33.4442 462.116 33.3322 462.508 33.1082C462.909 32.8748 463.227 32.5435 463.46 32.1142C463.693 31.6755 463.81 31.1668 463.81 30.5882Z" fill="white"/>
<path d="M468.695 24.0782V34.4382H467.421V24.0782H468.695Z" fill="white"/>
<path d="M471.694 25.5202C471.452 25.5202 471.246 25.4362 471.078 25.2682C470.91 25.1002 470.826 24.8948 470.826 24.6522C470.826 24.4095 470.91 24.2042 471.078 24.0362C471.246 23.8682 471.452 23.7842 471.694 23.7842C471.928 23.7842 472.124 23.8682 472.282 24.0362C472.45 24.2042 472.534 24.4095 472.534 24.6522C472.534 24.8948 472.45 25.1002 472.282 25.2682C472.124 25.4362 471.928 25.5202 471.694 25.5202ZM472.31 26.7662V34.4382H471.036V26.7662H472.31Z" fill="white"/>
<path d="M475.926 28.1942C476.187 27.7368 476.57 27.3635 477.074 27.0742C477.578 26.7848 478.152 26.6402 478.796 26.6402C479.486 26.6402 480.107 26.8035 480.658 27.1302C481.208 27.4568 481.642 27.9188 481.96 28.5162C482.277 29.1042 482.436 29.7902 482.436 30.5742C482.436 31.3488 482.277 32.0395 481.96 32.6462C481.642 33.2528 481.204 33.7242 480.644 34.0602C480.093 34.3962 479.477 34.5642 478.796 34.5642C478.133 34.5642 477.55 34.4195 477.046 34.1302C476.551 33.8408 476.178 33.4722 475.926 33.0242V34.4382H474.652V24.0782H475.926V28.1942ZM481.134 30.5742C481.134 29.9955 481.017 29.4915 480.784 29.0622C480.55 28.6328 480.233 28.3062 479.832 28.0822C479.44 27.8582 479.006 27.7462 478.53 27.7462C478.063 27.7462 477.629 27.8628 477.228 28.0962C476.836 28.3202 476.518 28.6515 476.276 29.0902C476.042 29.5195 475.926 30.0188 475.926 30.5882C475.926 31.1668 476.042 31.6755 476.276 32.1142C476.518 32.5435 476.836 32.8748 477.228 33.1082C477.629 33.3322 478.063 33.4442 478.53 33.4442C479.006 33.4442 479.44 33.3322 479.832 33.1082C480.233 32.8748 480.55 32.5435 480.784 32.1142C481.017 31.6755 481.134 31.1622 481.134 30.5742Z" fill="white"/>
<path d="M491.283 30.3082C491.283 30.5508 491.269 30.8075 491.241 31.0782H485.109C485.155 31.8342 485.412 32.4268 485.879 32.8562C486.355 33.2762 486.929 33.4862 487.601 33.4862C488.151 33.4862 488.609 33.3602 488.973 33.1082C489.346 32.8468 489.607 32.5015 489.757 32.0722H491.129C490.923 32.8095 490.513 33.4115 489.897 33.8782C489.281 34.3355 488.515 34.5642 487.601 34.5642C486.873 34.5642 486.219 34.4008 485.641 34.0742C485.071 33.7475 484.623 33.2855 484.297 32.6882C483.97 32.0815 483.807 31.3815 483.807 30.5882C483.807 29.7948 483.965 29.0995 484.283 28.5022C484.6 27.9048 485.043 27.4475 485.613 27.1302C486.191 26.8035 486.854 26.6402 487.601 26.6402C488.329 26.6402 488.973 26.7988 489.533 27.1162C490.093 27.4335 490.522 27.8722 490.821 28.4322C491.129 28.9828 491.283 29.6082 491.283 30.3082ZM489.967 30.0422C489.967 29.5568 489.859 29.1415 489.645 28.7962C489.43 28.4415 489.136 28.1755 488.763 27.9982C488.399 27.8115 487.993 27.7182 487.545 27.7182C486.901 27.7182 486.35 27.9235 485.893 28.3342C485.445 28.7448 485.188 29.3142 485.123 30.0422H489.967Z" fill="white"/>
<path d="M494.408 28.0122C494.632 27.5735 494.949 27.2328 495.36 26.9902C495.78 26.7475 496.289 26.6262 496.886 26.6262V27.9422H496.55C495.122 27.9422 494.408 28.7168 494.408 30.2662V34.4382H493.134V26.7662H494.408V28.0122Z" fill="white"/>
<path d="M412.738 46.6262C413.672 46.6262 414.428 46.9108 415.006 47.4802C415.585 48.0402 415.874 48.8522 415.874 49.9162V54.4382H414.614V50.0982C414.614 49.3328 414.423 48.7495 414.04 48.3482C413.658 47.9375 413.135 47.7322 412.472 47.7322C411.8 47.7322 411.264 47.9422 410.862 48.3622C410.47 48.7822 410.274 49.3935 410.274 50.1962V54.4382H409V46.7662H410.274V47.8582C410.526 47.4662 410.867 47.1628 411.296 46.9482C411.735 46.7335 412.216 46.6262 412.738 46.6262Z" fill="white"/>
<path d="M425.126 50.3082C425.126 50.5508 425.112 50.8075 425.084 51.0782H418.952C418.998 51.8342 419.255 52.4268 419.722 52.8562C420.198 53.2762 420.772 53.4862 421.444 53.4862C421.994 53.4862 422.452 53.3602 422.816 53.1082C423.189 52.8468 423.45 52.5015 423.6 52.0722H424.972C424.766 52.8095 424.356 53.4115 423.74 53.8782C423.124 54.3355 422.358 54.5642 421.444 54.5642C420.716 54.5642 420.062 54.4008 419.484 54.0742C418.914 53.7475 418.466 53.2855 418.14 52.6882C417.813 52.0815 417.65 51.3815 417.65 50.5882C417.65 49.7948 417.808 49.0995 418.126 48.5022C418.443 47.9048 418.886 47.4475 419.456 47.1302C420.034 46.8035 420.697 46.6402 421.444 46.6402C422.172 46.6402 422.816 46.7988 423.376 47.1162C423.936 47.4335 424.365 47.8722 424.664 48.4322C424.972 48.9828 425.126 49.6082 425.126 50.3082ZM423.81 50.0422C423.81 49.5568 423.702 49.1415 423.488 48.7962C423.273 48.4415 422.979 48.1755 422.606 47.9982C422.242 47.8115 421.836 47.7182 421.388 47.7182C420.744 47.7182 420.193 47.9235 419.736 48.3342C419.288 48.7448 419.031 49.3142 418.966 50.0422H423.81Z" fill="white"/>
<path d="M428.531 47.8162V52.3382C428.531 52.7115 428.611 52.9775 428.769 53.1362C428.928 53.2855 429.203 53.3602 429.595 53.3602H430.533V54.4382H429.385C428.676 54.4382 428.144 54.2748 427.789 53.9482C427.435 53.6215 427.257 53.0848 427.257 52.3382V47.8162H426.263V46.7662H427.257V44.8342H428.531V46.7662H430.533V47.8162H428.531Z" fill="white"/>
<path d="M442.467 46.7662L440.073 54.4382H438.757L436.909 48.3482L435.061 54.4382H433.745L431.337 46.7662H432.639L434.403 53.2062L436.307 46.7662H437.609L439.471 53.2202L441.207 46.7662H442.467Z" fill="white"/>
<path d="M447.247 54.5642C446.529 54.5642 445.875 54.4008 445.287 54.0742C444.709 53.7475 444.251 53.2855 443.915 52.6882C443.589 52.0815 443.425 51.3815 443.425 50.5882C443.425 49.8042 443.593 49.1135 443.929 48.5162C444.275 47.9095 444.741 47.4475 445.329 47.1302C445.917 46.8035 446.575 46.6402 447.303 46.6402C448.031 46.6402 448.689 46.8035 449.277 47.1302C449.865 47.4475 450.327 47.9048 450.663 48.5022C451.009 49.0995 451.181 49.7948 451.181 50.5882C451.181 51.3815 451.004 52.0815 450.649 52.6882C450.304 53.2855 449.833 53.7475 449.235 54.0742C448.638 54.4008 447.975 54.5642 447.247 54.5642ZM447.247 53.4442C447.705 53.4442 448.134 53.3368 448.535 53.1222C448.937 52.9075 449.259 52.5855 449.501 52.1562C449.753 51.7268 449.879 51.2042 449.879 50.5882C449.879 49.9722 449.758 49.4495 449.515 49.0202C449.273 48.5908 448.955 48.2735 448.563 48.0682C448.171 47.8535 447.747 47.7462 447.289 47.7462C446.823 47.7462 446.393 47.8535 446.001 48.0682C445.619 48.2735 445.311 48.5908 445.077 49.0202C444.844 49.4495 444.727 49.9722 444.727 50.5882C444.727 51.2135 444.839 51.7408 445.063 52.1702C445.297 52.5995 445.605 52.9215 445.987 53.1362C446.37 53.3415 446.79 53.4442 447.247 53.4442Z" fill="white"/>
<path d="M454.3 48.0122C454.524 47.5735 454.842 47.2328 455.252 46.9902C455.672 46.7475 456.181 46.6262 456.778 46.6262V47.9422H456.442C455.014 47.9422 454.3 48.7168 454.3 50.2662V54.4382H453.026V46.7662H454.3V48.0122Z" fill="white"/>
<path d="M462.703 54.4382L459.693 51.0502V54.4382H458.419V44.0782H459.693V50.1682L462.647 46.7662H464.425L460.813 50.5882L464.439 54.4382H462.703Z" fill="white"/>
<path d="M466.452 45.5202C466.209 45.5202 466.004 45.4362 465.836 45.2682C465.668 45.1002 465.584 44.8948 465.584 44.6522C465.584 44.4095 465.668 44.2042 465.836 44.0362C466.004 43.8682 466.209 43.7842 466.452 43.7842C466.685 43.7842 466.881 43.8682 467.04 44.0362C467.208 44.2042 467.292 44.4095 467.292 44.6522C467.292 44.8948 467.208 45.1002 467.04 45.2682C466.881 45.4362 466.685 45.5202 466.452 45.5202ZM467.068 46.7662V54.4382H465.794V46.7662H467.068Z" fill="white"/>
<path d="M473.147 46.6262C474.081 46.6262 474.837 46.9108 475.415 47.4802C475.994 48.0402 476.283 48.8522 476.283 49.9162V54.4382H475.023V50.0982C475.023 49.3328 474.832 48.7495 474.449 48.3482C474.067 47.9375 473.544 47.7322 472.881 47.7322C472.209 47.7322 471.673 47.9422 471.271 48.3622C470.879 48.7822 470.683 49.3935 470.683 50.1962V54.4382H469.409V46.7662H470.683V47.8582C470.935 47.4662 471.276 47.1628 471.705 46.9482C472.144 46.7335 472.625 46.6262 473.147 46.6262Z" fill="white"/>
<path d="M481.698 46.6402C482.361 46.6402 482.94 46.7848 483.434 47.0742C483.938 47.3635 484.312 47.7275 484.554 48.1662V46.7662H485.842V54.6062C485.842 55.3062 485.693 55.9268 485.394 56.4682C485.096 57.0188 484.666 57.4482 484.106 57.7562C483.556 58.0642 482.912 58.2182 482.174 58.2182C481.166 58.2182 480.326 57.9802 479.654 57.5042C478.982 57.0282 478.586 56.3795 478.464 55.5582H479.724C479.864 56.0248 480.154 56.3982 480.592 56.6782C481.031 56.9675 481.558 57.1122 482.174 57.1122C482.874 57.1122 483.444 56.8928 483.882 56.4542C484.33 56.0155 484.554 55.3995 484.554 54.6062V52.9962C484.302 53.4442 483.929 53.8175 483.434 54.1162C482.94 54.4148 482.361 54.5642 481.698 54.5642C481.017 54.5642 480.396 54.3962 479.836 54.0602C479.286 53.7242 478.852 53.2528 478.534 52.6462C478.217 52.0395 478.058 51.3488 478.058 50.5742C478.058 49.7902 478.217 49.1042 478.534 48.5162C478.852 47.9188 479.286 47.4568 479.836 47.1302C480.396 46.8035 481.017 46.6402 481.698 46.6402ZM484.554 50.5882C484.554 50.0095 484.438 49.5055 484.204 49.0762C483.971 48.6468 483.654 48.3202 483.252 48.0962C482.86 47.8628 482.426 47.7462 481.95 47.7462C481.474 47.7462 481.04 47.8582 480.648 48.0822C480.256 48.3062 479.944 48.6328 479.71 49.0622C479.477 49.4915 479.36 49.9955 479.36 50.5742C479.36 51.1622 479.477 51.6755 479.71 52.1142C479.944 52.5435 480.256 52.8748 480.648 53.1082C481.04 53.3322 481.474 53.4442 481.95 53.4442C482.426 53.4442 482.86 53.3322 483.252 53.1082C483.654 52.8748 483.971 52.5435 484.204 52.1142C484.438 51.6755 484.554 51.1668 484.554 50.5882Z" fill="white"/>
<path fill-rule="evenodd" clip-rule="evenodd" d="M292.228 240.72C292.228 262.811 274.319 280.72 252.228 280.72C230.137 280.72 212.228 262.811 212.228 240.72C212.228 218.628 230.137 200.72 252.228 200.72C274.319 200.72 292.228 218.628 292.228 240.72ZM282.228 240.72C282.228 257.288 268.797 270.72 252.228 270.72C235.659 270.72 222.228 257.288 222.228 240.72C222.228 224.151 235.659 210.72 252.228 210.72C268.797 210.72 282.228 224.151 282.228 240.72Z" fill="#0F0F0D"/>
<path fill-rule="evenodd" clip-rule="evenodd" d="M252.228 270.72C268.797 270.72 282.228 257.288 282.228 240.72C282.228 224.151 268.797 210.72 252.228 210.72C235.659 210.72 222.228 224.151 222.228 240.72C222.228 257.288 235.659 270.72 252.228 270.72Z" fill="white"/>
<path d="M236.228 229.72C236.228 228.615 237.123 227.72 238.228 227.72H266.228C267.333 227.72 268.228 228.615 268.228 229.72V233.72H236.228V229.72Z" fill="#40403E"/>
<path fill-rule="evenodd" clip-rule="evenodd" d="M266.228 233.72H238.228V254.72H266.228V233.72ZM236.228 231.72V254.72C236.228 255.824 237.123 256.72 238.228 256.72H266.228C267.333 256.72 268.228 255.824 268.228 254.72V231.72H236.228Z" fill="#40403E"/>
<path d="M252.658 250.037C252.575 250.037 252.494 250.013 252.425 249.967C252.169 249.81 246.229 245.993 246.229 242.025C246.206 240.91 246.624 239.832 247.394 239.025C248.164 238.218 249.222 237.749 250.337 237.72C251.173 237.721 251.987 237.986 252.664 238.476C253.341 237.986 254.155 237.721 254.991 237.72C256.106 237.749 257.164 238.218 257.934 239.025C258.703 239.832 259.122 240.91 259.099 242.025C259.099 245.993 253.158 249.81 252.902 249.967C252.83 250.015 252.745 250.039 252.658 250.037ZM250.331 238.592C249.453 238.629 248.625 239.009 248.026 239.652C247.427 240.295 247.106 241.147 247.131 242.025C247.131 245.109 251.605 248.338 252.687 249.077C253.769 248.338 258.244 245.109 258.244 242.025C258.269 241.141 257.942 240.284 257.336 239.64C256.729 238.997 255.892 238.62 255.009 238.592C254.251 238.587 253.518 238.861 252.949 239.36C252.868 239.431 252.765 239.47 252.658 239.47C252.551 239.47 252.448 239.431 252.367 239.36C251.805 238.867 251.084 238.594 250.337 238.592H250.331Z" fill="#40403E"/>
<path d="M250.331 238.592C249.453 238.629 248.625 239.009 248.026 239.652C247.427 240.295 247.106 241.147 247.131 242.025C247.131 245.109 251.605 248.338 252.687 249.077C253.769 248.338 258.244 245.109 258.244 242.025C258.269 241.141 257.942 240.284 257.336 239.64C256.729 238.997 255.892 238.62 255.009 238.592C254.251 238.587 253.518 238.861 252.949 239.36C252.868 239.431 252.765 239.47 252.658 239.47C252.551 239.47 252.448 239.431 252.367 239.36C251.805 238.867 251.084 238.594 250.337 238.592H250.331Z" fill="#40403E"/>
<path d="M266.228 230.72C266.228 231.548 265.556 232.22 264.728 232.22C263.9 232.22 263.228 231.548 263.228 230.72C263.228 229.891 263.9 229.22 264.728 229.22C265.556 229.22 266.228 229.891 266.228 230.72Z" fill="white"/>
<path d="M262.228 230.72C262.228 231.548 261.556 232.22 260.728 232.22C259.9 232.22 259.228 231.548 259.228 230.72C259.228 229.891 259.9 229.22 260.728 229.22C261.556 229.22 262.228 229.891 262.228 230.72Z" fill="white"/>
<path d="M258.228 230.72C258.228 231.548 257.556 232.22 256.728 232.22C255.9 232.22 255.228 231.548 255.228 230.72C255.228 229.891 255.9 229.22 256.728 229.22C257.556 229.22 258.228 229.891 258.228 230.72Z" fill="white"/>
<path d="M238.228 229.72H252.228V231.72H238.228V229.72Z" fill="white"/>
<path d="M222.196 282.932V286.194H225.752V287.244H222.196V290.604H226.172V291.654H220.922V281.882H226.172V282.932H222.196Z" fill="white"/>
<path d="M232.274 291.654L230.454 288.798L228.704 291.654H227.374L229.852 287.846L227.374 283.982H228.816L230.636 286.824L232.372 283.982H233.702L231.238 287.776L233.716 291.654H232.274Z" fill="white"/>
<path d="M234.663 287.804C234.663 287.011 234.822 286.32 235.139 285.732C235.456 285.135 235.895 284.673 236.455 284.346C237.024 284.019 237.673 283.856 238.401 283.856C239.344 283.856 240.118 284.085 240.725 284.542C241.341 284.999 241.747 285.634 241.943 286.446H240.571C240.44 285.979 240.184 285.611 239.801 285.34C239.428 285.069 238.961 284.934 238.401 284.934C237.673 284.934 237.085 285.186 236.637 285.69C236.189 286.185 235.965 286.889 235.965 287.804C235.965 288.728 236.189 289.442 236.637 289.946C237.085 290.45 237.673 290.702 238.401 290.702C238.961 290.702 239.428 290.571 239.801 290.31C240.174 290.049 240.431 289.675 240.571 289.19H241.943C241.738 289.974 241.327 290.604 240.711 291.08C240.095 291.547 239.325 291.78 238.401 291.78C237.673 291.78 237.024 291.617 236.455 291.29C235.895 290.963 235.456 290.501 235.139 289.904C234.822 289.307 234.663 288.607 234.663 287.804Z" fill="white"/>
<path d="M245.087 281.294V291.654H243.813V281.294H245.087Z" fill="white"/>
<path d="M254.232 283.982V291.654H252.958V290.52C252.715 290.912 252.375 291.22 251.936 291.444C251.507 291.659 251.031 291.766 250.508 291.766C249.911 291.766 249.374 291.645 248.898 291.402C248.422 291.15 248.044 290.777 247.764 290.282C247.493 289.787 247.358 289.185 247.358 288.476V283.982H248.618V288.308C248.618 289.064 248.809 289.647 249.192 290.058C249.575 290.459 250.097 290.66 250.76 290.66C251.441 290.66 251.978 290.45 252.37 290.03C252.762 289.61 252.958 288.999 252.958 288.196V283.982H254.232Z" fill="white"/>
<path d="M259.269 291.78C258.681 291.78 258.154 291.682 257.687 291.486C257.221 291.281 256.852 291.001 256.581 290.646C256.311 290.282 256.161 289.867 256.133 289.4H257.449C257.487 289.783 257.664 290.095 257.981 290.338C258.308 290.581 258.733 290.702 259.255 290.702C259.741 290.702 260.123 290.595 260.403 290.38C260.683 290.165 260.823 289.895 260.823 289.568C260.823 289.232 260.674 288.985 260.375 288.826C260.077 288.658 259.615 288.495 258.989 288.336C258.42 288.187 257.953 288.037 257.589 287.888C257.235 287.729 256.927 287.501 256.665 287.202C256.413 286.894 256.287 286.493 256.287 285.998C256.287 285.606 256.404 285.247 256.637 284.92C256.871 284.593 257.202 284.337 257.631 284.15C258.061 283.954 258.551 283.856 259.101 283.856C259.951 283.856 260.637 284.071 261.159 284.5C261.682 284.929 261.962 285.517 261.999 286.264H260.725C260.697 285.863 260.534 285.541 260.235 285.298C259.946 285.055 259.554 284.934 259.059 284.934C258.602 284.934 258.238 285.032 257.967 285.228C257.697 285.424 257.561 285.681 257.561 285.998C257.561 286.25 257.641 286.46 257.799 286.628C257.967 286.787 258.173 286.917 258.415 287.02C258.667 287.113 259.013 287.221 259.451 287.342C260.002 287.491 260.45 287.641 260.795 287.79C261.141 287.93 261.435 288.145 261.677 288.434C261.929 288.723 262.06 289.101 262.069 289.568C262.069 289.988 261.953 290.366 261.719 290.702C261.486 291.038 261.155 291.304 260.725 291.5C260.305 291.687 259.82 291.78 259.269 291.78Z" fill="white"/>
<path d="M264.696 282.736C264.453 282.736 264.248 282.652 264.08 282.484C263.912 282.316 263.828 282.111 263.828 281.868C263.828 281.625 263.912 281.42 264.08 281.252C264.248 281.084 264.453 281 264.696 281C264.929 281 265.125 281.084 265.284 281.252C265.452 281.42 265.536 281.625 265.536 281.868C265.536 282.111 265.452 282.316 265.284 282.484C265.125 282.652 264.929 282.736 264.696 282.736ZM265.312 283.982V291.654H264.038V283.982H265.312Z" fill="white"/>
<path d="M270.509 290.478L272.889 283.982H274.247L271.237 291.654H269.753L266.743 283.982H268.115L270.509 290.478Z" fill="white"/>
<path d="M282.671 287.524C282.671 287.767 282.657 288.023 282.629 288.294H276.497C276.543 289.05 276.8 289.643 277.267 290.072C277.743 290.492 278.317 290.702 278.989 290.702C279.539 290.702 279.997 290.576 280.361 290.324C280.734 290.063 280.995 289.717 281.145 289.288H282.517C282.311 290.025 281.901 290.627 281.285 291.094C280.669 291.551 279.903 291.78 278.989 291.78C278.261 291.78 277.607 291.617 277.029 291.29C276.459 290.963 276.011 290.501 275.685 289.904C275.358 289.297 275.195 288.597 275.195 287.804C275.195 287.011 275.353 286.315 275.671 285.718C275.988 285.121 276.431 284.663 277.001 284.346C277.579 284.019 278.242 283.856 278.989 283.856C279.717 283.856 280.361 284.015 280.921 284.332C281.481 284.649 281.91 285.088 282.209 285.648C282.517 286.199 282.671 286.824 282.671 287.524ZM281.355 287.258C281.355 286.773 281.247 286.357 281.033 286.012C280.818 285.657 280.524 285.391 280.151 285.214C279.787 285.027 279.381 284.934 278.933 284.934C278.289 284.934 277.738 285.139 277.281 285.55C276.833 285.961 276.576 286.53 276.511 287.258H281.355Z" fill="white"/>
<path d="M208.438 311.78C207.719 311.78 207.066 311.617 206.478 311.29C205.899 310.963 205.442 310.501 205.106 309.904C204.779 309.297 204.616 308.597 204.616 307.804C204.616 307.02 204.784 306.329 205.12 305.732C205.465 305.125 205.932 304.663 206.52 304.346C207.108 304.019 207.766 303.856 208.494 303.856C209.222 303.856 209.88 304.019 210.468 304.346C211.056 304.663 211.518 305.121 211.854 305.718C212.199 306.315 212.372 307.011 212.372 307.804C212.372 308.597 212.194 309.297 211.84 309.904C211.494 310.501 211.023 310.963 210.426 311.29C209.828 311.617 209.166 311.78 208.438 311.78ZM208.438 310.66C208.895 310.66 209.324 310.553 209.726 310.338C210.127 310.123 210.449 309.801 210.692 309.372C210.944 308.943 211.07 308.42 211.07 307.804C211.07 307.188 210.948 306.665 210.706 306.236C210.463 305.807 210.146 305.489 209.754 305.284C209.362 305.069 208.937 304.962 208.48 304.962C208.013 304.962 207.584 305.069 207.192 305.284C206.809 305.489 206.501 305.807 206.268 306.236C206.034 306.665 205.918 307.188 205.918 307.804C205.918 308.429 206.03 308.957 206.254 309.386C206.487 309.815 206.795 310.137 207.178 310.352C207.56 310.557 207.98 310.66 208.438 310.66Z" fill="white"/>
<path d="M215.491 305.396C215.743 304.957 216.116 304.593 216.611 304.304C217.115 304.005 217.698 303.856 218.361 303.856C219.042 303.856 219.658 304.019 220.209 304.346C220.769 304.673 221.207 305.135 221.525 305.732C221.842 306.32 222.001 307.006 222.001 307.79C222.001 308.565 221.842 309.255 221.525 309.862C221.207 310.469 220.769 310.94 220.209 311.276C219.658 311.612 219.042 311.78 218.361 311.78C217.707 311.78 217.129 311.635 216.625 311.346C216.13 311.047 215.752 310.679 215.491 310.24V315.294H214.217V303.982H215.491V305.396ZM220.699 307.79C220.699 307.211 220.582 306.707 220.349 306.278C220.115 305.849 219.798 305.522 219.397 305.298C219.005 305.074 218.571 304.962 218.095 304.962C217.628 304.962 217.194 305.079 216.793 305.312C216.401 305.536 216.083 305.867 215.841 306.306C215.607 306.735 215.491 307.235 215.491 307.804C215.491 308.383 215.607 308.891 215.841 309.33C216.083 309.759 216.401 310.091 216.793 310.324C217.194 310.548 217.628 310.66 218.095 310.66C218.571 310.66 219.005 310.548 219.397 310.324C219.798 310.091 220.115 309.759 220.349 309.33C220.582 308.891 220.699 308.378 220.699 307.79Z" fill="white"/>
<path d="M225.122 305.396C225.374 304.957 225.747 304.593 226.242 304.304C226.746 304.005 227.329 303.856 227.992 303.856C228.673 303.856 229.289 304.019 229.84 304.346C230.4 304.673 230.838 305.135 231.156 305.732C231.473 306.32 231.632 307.006 231.632 307.79C231.632 308.565 231.473 309.255 231.156 309.862C230.838 310.469 230.4 310.94 229.84 311.276C229.289 311.612 228.673 311.78 227.992 311.78C227.338 311.78 226.76 311.635 226.256 311.346C225.761 311.047 225.383 310.679 225.122 310.24V315.294H223.848V303.982H225.122V305.396ZM230.33 307.79C230.33 307.211 230.213 306.707 229.98 306.278C229.746 305.849 229.429 305.522 229.028 305.298C228.636 305.074 228.202 304.962 227.726 304.962C227.259 304.962 226.825 305.079 226.424 305.312C226.032 305.536 225.714 305.867 225.472 306.306C225.238 306.735 225.122 307.235 225.122 307.804C225.122 308.383 225.238 308.891 225.472 309.33C225.714 309.759 226.032 310.091 226.424 310.324C226.825 310.548 227.259 310.66 227.726 310.66C228.202 310.66 228.636 310.548 229.028 310.324C229.429 310.091 229.746 309.759 229.98 309.33C230.213 308.891 230.33 308.378 230.33 307.79Z" fill="white"/>
<path d="M236.825 311.78C236.106 311.78 235.453 311.617 234.865 311.29C234.286 310.963 233.829 310.501 233.493 309.904C233.166 309.297 233.003 308.597 233.003 307.804C233.003 307.02 233.171 306.329 233.507 305.732C233.852 305.125 234.319 304.663 234.907 304.346C235.495 304.019 236.153 303.856 236.881 303.856C237.609 303.856 238.267 304.019 238.855 304.346C239.443 304.663 239.905 305.121 240.241 305.718C240.586 306.315 240.759 307.011 240.759 307.804C240.759 308.597 240.581 309.297 240.227 309.904C239.881 310.501 239.41 310.963 238.813 311.29C238.215 311.617 237.553 311.78 236.825 311.78ZM236.825 310.66C237.282 310.66 237.711 310.553 238.113 310.338C238.514 310.123 238.836 309.801 239.079 309.372C239.331 308.943 239.457 308.42 239.457 307.804C239.457 307.188 239.335 306.665 239.093 306.236C238.85 305.807 238.533 305.489 238.141 305.284C237.749 305.069 237.324 304.962 236.867 304.962C236.4 304.962 235.971 305.069 235.579 305.284C235.196 305.489 234.888 305.807 234.655 306.236C234.421 306.665 234.305 307.188 234.305 307.804C234.305 308.429 234.417 308.957 234.641 309.386C234.874 309.815 235.182 310.137 235.565 310.352C235.947 310.557 236.367 310.66 236.825 310.66Z" fill="white"/>
<path d="M243.878 305.228C244.102 304.789 244.419 304.449 244.83 304.206C245.25 303.963 245.758 303.842 246.356 303.842V305.158H246.02C244.592 305.158 243.878 305.933 243.878 307.482V311.654H242.604V303.982H243.878V305.228Z" fill="white"/>
<path d="M249.55 305.032V309.554C249.55 309.927 249.63 310.193 249.788 310.352C249.947 310.501 250.222 310.576 250.614 310.576H251.552V311.654H250.404C249.695 311.654 249.163 311.491 248.808 311.164C248.454 310.837 248.276 310.301 248.276 309.554V305.032H247.282V303.982H248.276V302.05H249.55V303.982H251.552V305.032H249.55Z" fill="white"/>
<path d="M260.07 303.982V311.654H258.796V310.52C258.553 310.912 258.213 311.22 257.774 311.444C257.345 311.659 256.869 311.766 256.346 311.766C255.749 311.766 255.212 311.645 254.736 311.402C254.26 311.15 253.882 310.777 253.602 310.282C253.331 309.787 253.196 309.185 253.196 308.476V303.982H254.456V308.308C254.456 309.064 254.647 309.647 255.03 310.058C255.413 310.459 255.935 310.66 256.598 310.66C257.279 310.66 257.816 310.45 258.208 310.03C258.6 309.61 258.796 308.999 258.796 308.196V303.982H260.07Z" fill="white"/>
<path d="M266.129 303.842C267.062 303.842 267.818 304.127 268.397 304.696C268.976 305.256 269.265 306.068 269.265 307.132V311.654H268.005V307.314C268.005 306.549 267.814 305.965 267.431 305.564C267.048 305.153 266.526 304.948 265.863 304.948C265.191 304.948 264.654 305.158 264.253 305.578C263.861 305.998 263.665 306.609 263.665 307.412V311.654H262.391V303.982H263.665V305.074C263.917 304.682 264.258 304.379 264.687 304.164C265.126 303.949 265.606 303.842 266.129 303.842Z" fill="white"/>
<path d="M272.174 302.736C271.932 302.736 271.726 302.652 271.558 302.484C271.39 302.316 271.306 302.111 271.306 301.868C271.306 301.625 271.39 301.42 271.558 301.252C271.726 301.084 271.932 301 272.174 301C272.408 301 272.604 301.084 272.762 301.252C272.93 301.42 273.014 301.625 273.014 301.868C273.014 302.111 272.93 302.316 272.762 302.484C272.604 302.652 272.408 302.736 272.174 302.736ZM272.79 303.982V311.654H271.516V303.982H272.79Z" fill="white"/>
<path d="M276.685 305.032V309.554C276.685 309.927 276.765 310.193 276.923 310.352C277.082 310.501 277.357 310.576 277.749 310.576H278.687V311.654H277.539C276.83 311.654 276.298 311.491 275.943 311.164C275.589 310.837 275.411 310.301 275.411 309.554V305.032H274.417V303.982H275.411V302.05H276.685V303.982H278.687V305.032H276.685Z" fill="white"/>
<path d="M281.059 302.736C280.816 302.736 280.611 302.652 280.443 302.484C280.275 302.316 280.191 302.111 280.191 301.868C280.191 301.625 280.275 301.42 280.443 301.252C280.611 301.084 280.816 301 281.059 301C281.292 301 281.488 301.084 281.647 301.252C281.815 301.42 281.899 301.625 281.899 301.868C281.899 302.111 281.815 302.316 281.647 302.484C281.488 302.652 281.292 302.736 281.059 302.736ZM281.675 303.982V311.654H280.401V303.982H281.675Z" fill="white"/>
<path d="M291.016 307.524C291.016 307.767 291.002 308.023 290.974 308.294H284.842C284.889 309.05 285.146 309.643 285.612 310.072C286.088 310.492 286.662 310.702 287.334 310.702C287.885 310.702 288.342 310.576 288.706 310.324C289.08 310.063 289.341 309.717 289.49 309.288H290.862C290.657 310.025 290.246 310.627 289.63 311.094C289.014 311.551 288.249 311.78 287.334 311.78C286.606 311.78 285.953 311.617 285.374 311.29C284.805 310.963 284.357 310.501 284.03 309.904C283.704 309.297 283.54 308.597 283.54 307.804C283.54 307.011 283.699 306.315 284.016 305.718C284.334 305.121 284.777 304.663 285.346 304.346C285.925 304.019 286.588 303.856 287.334 303.856C288.062 303.856 288.706 304.015 289.266 304.332C289.826 304.649 290.256 305.088 290.554 305.648C290.862 306.199 291.016 306.824 291.016 307.524ZM289.7 307.258C289.7 306.773 289.593 306.357 289.378 306.012C289.164 305.657 288.87 305.391 288.496 305.214C288.132 305.027 287.726 304.934 287.278 304.934C286.634 304.934 286.084 305.139 285.626 305.55C285.178 305.961 284.922 306.53 284.856 307.258H289.7Z" fill="white"/>
<path d="M295.584 311.78C294.996 311.78 294.469 311.682 294.002 311.486C293.535 311.281 293.167 311.001 292.896 310.646C292.625 310.282 292.476 309.867 292.448 309.4H293.764C293.801 309.783 293.979 310.095 294.296 310.338C294.623 310.581 295.047 310.702 295.57 310.702C296.055 310.702 296.438 310.595 296.718 310.38C296.998 310.165 297.138 309.895 297.138 309.568C297.138 309.232 296.989 308.985 296.69 308.826C296.391 308.658 295.929 308.495 295.304 308.336C294.735 308.187 294.268 308.037 293.904 307.888C293.549 307.729 293.241 307.501 292.98 307.202C292.728 306.894 292.602 306.493 292.602 305.998C292.602 305.606 292.719 305.247 292.952 304.92C293.185 304.593 293.517 304.337 293.946 304.15C294.375 303.954 294.865 303.856 295.416 303.856C296.265 303.856 296.951 304.071 297.474 304.5C297.997 304.929 298.277 305.517 298.314 306.264H297.04C297.012 305.863 296.849 305.541 296.55 305.298C296.261 305.055 295.869 304.934 295.374 304.934C294.917 304.934 294.553 305.032 294.282 305.228C294.011 305.424 293.876 305.681 293.876 305.998C293.876 306.25 293.955 306.46 294.114 306.628C294.282 306.787 294.487 306.917 294.73 307.02C294.982 307.113 295.327 307.221 295.766 307.342C296.317 307.491 296.765 307.641 297.11 307.79C297.455 307.93 297.749 308.145 297.992 308.434C298.244 308.723 298.375 309.101 298.384 309.568C298.384 309.988 298.267 310.366 298.034 310.702C297.801 311.038 297.469 311.304 297.04 311.5C296.62 311.687 296.135 311.78 295.584 311.78Z" fill="white"/>
<path d="M246.9 105.54C246.623 108.501 246.123 111.111 245.4 113.371C244.676 115.631 243.906 117.504 243.089 118.991C242.494 120.058 241.891 121.066 241.281 122.015C240.701 122.96 240.054 123.853 239.341 124.693C238.657 125.53 237.888 126.287 237.034 126.963C236.213 127.666 235.263 128.293 234.183 128.846C233.669 129.089 233.151 129.302 232.63 129.486C232.139 129.666 231.626 129.788 231.09 129.852C230.228 129.956 229.373 129.878 228.527 129.618C227.903 129.452 227.398 129.136 227.009 128.669C226.621 128.203 226.315 127.667 226.091 127.06C225.867 126.453 225.731 125.821 225.681 125.163C225.606 124.538 225.598 123.966 225.656 123.446C225.69 122.476 226.097 121.974 226.877 121.941C227.721 121.929 228.157 122.42 228.186 123.412C228.189 123.684 228.195 123.985 228.205 124.315C228.218 124.676 228.259 125.018 228.328 125.342C228.427 125.662 228.58 125.93 228.788 126.146C228.998 126.393 229.315 126.52 229.739 126.53C229.862 126.545 229.982 126.546 230.101 126.531C230.22 126.517 230.339 126.503 230.458 126.488C231.083 126.413 231.695 126.234 232.295 125.95C232.894 125.667 233.474 125.34 234.033 124.971C235.736 123.83 237.22 122.369 238.484 120.587C239.747 118.805 240.819 116.926 241.697 114.949C242.575 112.972 243.257 110.989 243.741 108.999C244.225 107.009 244.555 105.234 244.729 103.674C244.899 102.084 244.911 100.8 244.762 99.8224C244.644 98.8408 244.377 98.3751 243.96 98.4253C243.514 98.4791 242.989 99.1309 242.385 100.381C241.08 103.073 239.905 105.463 238.859 107.55C237.842 109.634 236.881 111.425 235.975 112.922C235.066 114.39 234.184 115.583 233.329 116.501C232.5 117.385 231.637 117.987 230.74 118.306C230.595 118.354 230.464 118.4 230.349 118.444C230.26 118.455 230.141 118.469 229.992 118.487C229.308 118.57 228.688 118.433 228.132 118.077C227.576 117.722 227.138 117.217 226.817 116.561C226.423 115.794 226.195 114.78 226.134 113.52C226.099 112.227 226.2 110.811 226.437 109.274C226.674 107.736 227.025 106.14 227.489 104.485C227.95 102.799 228.481 101.196 229.083 99.6753C229.714 98.1507 230.392 96.7713 231.119 95.537C231.842 94.273 232.567 93.2802 233.295 92.5588C233.862 92.0075 234.488 91.6907 235.172 91.6083C235.886 91.5222 236.429 91.7736 236.802 92.3624C237.067 92.8132 237.149 93.2409 237.047 93.6456C236.971 94.0168 236.748 94.5417 236.377 95.2201C236.006 95.8986 235.498 96.8198 234.854 97.9839C234.239 99.1443 233.511 100.741 232.67 102.774C232.46 103.282 232.206 103.931 231.909 104.721C231.612 105.512 231.335 106.345 231.078 107.221C230.822 108.096 230.595 108.969 230.398 109.838C230.197 110.676 230.077 111.43 230.037 112.099C229.997 112.768 230.061 113.303 230.23 113.705C230.429 114.104 230.767 114.274 231.243 114.217C231.719 114.16 232.257 113.748 232.859 112.981C233.491 112.211 234.143 111.242 234.817 110.074C235.521 108.903 236.229 107.641 236.941 106.288C237.679 104.901 238.38 103.579 239.043 102.322C239.703 101.036 240.321 99.9051 240.898 98.9303C241.501 97.9221 242.02 97.2257 242.457 96.8412C242.863 96.4602 243.32 96.2392 243.825 96.1783C244.39 96.1102 244.89 96.2462 245.323 96.5862C245.786 96.9227 246.122 97.3349 246.332 97.8226C246.582 98.396 246.762 99.0081 246.87 99.6589C247.009 100.306 247.074 100.977 247.068 101.672C247.087 102.334 247.077 102.999 247.037 103.668C246.996 104.336 246.951 104.96 246.9 105.54Z" fill="#F2FF88"/>
<path d="M258.362 110.179C258.5 110.072 258.643 110.009 258.792 109.991C259.03 109.963 259.221 110.045 259.365 110.239C259.535 110.4 259.59 110.604 259.529 110.853C259.484 110.979 259.32 111.24 259.035 111.637C258.748 112.003 258.357 112.398 257.865 112.819C257.399 113.207 256.855 113.574 256.233 113.921C255.61 114.268 254.959 114.497 254.278 114.609C253.985 114.675 253.78 114.73 253.665 114.774C253.579 114.814 253.471 114.918 253.34 115.085C252.812 115.963 252.138 116.753 251.317 117.456C250.496 118.158 249.699 118.556 248.926 118.649C248.034 118.757 247.285 118.425 246.678 117.653C246.132 116.874 245.904 115.981 245.993 114.974C246.117 112.998 246.749 111.352 247.888 110.038C247.941 109.971 247.982 109.815 248.013 109.57C248.073 109.322 248.158 109.025 248.268 108.68C248.373 108.305 248.524 107.924 248.719 107.539C248.94 107.12 249.239 106.722 249.616 106.344C250.31 105.597 251.089 105.171 251.951 105.067C252.517 104.999 253.044 105.116 253.533 105.42C254.019 105.693 254.392 106.161 254.653 106.824C254.94 107.453 255.068 108.267 255.038 109.267C255.037 110.263 254.818 111.451 254.381 112.832C255.226 112.579 255.952 112.22 256.56 111.754C257.197 111.285 257.798 110.76 258.362 110.179ZM252.068 112.793C252.203 112.415 252.32 112.009 252.419 111.574C252.547 111.136 252.633 110.719 252.675 110.321C252.744 109.89 252.775 109.524 252.769 109.223C252.789 108.889 252.792 108.662 252.778 108.543C252.771 108.484 252.76 108.395 252.746 108.276C252.728 108.127 252.662 107.954 252.547 107.756C252.463 107.555 252.346 107.464 252.197 107.482C252.049 107.5 251.866 107.612 251.649 107.819C251.433 108.026 251.263 108.243 251.139 108.469C250.54 109.507 250.352 110.45 250.575 111.299C250.798 112.147 251.225 112.684 251.856 112.91C251.889 112.936 251.935 112.945 251.995 112.938C252.025 112.934 252.049 112.886 252.068 112.793ZM248.677 113.202C248.609 113.391 248.564 113.638 248.54 113.943C248.516 114.248 248.493 114.552 248.469 114.857C248.445 115.161 248.433 115.435 248.432 115.676C248.457 115.884 248.473 116.018 248.48 116.078C248.542 116.342 248.663 116.463 248.841 116.442C248.99 116.424 249.107 116.394 249.193 116.354C249.561 116.159 249.921 115.889 250.272 115.545C250.623 115.201 250.823 114.981 250.871 114.884C249.992 114.598 249.26 114.037 248.677 113.202Z" fill="#F2FF88"/>
<path d="M266.065 115.769C266.5 115.626 267.071 115.225 267.776 114.567C268.477 113.879 269.187 113.129 269.904 112.319C270.651 111.504 271.342 110.727 271.977 109.986C272.612 109.246 273.079 108.737 273.377 108.46C273.571 108.316 273.757 108.233 273.936 108.211C274.233 108.175 274.442 108.286 274.564 108.543C274.715 108.796 274.677 109.103 274.448 109.462C274.22 109.822 273.884 110.285 273.439 110.851C273.024 111.414 272.54 112.031 271.987 112.701C271.464 113.368 270.896 114.04 270.284 114.717C269.701 115.391 269.113 116.02 268.519 116.605C267.922 117.159 267.359 117.62 266.83 117.985C266.301 118.351 265.828 118.559 265.411 118.609C264.578 118.709 263.899 118.459 263.374 117.859C262.846 117.228 262.615 116.441 262.682 115.498C262.74 114.978 262.813 114.456 262.901 113.932C263.019 113.405 263.127 112.924 263.225 112.49C263.376 111.989 263.53 111.518 263.689 111.076C263.385 111.565 263.052 112.058 262.69 112.554C262.379 112.984 262.026 113.434 261.63 113.904C261.264 114.371 260.864 114.811 260.432 115.226C259.868 115.807 259.259 116.137 258.604 116.215C257.593 116.337 256.937 115.903 256.637 114.913C256.372 114.221 256.339 113.441 256.536 112.572C256.733 111.703 256.957 110.937 257.209 110.273C257.326 109.987 257.485 109.56 257.689 108.993C257.918 108.392 258.175 107.772 258.46 107.134C258.746 106.496 259.021 105.905 259.288 105.36C259.58 104.781 259.818 104.375 260.001 104.142C260.296 103.835 260.607 103.662 260.934 103.622C261.321 103.576 261.653 103.701 261.93 104C262.237 104.295 262.317 104.708 262.17 105.239C262.148 105.302 262.069 105.522 261.933 105.901C261.794 106.25 261.619 106.678 261.409 107.186C261.228 107.691 261.023 108.244 260.794 108.845C260.565 109.446 260.349 110.03 260.145 110.598C259.942 111.165 259.765 111.7 259.614 112.201C259.49 112.668 259.399 113.042 259.342 113.32C259.461 113.306 259.694 113.112 260.041 112.738C260.415 112.331 260.837 111.827 261.308 111.227C261.808 110.624 262.331 109.957 262.877 109.227C263.423 108.498 263.93 107.818 264.397 107.188C264.864 106.559 265.266 106.012 265.603 105.549C265.935 105.056 266.139 104.745 266.214 104.615C266.481 104.07 266.866 103.767 267.372 103.706C267.729 103.663 268.058 103.759 268.358 103.995C268.658 104.23 268.808 104.604 268.81 105.117C268.822 105.719 268.578 106.699 268.078 108.057C267.607 109.412 267.124 111.16 266.628 113.302C266.548 113.643 266.459 114.031 266.36 114.466C266.262 114.9 266.163 115.335 266.065 115.769Z" fill="#F2FF88"/>
<path fill-rule="evenodd" clip-rule="evenodd" d="M247.393 144.093C266.992 144.093 282.832 128.365 282.832 109.023C282.832 89.6815 266.992 73.9533 247.393 73.9533C227.793 73.9533 211.953 89.6815 211.953 109.023C211.953 128.365 227.793 144.093 247.393 144.093ZM247.393 147.047C268.596 147.047 285.785 130.023 285.785 109.023C285.785 88.0236 268.596 71 247.393 71C226.189 71 209 88.0236 209 109.023C209 130.023 226.189 147.047 247.393 147.047Z" fill="#F2FF88"/>
<defs>
<clipPath id="clip0_3149_27438">
<rect width="40" height="39" fill="white" transform="translate(346.729 18.7207)"/>
</clipPath>
</defs>
</svg>

