<svg width="56" height="57" viewBox="0 0 56 57" fill="none" xmlns="http://www.w3.org/2000/svg">
<path d="M25 28.8833L28 31.8833L33.5 26.3833" stroke="currentColor" stroke-width="1.5"/>
<path d="M2 30.9783C2 22.9786 11.8885 19.195 15.4354 21.5192C17.2089 14.5465 24.3028 14.2222 27.5273 15.8437C29 11.5196 34.9436 7.95213 41.8763 11.5196C47.4224 14.3735 47.0176 20.7985 46.6593 23.8434C49.2031 24.7263 55.4148 25.8833 54.9892 34.3836C54.6883 40.3942 49.3105 42.2212 46.6593 42.3833H11.8885C8.59231 42.3293 2 39.9726 2 30.9783Z" stroke="currentColor" stroke-width="1.5"/>
</svg>
