<svg width="56" height="57" viewBox="0 0 56 57" fill="none" xmlns="http://www.w3.org/2000/svg">
  <rect x="2.75" y="6.75195" width="50.5" height="42.5" rx="3.25" stroke="currentColor" stroke-width="1.5" />
  <rect x="5.75" y="31.752" width="4.5" height="13.5" rx="1.25" stroke="currentColor" stroke-width="1.5" />
  <rect x="12.75" y="28.752" width="4.5" height="16.5" rx="1.25" stroke="currentColor" stroke-width="1.5" />
  <rect x="19.75" y="21.752" width="4.5" height="23.5" rx="1.25" stroke="currentColor" stroke-width="1.5" />
  <path d="M3 13.002H53" stroke="currentColor" stroke-width="1.5" stroke-linecap="round" stroke-linejoin="round" />
  <circle cx="6" cy="10.002" r="1" fill="currentColor" />
  <circle cx="9" cy="10.002" r="1" fill="currentColor" />
  <circle cx="12" cy="10.002" r="1" fill="currentColor" />
  <mask id="path-10-inside-1_632_79309" fill="white">
    <path d="M50 34.502C50 36.8554 49.2779 39.1522 47.9312 41.0823C46.5846 43.0124 44.6781 44.4829 42.4693 45.2952C40.2605 46.1075 37.8556 46.2226 35.5793 45.6249C33.303 45.0271 31.2649 43.7454 29.7401 41.9527C28.2153 40.16 27.2772 37.9426 27.0525 35.5999C26.8278 33.2571 27.3273 30.9019 28.4836 28.852C29.6399 26.8022 31.3972 25.1564 33.5184 24.1369C35.6396 23.1175 38.0225 22.7733 40.3455 23.151L38.5 34.502H50Z" />
  </mask>
  <path d="M50 34.502C50 36.8554 49.2779 39.1522 47.9312 41.0823C46.5846 43.0124 44.6781 44.4829 42.4693 45.2952C40.2605 46.1075 37.8556 46.2226 35.5793 45.6249C33.303 45.0271 31.2649 43.7454 29.7401 41.9527C28.2153 40.16 27.2772 37.9426 27.0525 35.5999C26.8278 33.2571 27.3273 30.9019 28.4836 28.852C29.6399 26.8022 31.3972 25.1564 33.5184 24.1369C35.6396 23.1175 38.0225 22.7733 40.3455 23.151L38.5 34.502H50Z" stroke="currentColor" stroke-width="3" mask="url(#path-10-inside-1_632_79309)" />
  <mask id="path-11-inside-2_632_79309" fill="white">
    <path d="M51 33.502C51 30.7979 50.0471 28.1803 48.3088 26.109C46.5704 24.0378 44.1578 22.6453 41.4947 22.1763L39.5 33.502H51Z" />
  </mask>
  <path d="M51 33.502C51 30.7979 50.0471 28.1803 48.3088 26.109C46.5704 24.0378 44.1578 22.6453 41.4947 22.1763L39.5 33.502H51Z" stroke="currentColor" stroke-width="3" mask="url(#path-11-inside-2_632_79309)" />
  <rect x="0.5" y="0.501953" width="55" height="55" stroke="black" />
</svg>
