<svg width="56" height="57" viewBox="0 0 56 57" fill="none" xmlns="http://www.w3.org/2000/svg">
  <rect x="23.8574" y="3.62605" width="30.5" height="44.5" rx="1.25" transform="rotate(13.1333 23.8574 3.62605)" stroke="currentColor" stroke-width="1.5" />
  <path d="M32.622 5.671L44.795 8.51122L44.2838 10.7024C44.1269 11.3747 43.4547 11.7925 42.7824 11.6357L33.044 9.36348C32.3717 9.20661 31.9539 8.53445 32.1107 7.86215L32.622 5.671Z" stroke="currentColor" stroke-width="1.5" />
  <rect x="30.6176" y="13.1615" width="13" height="1" rx="0.5" transform="rotate(13.1333 30.6176 13.1615)" stroke="currentColor" />
  <line x1="31.275" y1="20.2462" x2="45.3957" y2="23.5408" stroke="currentColor" stroke-width="1.5" stroke-linecap="round" />
  <line x1="29.9117" y1="26.0892" x2="44.0324" y2="29.3839" stroke="currentColor" stroke-width="1.5" stroke-linecap="round" />
  <line x1="28.5484" y1="31.9323" x2="42.6691" y2="35.227" stroke="currentColor" stroke-width="1.5" stroke-linecap="round" />
  <line x1="27.1851" y1="37.7754" x2="41.3058" y2="41.07" stroke="currentColor" stroke-width="1.5" stroke-linecap="round" />
  <line x1="25.8218" y1="43.6184" x2="39.9425" y2="46.9131" stroke="currentColor" stroke-width="1.5" stroke-linecap="round" />
  <path d="M23.7845 18.2418L24.9045 20.0434L27.9071 18.1768" stroke="currentColor" stroke-width="1.5" stroke-linecap="round" stroke-linejoin="round" />
  <path d="M22.4212 24.0848L23.5411 25.8864L26.5438 24.0199" stroke="currentColor" stroke-width="1.5" stroke-linecap="round" stroke-linejoin="round" />
  <path d="M21.0579 29.9279L22.1778 31.7295L25.1805 29.8629" stroke="currentColor" stroke-width="1.5" stroke-linecap="round" stroke-linejoin="round" />
  <path d="M19.6946 35.771L20.8145 37.5726L23.8172 35.706" stroke="currentColor" stroke-width="1.5" stroke-linecap="round" stroke-linejoin="round" />
  <path d="M18.3313 41.614L19.4512 43.4156L22.4539 41.5491" stroke="currentColor" stroke-width="1.5" stroke-linecap="round" stroke-linejoin="round" />
  <circle cx="10" cy="12" r="7.25" stroke="currentColor" stroke-width="1.5" />
  <path d="M10 12L13.5 8.5" stroke="currentColor" stroke-width="1.5" stroke-linecap="round" stroke-linejoin="round" />
  <path d="M10 4.5V2M10 2H11M10 2H9" stroke="currentColor" stroke-width="1.5" stroke-linecap="round" stroke-linejoin="round" />
</svg>
