<svg width="56" height="57" viewBox="0 0 56 57" fill="none" xmlns="http://www.w3.org/2000/svg">
  <path d="M51.2774 52.002H30.7373C30.5418 52.002 30.3542 51.9217 30.216 51.7787C30.0777 51.6358 30 51.4419 30 51.2398V43.0095C30 42.3506 30.1258 41.6982 30.3702 41.0897C30.6145 40.4811 30.9727 39.9284 31.4241 39.4632C31.8755 38.9981 32.4113 38.6295 33.0007 38.3788C33.5902 38.128 34.2217 38 34.8591 38.002H47.1556C48.4404 38.002 49.6726 38.5296 50.5811 39.4686C51.4896 40.4077 52 41.6814 52 43.0095V51.2398C52 51.4393 51.9244 51.6309 51.7893 51.7734C51.6542 51.9159 51.4704 51.998 51.2774 52.002ZM31.4747 50.4776H50.5401V43.0095C50.5391 42.5511 50.4508 42.0973 50.2802 41.6742C50.1096 41.2511 49.86 40.8668 49.5457 40.5434C49.2315 40.2199 48.8586 39.9636 48.4485 39.7891C48.0384 39.6146 47.5991 39.5253 47.1556 39.5263H34.8591C33.966 39.5284 33.1101 39.896 32.4785 40.5488C31.847 41.2015 31.4914 42.0863 31.4894 43.0095L31.4747 50.4776Z" fill="currentColor" />
  <path d="M22.2774 28.002H3.73735C3.54179 28.002 3.35424 27.9217 3.21596 27.7787C3.07768 27.6358 3 27.4419 3 27.2398V21.0095C3 20.3506 3.12579 19.6982 3.37016 19.0897C3.61453 18.4811 3.97269 17.9284 4.42409 17.4632C4.8755 16.9981 5.41128 16.6295 6.00073 16.3788C6.59017 16.128 7.2217 16 7.85911 16.002H18.1556C19.4404 16.002 20.6726 16.5296 21.5811 17.4686C22.4896 18.4077 23 19.6814 23 21.0095V27.2398C23 27.4393 22.9244 27.6309 22.7893 27.7734C22.6542 27.9159 22.4704 27.998 22.2774 28.002ZM4.47469 26.4776H21.5401V21.0095C21.5391 20.5511 21.4508 20.0974 21.2802 19.6742C21.1096 19.2511 20.86 18.8668 20.5457 18.5434C20.2315 18.2199 19.8586 17.9636 19.4485 17.7891C19.0384 17.6146 18.5991 17.5253 18.1556 17.5263H7.85911C6.96602 17.5283 6.11006 17.896 5.47855 18.5488C4.84703 19.2015 4.49139 20.0863 4.48944 21.0095L4.47469 26.4776Z" fill="currentColor" />
  <path fill-rule="evenodd" clip-rule="evenodd" d="M41 34.502C44.0376 34.502 46.5 32.0395 46.5 29.002C46.5 25.9644 44.0376 23.502 41 23.502C37.9624 23.502 35.5 25.9644 35.5 29.002C35.5 32.0395 37.9624 34.502 41 34.502ZM41 36.002C44.866 36.002 48 32.8679 48 29.002C48 25.136 44.866 22.002 41 22.002C37.134 22.002 34 25.136 34 29.002C34 32.8679 37.134 36.002 41 36.002Z" fill="currentColor" />
  <path fill-rule="evenodd" clip-rule="evenodd" d="M13 12.502C15.4853 12.502 17.5 10.4872 17.5 8.00195C17.5 5.51667 15.4853 3.50195 13 3.50195C10.5147 3.50195 8.5 5.51667 8.5 8.00195C8.5 10.4872 10.5147 12.502 13 12.502ZM13 14.002C16.3137 14.002 19 11.3157 19 8.00195C19 4.68824 16.3137 2.00195 13 2.00195C9.68629 2.00195 7 4.68824 7 8.00195C7 11.3157 9.68629 14.002 13 14.002Z" fill="currentColor" />
  <path fill-rule="evenodd" clip-rule="evenodd" d="M10 33.252C10.4142 33.252 10.75 33.5877 10.75 34.002V45.002C10.75 45.6923 11.3096 46.252 12 46.252H22.1893L18.6967 42.7593C18.4038 42.4664 18.4038 41.9915 18.6967 41.6987C18.9896 41.4058 19.4645 41.4058 19.7574 41.6987L24.5303 46.4716C24.8232 46.7645 24.8232 47.2394 24.5303 47.5323L19.7574 52.3053C19.4645 52.5981 18.9896 52.5981 18.6967 52.3053C18.4038 52.0124 18.4038 51.5375 18.6967 51.2446L22.1893 47.752H12C10.4812 47.752 9.25 46.5207 9.25 45.002V34.002C9.25 33.5877 9.58579 33.252 10 33.252Z" fill="currentColor" />
</svg>
