<svg width="56" height="57" viewBox="0 0 56 57" fill="none" xmlns="http://www.w3.org/2000/svg">
  <path d="M21.9459 42.3803C17.9048 42.3803 13.9544 41.1819 10.5943 38.9368C7.23418 36.6916 4.61531 33.5005 3.06882 29.767C1.52234 26.0334 1.11771 21.9252 1.9061 17.9617C2.69449 13.9981 4.64049 10.3574 7.49802 7.49991C10.3555 4.64238 13.9963 2.69638 17.9598 1.90799C21.9233 1.1196 26.0315 1.52423 29.7651 3.07072C33.4986 4.6172 36.6897 7.23607 38.9349 10.5962C41.18 13.9563 42.3784 17.9067 42.3784 21.9478C42.3784 27.3668 40.2257 32.5639 36.3938 36.3957C32.562 40.2276 27.3649 42.3803 21.9459 42.3803ZM21.9459 3.0289C18.2041 3.0289 14.5463 4.13848 11.4351 6.21732C8.32394 8.29615 5.89906 11.2509 4.46713 14.7079C3.0352 18.1648 2.66054 21.9688 3.39053 25.6387C4.12052 29.3086 5.92238 32.6797 8.56823 35.3255C11.2141 37.9714 14.5851 39.7732 18.255 40.5032C21.9249 41.2332 25.7289 40.8586 29.1859 39.4266C32.6429 37.9947 35.5976 35.5698 37.6764 32.4586C39.7553 29.3474 40.8648 25.6896 40.8648 21.9478C40.8648 19.4634 40.3755 17.0032 39.4247 14.7079C38.474 12.4125 37.0804 10.3269 35.3236 8.57013C33.5668 6.81334 31.4812 5.41979 29.1859 4.46902C26.8905 3.51826 24.4304 3.0289 21.9459 3.0289Z" fill="currentColor" />
  <path d="M49.946 54.4883C49.3495 54.4907 48.7585 54.3741 48.2075 54.1454C47.6566 53.9168 47.1568 53.5805 46.7373 53.1564L39.2454 45.6645C38.7993 45.2488 38.4415 44.7476 38.1934 44.1906C37.9452 43.6336 37.8117 43.0324 37.801 42.4227C37.7902 41.813 37.9024 41.2075 38.1308 40.6421C38.3591 40.0767 38.699 39.5631 39.1302 39.132C39.5613 38.7008 40.0749 38.3609 40.6403 38.1325C41.2057 37.9042 41.8113 37.792 42.4209 37.8028C43.0306 37.8135 43.6318 37.947 44.1888 38.1951C44.7458 38.4433 45.2471 38.8011 45.6627 39.2472L53.1546 46.7391C53.7888 47.3741 54.2206 48.1828 54.3955 49.063C54.5704 49.9433 54.4805 50.8556 54.1371 51.6848C53.7938 52.514 53.2124 53.2228 52.4665 53.7218C51.7205 54.2208 50.8434 54.4875 49.946 54.4883ZM42.4541 39.4288C41.8551 39.4284 41.2693 39.6056 40.7711 39.9382C40.2729 40.2708 39.8845 40.7437 39.6552 41.2971C39.4259 41.8506 39.366 42.4596 39.483 43.0471C39.6 43.6346 39.8886 44.1741 40.3125 44.5975L47.8044 52.0894C48.3815 52.6399 49.1484 52.947 49.946 52.947C50.7436 52.947 51.5105 52.6399 52.0876 52.0894C52.369 51.8083 52.5923 51.4744 52.7446 51.1069C52.897 50.7395 52.9754 50.3456 52.9754 49.9478C52.9754 49.55 52.897 49.1561 52.7446 48.7886C52.5923 48.4211 52.369 48.0873 52.0876 47.8061L44.5957 40.3142C44.3144 40.0332 43.9804 39.8104 43.613 39.6585C43.2455 39.5066 42.8517 39.4285 42.4541 39.4288Z" fill="currentColor" />
  <path d="M35.3179 36.3962L36.3879 35.3262L40.3097 39.2479L39.2396 40.318L35.3179 36.3962Z" fill="currentColor" />
  <path d="M45.3161 50.6804L50.6663 45.3301L51.7364 46.4002L46.3861 51.7504L45.3161 50.6804Z" fill="currentColor" />
  <path d="M31.2774 34H12.7373C12.5418 34 12.3542 33.9197 12.216 33.7768C12.0777 33.6338 12 33.44 12 33.2378V27.0075C12 26.3487 12.1258 25.6963 12.3702 25.0877C12.6145 24.4792 12.9727 23.9265 13.4241 23.4613C13.8755 22.9961 14.4113 22.6276 15.0007 22.3768C15.5902 22.1261 16.2217 21.998 16.8591 22H27.1556C28.4404 22 29.6726 22.5276 30.5811 23.4667C31.4896 24.4058 32 25.6795 32 27.0075V33.2378C32 33.4373 31.9244 33.6289 31.7893 33.7714C31.6542 33.9139 31.4704 33.996 31.2774 34ZM13.4747 32.4756H30.5401V27.0075C30.5391 26.5491 30.4508 26.0954 30.2802 25.6723C30.1096 25.2491 29.86 24.8649 29.5457 24.5414C29.2315 24.218 28.8586 23.9617 28.4485 23.7872C28.0384 23.6127 27.5991 23.5234 27.1556 23.5244H16.8591C15.966 23.5264 15.1101 23.894 14.4785 24.5468C13.847 25.1996 13.4914 26.0844 13.4894 27.0075L13.4747 32.4756Z" fill="currentColor" />
  <path fill-rule="evenodd" clip-rule="evenodd" d="M22 18.5C24.4853 18.5 26.5 16.4853 26.5 14C26.5 11.5147 24.4853 9.5 22 9.5C19.5147 9.5 17.5 11.5147 17.5 14C17.5 16.4853 19.5147 18.5 22 18.5ZM22 20C25.3137 20 28 17.3137 28 14C28 10.6863 25.3137 8 22 8C18.6863 8 16 10.6863 16 14C16 17.3137 18.6863 20 22 20Z" fill="currentColor" />
</svg>
