<svg width="16" height="17" viewBox="0 0 16 17" fill="none" xmlns="http://www.w3.org/2000/svg">
<path fill-rule="evenodd" clip-rule="evenodd" d="M8.72322 14.5V8.4993H10.3797L10.5992 6.43142H8.72322L8.72603 5.39643C8.72603 4.8571 8.77727 4.56811 9.55191 4.56811H10.5875V2.5H8.93077C6.94082 2.5 6.24041 3.50314 6.24041 5.19011V6.43166H5V8.49953H6.24041V14.5H8.72322Z" fill="currentColor"/>
</svg>
