<svg width="97" height="84" viewBox="0 0 97 84" fill="none" xmlns="http://www.w3.org/2000/svg">
<g clip-path="url(#clip0)">
<path d="M95.7352 82.7989C95.5675 83.0323 95.3981 83.2641 95.2304 83.4941C94.7483 83.8248 94.1764 84.0013 93.591 84.0001H3.40921C2.84991 84.0006 2.30247 83.8396 1.83317 83.5367C1.67742 83.3322 1.52343 83.1261 1.36768 82.9199L1.52342 82.8347L47.1773 57.6381C47.5824 57.415 48.0376 57.2977 48.5005 57.2971C48.9635 57.2965 49.419 57.4127 49.8246 57.6347L95.5812 82.7137L95.7352 82.7989Z" fill="#F2FF88"/>
<path d="M93.5909 29.8175L54.0241 7.06588C52.36 6.10895 50.4723 5.6047 48.5505 5.60376C46.6288 5.60282 44.7406 6.10521 43.0754 7.06051L3.40909 29.8175C2.63789 29.8186 1.89858 30.1241 1.35326 30.6671C0.807936 31.2101 0.501091 31.9462 0.5 32.7141V81.1035C0.500899 81.8714 0.80768 82.6077 1.35305 83.1507C1.89841 83.6937 2.63783 83.9991 3.40909 84H93.5909C94.3621 83.9987 95.1012 83.6932 95.6465 83.1502C96.1918 82.6073 96.4987 81.8713 96.5 81.1035V32.7141C96.4989 31.9462 96.1921 31.21 95.6467 30.6671C95.1014 30.1241 94.3621 29.8186 93.5909 29.8175ZM96.1578 81.1035C96.1561 81.7808 95.8851 82.4299 95.4041 82.9089C94.9231 83.3878 94.2712 83.6576 93.5909 83.6593H3.40909C2.7287 83.6581 2.07652 83.3884 1.59541 82.9094C1.1143 82.4303 0.84347 81.781 0.842246 81.1035V32.7141C0.843074 32.0365 1.11377 31.3869 1.59497 30.9078C2.07617 30.4286 2.72858 30.1591 3.40909 30.1583L43.0754 7.40128C44.7406 6.44598 46.6288 5.94359 48.5505 5.94453C50.4723 5.94547 52.36 6.44972 54.0241 7.40665L93.5909 30.1583C94.2714 30.1591 94.9238 30.4286 95.405 30.9078C95.8862 31.3869 96.1569 32.0365 96.1578 32.7141V81.1035Z" fill="#3F3D56"/>
<path d="M48.5513 57.1949C48.2533 57.1959 47.9573 57.1464 47.6759 57.0486L47.6241 57.0304L47.6136 56.9158C47.5814 56.9317 47.5488 56.9468 47.5162 56.9611L47.4818 56.9762L47.4473 56.961C47.3752 56.9295 47.3036 56.8938 47.2345 56.855L15.73 39.2281V3.23721C15.7309 2.4015 16.0648 1.60029 16.6583 1.00936C17.2517 0.418421 18.0564 0.086021 18.8958 0.085083H78.1043C78.9436 0.086021 79.7483 0.418421 80.3418 1.00936C80.9353 1.60029 81.2691 2.4015 81.2701 3.23721V39.2741L81.2265 39.2986L49.8682 56.8551C49.4656 57.0786 49.0122 57.1956 48.5513 57.1949Z" fill="white"/>
<path d="M48.551 57.2802C48.2432 57.2812 47.9376 57.2301 47.6471 57.1291L47.5435 57.0928L47.539 57.0441L47.4814 57.0693L47.4125 57.0392C47.3378 57.0065 47.2637 56.9695 47.1922 56.9294L15.644 39.2782V3.23732C15.645 2.37903 15.9879 1.55617 16.5974 0.949264C17.2069 0.342358 18.0334 0.000971382 18.8954 0H78.1039C78.9659 0.000974983 79.7924 0.342362 80.4019 0.949266C81.0114 1.55617 81.3543 2.37903 81.3553 3.23732V39.3241L49.9097 56.9294C49.4944 57.1601 49.0265 57.2809 48.551 57.2802ZM47.8642 56.8412C48.4933 57.021 49.1684 56.946 49.7421 56.6323L81.013 39.1247V3.23732C81.0121 2.46937 80.7054 1.73313 80.16 1.19011C79.6146 0.647084 78.8752 0.341635 78.1039 0.340771H18.8954C18.1241 0.341632 17.3847 0.647081 16.8393 1.1901C16.2939 1.73313 15.9872 2.46937 15.9863 3.23732V39.0787L18.038 40.2259L47.36 56.6324C47.3999 56.6548 47.4404 56.6759 47.4815 56.6956C47.5226 56.6759 47.5631 56.6548 47.6029 56.6325L47.8333 56.5032L47.8642 56.8412Z" fill="#3F3D56"/>
<path d="M95.7419 31.0748L83.3235 38.0265L81.1845 39.2243L49.8262 56.7809C49.4365 56.9973 48.9975 57.1105 48.5513 57.1097C48.263 57.1106 47.9766 57.0627 47.7043 56.9683C47.6285 56.9442 47.5542 56.9157 47.4818 56.8831C47.4117 56.8524 47.3432 56.8183 47.2765 56.7809L17.9545 40.3744L15.8155 39.1783L1.28374 31.0475C1.24422 31.025 1.21524 30.9878 1.20307 30.9441C1.1909 30.9004 1.19652 30.8537 1.21873 30.8141C1.241 30.7748 1.27801 30.746 1.32164 30.7338C1.36526 30.7217 1.41194 30.7273 1.45143 30.7494L15.8155 38.7865L17.9545 39.9826L47.4442 56.4827C47.542 56.5374 47.6438 56.5846 47.7487 56.6241C47.7933 56.6411 47.8395 56.6565 47.8857 56.6701C48.1786 56.7596 48.4867 56.7892 48.7913 56.757C49.096 56.7247 49.391 56.6314 49.6585 56.4827L81.1845 38.8342L83.3235 37.6364L95.5742 30.7783C95.5937 30.7674 95.6153 30.7604 95.6375 30.7577C95.6598 30.755 95.6824 30.7567 95.704 30.7627C95.7256 30.7687 95.7458 30.7789 95.7635 30.7927C95.7811 30.8065 95.7959 30.8236 95.8069 30.8431C95.8179 30.8626 95.825 30.884 95.8277 30.9062C95.8304 30.9283 95.8286 30.9508 95.8226 30.9724C95.8166 30.9939 95.8063 31.014 95.7925 31.0316C95.7786 31.0492 95.7614 31.0638 95.7419 31.0748Z" fill="#3F3D56"/>
<path d="M28.5769 11.2456H23.7855C23.4224 11.2456 23.0742 11.102 22.8175 10.8463C22.5607 10.5907 22.4165 10.244 22.4165 9.88249C22.4165 9.52098 22.5607 9.17427 22.8175 8.91865C23.0742 8.66302 23.4224 8.51941 23.7855 8.51941H28.5769C28.94 8.51941 29.2882 8.66302 29.545 8.91865C29.8017 9.17427 29.9459 9.52098 29.9459 9.88249C29.9459 10.244 29.8017 10.5907 29.545 10.8463C29.2882 11.102 28.94 11.2456 28.5769 11.2456Z" fill="#F7B34F"/>
<path d="M34.224 15.8458H23.7855C23.4224 15.8458 23.0742 15.7022 22.8175 15.4466C22.5607 15.1909 22.4165 14.8442 22.4165 14.4827C22.4165 14.1212 22.5607 13.7745 22.8175 13.5189C23.0742 13.2632 23.4224 13.1196 23.7855 13.1196H34.224C34.5871 13.1196 34.9353 13.2632 35.192 13.5189C35.4487 13.7745 35.593 14.1212 35.593 14.4827C35.593 14.8442 35.4487 15.1909 35.192 15.4466C34.9353 15.7022 34.5871 15.8458 34.224 15.8458Z" fill="#E6E6E6"/>
<path d="M63.3878 28.1136H33.7835C33.4205 28.1136 33.0722 27.97 32.8155 27.7144C32.5588 27.4588 32.4146 27.112 32.4146 26.7505C32.4146 26.389 32.5588 26.0423 32.8155 25.7867C33.0722 25.5311 33.4205 25.3875 33.7835 25.3875H63.3878C63.7509 25.3875 64.0991 25.5311 64.3558 25.7867C64.6126 26.0423 64.7568 26.389 64.7568 26.7505C64.7568 27.112 64.6126 27.4588 64.3558 27.7144C64.0991 27.97 63.7509 28.1136 63.3878 28.1136Z" fill="#F7B34F"/>
<path d="M66.1257 33.3955H30.8744C30.5113 33.3955 30.1631 33.2519 29.9063 32.9962C29.6496 32.7406 29.5054 32.3939 29.5054 32.0324C29.5054 31.6709 29.6496 31.3242 29.9063 31.0685C30.1631 30.8129 30.5113 30.6693 30.8744 30.6693H66.1257C66.4888 30.6693 66.837 30.8129 67.0937 31.0685C67.3505 31.3242 67.4947 31.6709 67.4947 32.0324C67.4947 32.3939 67.3505 32.7406 67.0937 32.9962C66.837 33.2519 66.4888 33.3955 66.1257 33.3955Z" fill="#E6E6E6"/>
<path d="M66.1257 38.5069H30.8744C30.5113 38.5069 30.1631 38.3633 29.9063 38.1077C29.6496 37.8521 29.5054 37.5054 29.5054 37.1438C29.5054 36.7823 29.6496 36.4356 29.9063 36.18C30.1631 35.9244 30.5113 35.7808 30.8744 35.7808H66.1257C66.4888 35.7808 66.837 35.9244 67.0937 36.18C67.3505 36.4356 67.4947 36.7823 67.4947 37.1438C67.4947 37.5054 67.3505 37.8521 67.0937 38.1077C66.837 38.3633 66.4888 38.5069 66.1257 38.5069Z" fill="#E6E6E6"/>
</g>
<defs>
<clipPath id="clip0">
<rect width="96" height="84" fill="white" transform="translate(0.5)"/>
</clipPath>
</defs>
</svg>
