<svg width="16" height="17" viewBox="0 0 16 17" fill="none" xmlns="http://www.w3.org/2000/svg">
<path fill-rule="evenodd" clip-rule="evenodd" d="M4.85369 6.4032H2.15894V14.4998H4.85369V6.4032Z" fill="currentColor"/>
<path fill-rule="evenodd" clip-rule="evenodd" d="M5.03158 3.89852C5.01409 3.10466 4.44639 2.5 3.52454 2.5C2.60268 2.5 2 3.10466 2 3.89852C2 4.67595 2.58487 5.29802 3.48956 5.29802H3.50678C4.44639 5.29802 5.03158 4.67595 5.03158 3.89852Z" fill="currentColor"/>
<path fill-rule="evenodd" clip-rule="evenodd" d="M14.5722 9.85752C14.5722 7.37059 13.2428 6.21313 11.4695 6.21313C10.0388 6.21313 9.39819 6.999 9.04053 7.55029V6.40347H6.34546C6.38098 7.16322 6.34546 14.5001 6.34546 14.5001H9.04053V9.97827C9.04053 9.73629 9.05802 9.4949 9.12927 9.32165C9.32403 8.83822 9.76747 8.33771 10.512 8.33771C11.4875 8.33771 11.8774 9.08015 11.8774 10.1682V14.4999H14.5721L14.5722 9.85752Z" fill="currentColor"/>
</svg>
