<svg width="72" height="72" viewBox="0 0 72 72" fill="none" xmlns="http://www.w3.org/2000/svg">
<path fill-rule="evenodd" clip-rule="evenodd" d="M36 4L42.075 8.62859H65V26.0952L68 28.381V67.6286H4V28.381L7 26.0952V8.62859H29.925L36 4ZM31.575 8.62859H40.425L36 5.25718L31.575 8.62859ZM7 27.3524L5.32502 28.6286L7 29.9048V27.3524ZM8 30.6667L36 52L64 30.6667V9.62859H8V30.6667ZM65 29.9048L66.675 28.6286L65 27.3524V29.9048ZM67 29.6381L44.2994 46.9339L67 66.0537V29.6381ZM66.1302 66.6286L43.4843 47.5548L36 53.2572L28.5157 47.5548L5.86979 66.6286H66.1302ZM5 66.0537V29.6381L27.7006 46.9339L5 66.0537Z" fill="#282824"/>
<path fill-rule="evenodd" clip-rule="evenodd" d="M29 19.1286H15V18.1286H29V19.1286Z" fill="#282824"/>
<path fill-rule="evenodd" clip-rule="evenodd" d="M33.0139 36.6284L15.0139 37.1284L14.9861 36.1288L32.9861 35.6288L33.0139 36.6284Z" fill="#282824"/>
<path fill-rule="evenodd" clip-rule="evenodd" d="M56 23.6286H15V22.6286H56V23.6286Z" fill="#282824"/>
<path fill-rule="evenodd" clip-rule="evenodd" d="M51 28.1286H15V27.1286H51V28.1286Z" fill="#282824"/>
<path fill-rule="evenodd" clip-rule="evenodd" d="M54 32.6286H15V31.6286H54V32.6286Z" fill="#282824"/>
</svg>
