<svg xmlns="http://www.w3.org/2000/svg" width="21" height="20" viewBox="0 0 21 20" fill="none">
<path fill-rule="evenodd" clip-rule="evenodd" d="M19.4226 1.07735C19.649 1.30372 19.7256 1.63974 19.6199 1.9419L13.7865 18.6086C13.6737 18.9311 13.3754 19.152 13.034 19.1659C12.6926 19.1798 12.3773 18.984 12.2385 18.6717L9.03533 11.4646L1.82822 8.26145C1.51598 8.12268 1.3201 7.80737 1.33403 7.46597C1.34795 7.12457 1.56887 6.82627 1.89137 6.71339L18.558 0.88006C18.8602 0.774305 19.1962 0.850988 19.4226 1.07735ZM4.4259 7.59211L10.0051 10.0718C10.1936 10.1556 10.3444 10.3063 10.4282 10.4948L12.9078 16.074L17.475 3.02492L4.4259 7.59211Z" fill="currentColor" fill-opacity="0.87"/>
<path d="M18.8918 0.835313C19.0823 0.848628 19.2692 0.927168 19.4161 1.07093C19.2723 0.930233 19.0856 0.848971 18.8918 0.835313Z" fill="currentColor" fill-opacity="0.87"/>
<path d="M18.7423 0.838237C18.6737 0.845727 18.606 0.861697 18.5407 0.886146L18.558 0.88006C18.6185 0.858908 18.6803 0.845055 18.7423 0.838237Z" fill="currentColor" fill-opacity="0.87"/>
<path d="M19.6199 1.9419C19.6409 1.88187 19.6547 1.82051 19.6616 1.75893C19.654 1.82702 19.6381 1.89436 19.6138 1.95928L19.6199 1.9419Z" fill="currentColor" fill-opacity="0.87"/>
<path d="M16.8404 4.83801L17.475 3.02492L15.6619 3.6595L9.48211 9.83932L10.0051 10.0718C10.1936 10.1556 10.3444 10.3063 10.4282 10.4948L10.6606 11.0178L16.8404 4.83801Z" fill="currentColor" fill-opacity="0.87"/>
</svg>
