<svg width="28" height="29" viewBox="0 0 28 29" fill="none" xmlns="http://www.w3.org/2000/svg">
<path fill-rule="evenodd" clip-rule="evenodd" d="M23.1304 7.59299H21.6018C21.8035 7.29189 21.9365 6.9539 21.9744 6.59646C22.0956 5.45409 21.458 4.43003 20.3726 3.97602C19.3748 3.5587 18.2535 3.7293 17.4462 4.42027L15.516 6.07092C15.1401 5.68297 14.5997 5.43915 14 5.43915C13.3992 5.43915 12.858 5.68375 12.4819 6.07289L10.5493 4.42009C9.74059 3.7291 8.61981 3.55916 7.62251 3.97625C6.53732 4.43031 5.89961 5.4547 6.02119 6.59704C6.05921 6.95421 6.19218 7.29204 6.39376 7.59299H4.86955C4.11314 7.59299 3.5 8.17159 3.5 8.88529V10.8238C3.5 11.1806 3.80659 11.4699 4.1848 11.4699H23.8152C24.1934 11.4699 24.5 11.1806 24.5 10.8238V8.88529C24.5 8.17159 23.8868 7.59299 23.1304 7.59299ZM11.9456 7.37761V7.59299H8.72415C7.87299 7.59299 7.20313 6.84426 7.41572 6.00807C7.50935 5.63982 7.79105 5.32591 8.15539 5.16699C8.6557 4.94879 9.2099 5.01885 9.6301 5.37773L11.9462 7.35858L11.946 7.36662L11.9456 7.37761ZM20.6156 6.42488C20.5645 7.09649 19.9216 7.59307 19.208 7.59307H16.0544V7.37769C16.0544 7.37353 16.0541 7.3694 16.054 7.36526C16.0539 7.36181 16.0538 7.35837 16.0538 7.3549L18.3339 5.40466C18.6849 5.1046 19.1757 4.96455 19.6295 5.09226C20.2808 5.27555 20.6632 5.79811 20.6156 6.42488ZM6.16373 22.8907H10.8118V15.0641H6.16373V22.8907ZM4.41373 14.4841C4.41373 13.8434 4.93607 13.3241 5.5804 13.3241H11.3951C12.0395 13.3241 12.5618 13.8434 12.5618 14.4841V23.4707C12.5618 24.1114 12.0395 24.6307 11.3951 24.6307H5.85163C5.05748 24.6307 4.41373 24.0234 4.41373 23.274V14.4841ZM21.8359 22.8907H17.1878V15.0641H21.8359V22.8907ZM16.6045 13.3241C15.9601 13.3241 15.4378 13.8434 15.4378 14.4841V23.4707C15.4378 24.1114 15.9601 24.6307 16.6045 24.6307H22.148C22.9421 24.6307 23.5859 24.0234 23.5859 23.274V14.4841C23.5859 13.8434 23.0636 13.3241 22.4192 13.3241H16.6045Z" fill="currentColor"/>
</svg>
