<svg width="56" height="56" viewBox="0 0 56 56" fill="none" xmlns="http://www.w3.org/2000/svg">
<g clip-path="url(#clip0_3433_3099)">
<path d="M27.5814 22.2222C26.2837 22.4778 25.5721 22.6889 25.5198 22.8444C25.4988 22.9 25.6349 23.0444 25.8128 23.1556C25.9802 23.2667 26.1686 23.4778 26.2314 23.6333C26.2837 23.7889 26.3256 25.9222 26.3256 28.5667V33.2333L26.0116 33.4222C25.8442 33.5222 25.6977 33.7 25.6977 33.8C25.6977 33.9889 25.8651 34 27.686 34C29.5279 34 29.6744 33.9889 29.6744 33.8C29.6744 33.6889 29.5488 33.5556 29.3605 33.4778L29.036 33.3444L29.0674 27.6778C29.0988 22.0556 29.0988 22 28.8895 22.0111C28.7744 22.0111 28.1884 22.1111 27.5814 22.2222Z" fill="black"/>
<path d="M1.00003 23.0222C1.00003 23.2556 1.08375 23.3222 1.50235 23.4556L1.99421 23.6111L2.01514 28.3333C2.03607 30.9444 2.00468 33.1222 1.95235 33.2111C1.90003 33.3 1.68026 33.4 1.46049 33.4333C1.14654 33.4889 1.04189 33.5556 1.02096 33.7556L0.989563 34H3.61631H6.24305L6.21166 33.7556C6.19073 33.5444 6.09654 33.4889 5.6884 33.4222C5.41631 33.3889 5.14421 33.3222 5.09189 33.2778C5.01863 33.2333 4.97677 32.6111 4.97677 31.6222V30.0333L6.47328 29.9667C8.10584 29.9 8.72328 29.7556 9.50817 29.2222C10.0524 28.8556 10.5651 28.1 10.7431 27.3889C10.8163 27.1444 10.8582 26.5333 10.8582 26.0222C10.8582 24.3222 10.1884 23.4444 8.60817 23.0444C8.01166 22.9 7.15352 22.8444 4.43259 22.8L1.00003 22.7556V23.0222ZM6.86049 23.7667C7.08026 23.8778 7.33142 24.1667 7.4884 24.4556C7.7291 24.9 7.75003 25.0556 7.75003 26.3333C7.75003 27.5889 7.7291 27.7778 7.4884 28.2667C7.11166 29.0667 6.81863 29.2444 5.81398 29.3111L4.97677 29.3667V26.3889V23.4111L5.73026 23.4889C6.14887 23.5333 6.66166 23.6556 6.86049 23.7667Z" fill="black"/>
<path d="M13.6942 25.9444C12.0198 26.4444 11.1198 27.8889 11.1198 30.0667C11.1198 32.2667 12.1663 33.6778 14.0291 34C14.7303 34.1222 15.7977 33.9889 16.2896 33.7111C16.8547 33.4111 17.357 32.8333 17.65 32.1778C17.8803 31.6778 17.9221 31.4778 17.828 31.3667C17.7338 31.2444 17.6814 31.2444 17.4931 31.3889C16.4152 32.2333 15.0024 32.2111 14.2593 31.3333C13.8931 30.9111 13.5582 30.0222 13.5582 29.4778V29.2222H15.578C17.7756 29.2222 17.8489 29.2 17.8489 28.6111C17.8489 27.5 17.1686 26.3778 16.3 26.0556C15.5989 25.8 14.364 25.7444 13.6942 25.9444ZM14.9919 26.6111C15.264 26.8111 15.4419 27.4111 15.4419 28.1444V28.6778L14.5314 28.6444L13.6105 28.6111L13.6419 28.0556C13.7361 26.7667 14.3326 26.1222 14.9919 26.6111Z" fill="black"/>
<path d="M33.2849 25.9222C31.4535 26.4333 30.4907 28.0889 30.6477 30.4444C30.721 31.5333 30.9512 32.2111 31.4744 32.8333C32.8349 34.4667 35.7128 34.4444 36.8535 32.7778C37.5651 31.7444 37.5756 30.9222 36.8744 31.4667C35.9849 32.1778 34.5616 32.1778 33.8291 31.4667C33.5047 31.1556 33.2221 30.4556 33.1593 29.8222L33.0965 29.2222H35.1372C36.707 29.2222 37.2093 29.1889 37.3035 29.0778C37.3768 28.9667 37.3872 28.7222 37.3035 28.2333C37.1256 27.0222 36.7384 26.4667 35.7965 26.0444C35.2733 25.8111 33.9233 25.7444 33.2849 25.9222ZM34.4884 26.5556C34.7291 26.6889 34.8965 27.2111 34.9279 28L34.9593 28.6111L34.0279 28.6444L33.0965 28.6778L33.1593 28C33.2849 26.7556 33.8186 26.1778 34.4884 26.5556Z" fill="black"/>
<path d="M49.7884 25.9444C48.9826 26.1333 48.3442 26.5111 47.8838 27.0778C46.5442 28.6889 46.7012 32.1667 48.1663 33.2667C48.7733 33.7111 49.2233 33.8778 50.1966 34C52.3733 34.2667 54.0687 33.3889 54.707 31.6778C55.021 30.8222 55.0419 28.7889 54.7489 27.9C54.4873 27.0889 53.8594 26.4333 53.0745 26.1222C52.2582 25.8 50.7094 25.7222 49.7884 25.9444ZM51.4105 26.6111C51.5361 26.7 51.7245 27.0111 51.8291 27.3C51.9861 27.7556 52.0175 28.1667 52.0175 30.1667C52.0175 32.3 51.9966 32.5333 51.8082 32.8778C51.3687 33.6778 50.6361 33.5556 50.1861 32.6111C49.9454 32.1 49.9245 31.9222 49.8931 30.1556C49.8512 28 49.9663 27.1111 50.3535 26.7111C50.6361 26.4 51.0756 26.3667 51.4105 26.6111Z" fill="black"/>
<path d="M40.6419 26.0556C39.5745 26.3667 38.8838 27.1111 38.6745 28.1778C38.4652 29.2333 38.8419 30.4333 39.5117 30.8556L39.8256 31.0444L39.2815 31.3333C38.5594 31.7 38.3291 32.0556 38.2873 32.8556C38.2559 33.3444 38.2977 33.6 38.4442 33.8889C38.6535 34.3111 39.3128 34.7778 39.6896 34.7778C40.1082 34.7778 40.0454 34.9778 39.5954 35.0556C38.9256 35.1778 38.5698 35.4111 38.3919 35.8556C38.078 36.6667 38.528 37.3222 39.6687 37.7C40.6419 38.0222 43.3105 38.0556 44.221 37.7556C45.0791 37.4667 45.728 36.9889 46.0733 36.3667C46.3245 35.9111 46.3663 35.7111 46.3663 35.0556C46.3559 34.1556 46.178 33.7111 45.6547 33.2889C45.0687 32.8111 44.2733 32.6667 42.264 32.6667C41.1128 32.6667 40.3698 32.6222 40.1919 32.5333C39.8466 32.3667 39.7524 31.9667 39.9826 31.6C40.1501 31.3333 40.1919 31.3222 40.6419 31.4C40.914 31.4556 41.6047 31.5 42.1803 31.4889C43.4989 31.4778 44.2733 31.2 44.9222 30.4889C45.4035 29.9667 45.5815 29.4556 45.5815 28.6333C45.5815 28.0667 45.2675 27.2556 45.0059 27.1444C44.7128 27.0333 44.9535 26.9111 45.3617 26.9667C46.0105 27.0556 46.3035 26.9333 46.4815 26.5C46.5652 26.2889 46.628 26.0778 46.628 26.0333C46.628 25.8778 41.1861 25.9 40.6419 26.0556ZM42.4315 26.6222C42.8396 26.9333 42.9652 27.4333 42.9652 28.8C42.9652 30.4222 42.8082 30.8333 42.1803 30.8333C41.8349 30.8333 41.7303 30.7778 41.5419 30.4667C40.9559 29.5556 41.1338 26.7 41.7826 26.5222C42.1175 26.4333 42.1803 26.4444 42.4315 26.6222ZM43.3001 35.1111C43.9803 35.3111 44.2524 35.8333 43.9908 36.4111C43.6873 37.1 42.128 37.4333 40.9349 37.0667C40.2652 36.8556 39.9303 36.4444 39.9303 35.8C39.9303 35.0333 39.9931 35 41.5315 35C42.2954 35 43.0908 35.0556 43.3001 35.1111Z" fill="black"/>
<path d="M21.0512 26.1667C19.7849 26.4 18.7907 26.6778 18.7907 26.8111C18.7907 26.8778 18.9582 27.0889 19.157 27.2889L19.5233 27.6444V30.5V33.3556L19.2093 33.4778C19.0209 33.5556 18.8954 33.6889 18.8954 33.8C18.8954 33.9889 19.0523 34 20.9465 34H22.9872L22.9558 33.7556C22.9349 33.6111 22.8407 33.4889 22.7151 33.4667C22.2547 33.3667 22.2442 33.3 22.2442 30.9444V28.6889L22.6419 28.4889C22.8721 28.3778 23.364 28.2778 23.8663 28.2444C24.4 28.2111 24.7663 28.1333 24.8814 28.0333C25.2791 27.6667 25.1954 26.3556 24.7558 26.1111C24.4733 25.9556 23.95 25.9778 23.6256 26.1556C23.1965 26.3889 22.8198 26.8667 22.464 27.6333C22.2861 28.0222 22.1082 28.3333 22.0768 28.3333C22.014 28.3333 22.0663 27.5222 22.2023 26.4667C22.2756 25.9222 22.3384 25.9444 21.0512 26.1667Z" fill="black"/>
</g>
<defs>
<clipPath id="clip0_3433_3099">
<rect width="54" height="16" fill="white" transform="translate(1 22)"/>
</clipPath>
</defs>
</svg>

