<svg width="16" height="18" viewBox="0 0 16 18" fill="none" xmlns="http://www.w3.org/2000/svg">
<path fill-rule="evenodd" clip-rule="evenodd" d="M8.67593 1.18306C8.29351 0.83221 7.70626 0.832209 7.32384 1.18306L6.2243 2.19185C6.01067 2.38785 5.72249 2.48148 5.43445 2.44849L3.95195 2.27866C3.43634 2.21959 2.96124 2.56477 2.85809 3.07339L2.56149 4.53581C2.50386 4.81995 2.32576 5.06509 2.07333 5.2077L0.774142 5.9417C0.322291 6.19697 0.140818 6.75549 0.356324 7.22761L0.975961 8.58506C1.09635 8.84881 1.09635 9.15182 0.975961 9.41557L0.356325 10.773C0.140818 11.2451 0.32229 11.8037 0.774141 12.0589L2.07333 12.7929C2.32576 12.9355 2.50386 13.1807 2.56149 13.4648L2.85809 14.9272C2.96124 15.4359 3.43634 15.781 3.95195 15.722L5.43445 15.5521C5.72249 15.5191 6.01067 15.6128 6.2243 15.8088L7.32384 16.8176C7.70626 17.1684 8.29351 17.1684 8.67593 16.8176L9.77547 15.8088C9.9891 15.6128 10.2773 15.5191 10.5653 15.5521L12.0478 15.722C12.5634 15.781 13.0385 15.4359 13.1417 14.9272L13.4383 13.4648C13.4959 13.1807 13.674 12.9355 13.9264 12.7929L15.2256 12.0589C15.6775 11.8037 15.859 11.2451 15.6434 10.773L15.0238 9.41557C14.9034 9.15182 14.9034 8.84881 15.0238 8.58506L15.6434 7.22761C15.859 6.75549 15.6775 6.19697 15.2256 5.9417L13.9264 5.2077C13.674 5.06509 13.4959 4.81995 13.4383 4.53581L13.1417 3.07339C13.0385 2.56477 12.5634 2.21959 12.0478 2.27866L10.5653 2.44849C10.2773 2.48148 9.9891 2.38785 9.77547 2.19185L8.67593 1.18306ZM11.5125 7.81233C11.7883 7.50335 11.7615 7.02923 11.4525 6.75336C11.1435 6.47749 10.6694 6.50433 10.3935 6.81331L7.35112 10.2208L5.09341 8.41466C4.76996 8.15591 4.29799 8.20835 4.03923 8.53179C3.78048 8.85524 3.83292 9.32721 4.15636 9.58597L6.96886 11.836C7.28 12.0849 7.73146 12.047 7.99684 11.7498L11.5125 7.81233Z" fill="white" fill-opacity="0.7"/>
</svg>
