<svg width="16" height="16" viewBox="0 0 16 16" fill="none" xmlns="http://www.w3.org/2000/svg">
<path d="M12.3717 3.93256C10.6567 3.94051 9.35322 5.03324 8.86522 6.77457C8.04648 5.56069 7.40773 4.17221 7.04148 3L5.23649 3.00819L5.26148 7.61753C5.26255 7.83454 5.21924 8.04962 5.13403 8.2505C5.04882 8.45138 4.92337 8.63412 4.76485 8.78829C4.60633 8.94246 4.41784 9.06504 4.21014 9.14904C4.00245 9.23303 3.77961 9.27679 3.55436 9.27782C3.09945 9.27989 2.66232 9.10779 2.33912 8.79936C2.17909 8.64664 2.05185 8.46505 1.96467 8.26496C1.87748 8.06487 1.83206 7.85019 1.83099 7.63319L1.80599 3.02384L0 3.03227L0.0249999 7.64186C0.0319999 9.55467 1.6185 11.0703 3.55999 11.0607C5.50148 11.0511 7.07373 9.52264 7.06498 7.60934L7.06123 6.82659C7.42523 7.52023 7.88023 8.25723 8.38023 8.90751L7.27648 14L9.12647 13.9918L9.92147 10.2919C10.6455 10.7237 11.459 10.9807 12.4065 10.9764C14.3925 10.968 16.01 9.39571 16 7.39499C15.991 5.48121 14.358 3.92365 12.372 3.93232L12.3717 3.93256ZM12.3975 9.19412C11.6755 9.19725 10.952 8.89644 10.363 8.42028L10.54 7.72182V7.67799C10.672 6.93762 11.0715 5.6751 12.4255 5.66932C12.9039 5.66848 13.3633 5.85007 13.7032 6.17445C14.0431 6.49882 14.236 6.9396 14.2397 7.40053C14.199 8.40077 13.3455 9.18762 12.3972 9.19171L12.3975 9.19412Z" fill="currentColor"/>
</svg>
