<svg width="61" height="28" viewBox="0 0 61 28" fill="none" xmlns="http://www.w3.org/2000/svg">
<g clip-path="url(#clip0_3644_37940)">
<path fill-rule="evenodd" clip-rule="evenodd" d="M37.7259 22.9595C34.2381 25.5602 29.1828 26.9478 24.8302 26.9478C18.7272 26.9478 13.2329 24.6642 9.07628 20.8662C8.74978 20.5675 9.04237 20.1605 9.43424 20.3931C13.92 23.0335 19.4666 24.622 25.196 24.622C29.06 24.622 33.3106 23.8132 37.2191 22.1349C37.8095 21.8811 38.3032 22.526 37.7259 22.9595Z" fill="#87A097"/>
<path fill-rule="evenodd" clip-rule="evenodd" d="M39.1757 21.281C38.7315 20.7048 36.2286 21.0087 35.1052 21.1435C34.763 21.1859 34.7108 20.8845 35.019 20.6678C37.0124 19.2485 40.2834 19.6582 40.6648 20.1339C41.0462 20.6123 40.5655 23.9293 38.6923 25.5125C38.4049 25.7557 38.1306 25.6262 38.2586 25.3037C38.6793 24.2412 39.6224 21.8598 39.1757 21.281Z" fill="#87A097"/>
<path fill-rule="evenodd" clip-rule="evenodd" d="M35.1846 10.6485V9.26887C35.1846 9.06006 35.3414 8.91998 35.5295 8.91998H41.6351C41.8311 8.91998 41.9878 9.06267 41.9878 9.26887V10.4503C41.9852 10.6485 41.8206 10.9075 41.528 11.3172L38.3642 15.887C39.5398 15.858 40.7808 16.0351 41.8467 16.643C42.0871 16.7804 42.1524 16.9813 42.1707 17.1795V18.6517C42.1707 18.8525 41.9512 19.0877 41.7213 18.9662C39.8429 17.9698 37.3479 17.8614 35.2709 18.9768C35.0593 19.0931 34.8372 18.8605 34.8372 18.6596V17.2614C34.8372 17.0368 34.8398 16.6535 35.0618 16.3126L38.7273 10.9948H35.5373C35.3414 10.9948 35.1846 10.8547 35.1846 10.6485ZM12.9124 19.2569H11.0548C10.8772 19.2437 10.7361 19.1089 10.7231 18.9371V9.29267C10.7231 9.09971 10.8824 8.94639 11.081 8.94639H12.8131C12.9934 8.95429 13.1371 9.09443 13.1502 9.26881V10.5296H13.1841C13.6361 9.31119 14.4852 8.74299 15.6295 8.74299C16.792 8.74299 17.5184 9.31119 18.0409 10.5296C18.4903 9.31119 19.5118 8.74299 20.6065 8.74299C21.385 8.74299 22.2367 9.06807 22.7566 9.79755C23.3444 10.6089 23.2243 11.7877 23.2243 12.8212L23.2216 18.9081C23.2216 19.101 23.0623 19.257 22.8637 19.257H21.0088C20.8233 19.2438 20.6744 19.0931 20.6744 18.9081V13.7964C20.6744 13.3894 20.711 12.3744 20.6221 11.9886C20.4837 11.341 20.0683 11.1586 19.53 11.1586C19.0807 11.1586 18.6104 11.4626 18.4197 11.9489C18.229 12.4353 18.2473 13.2493 18.2473 13.7964V18.908C18.2473 19.101 18.0879 19.2569 17.8894 19.2569H16.0344C15.8463 19.2437 15.7 19.0931 15.7 18.908L15.6974 13.7964C15.6974 12.7207 15.8724 11.1375 14.5531 11.1375C13.2181 11.1375 13.2703 12.681 13.2703 13.7964V18.908C13.2703 19.101 13.111 19.2569 12.9124 19.2569ZM47.2443 8.74293C50.0006 8.74293 51.4924 11.1375 51.4924 14.1823C51.4924 17.124 49.8439 19.4578 47.2443 19.4578C44.5377 19.4578 43.0642 17.0632 43.0642 14.0792C43.0642 11.0767 44.556 8.74293 47.2443 8.74293ZM47.26 10.712C45.891 10.712 45.8048 12.5991 45.8048 13.7752C45.8048 14.9541 45.7865 17.4702 47.2443 17.4702C48.6839 17.4702 48.7518 15.4404 48.7518 14.2034C48.7518 13.3894 48.7178 12.4167 48.4748 11.645C48.2659 10.9736 47.8505 10.712 47.2601 10.712M55.0664 19.2569H53.2167C53.0312 19.2437 52.8823 19.0931 52.8823 18.908L52.8797 9.26092C52.8953 9.08386 53.0495 8.94639 53.2376 8.94639H54.9593C55.1213 8.95429 55.2545 9.0654 55.2911 9.21598V10.6908H55.325C55.845 9.37197 56.5738 8.74293 57.8566 8.74293C58.6901 8.74293 59.5026 9.04682 60.0251 9.8794C60.511 10.6511 60.511 11.9489 60.511 12.8819V18.953C60.4901 19.1221 60.336 19.2569 60.1531 19.2569H58.2903C58.1205 19.2437 57.9794 19.1168 57.9611 18.953V13.7144C57.9611 12.6599 58.0813 11.1163 56.7986 11.1163C56.3466 11.1163 55.9312 11.4229 55.7248 11.8881C55.4635 12.4775 55.4295 13.0643 55.4295 13.7145V18.908C55.427 19.101 55.265 19.2569 55.0664 19.2569ZM30.3174 14.6501C30.3174 15.3822 30.3357 15.9928 29.9699 16.6429C29.6747 17.1716 29.2045 17.4966 28.6845 17.4966C27.9713 17.4966 27.5533 16.9469 27.5533 16.1355C27.5533 14.5338 28.972 14.2431 30.3174 14.2431V14.6501ZM32.1906 19.2305C32.0679 19.3415 31.8902 19.3494 31.7517 19.2754C31.1352 18.7574 31.0228 18.5169 30.6858 18.0226C29.6669 19.0746 28.9432 19.3891 27.6238 19.3891C26.0589 19.3891 24.8441 18.4138 24.8441 16.4606C24.8441 14.9356 25.6592 13.8968 26.8244 13.3894C27.8329 12.94 29.241 12.8607 30.3175 12.7365V12.4934C30.3175 12.0467 30.3514 11.5181 30.0901 11.1322C29.8655 10.786 29.4317 10.6432 29.0477 10.6432C28.3397 10.6432 27.7101 11.0106 27.5559 11.7718C27.5246 11.941 27.4018 12.1075 27.232 12.1154L25.4319 11.9198C25.2804 11.8855 25.1105 11.7613 25.1549 11.526C25.5678 9.31647 27.5429 8.65039 29.309 8.65039C30.213 8.65039 31.3938 8.89357 32.1071 9.58607C33.011 10.4398 32.9248 11.5789 32.9248 12.8185V15.7469C32.9248 16.6271 33.2854 17.0129 33.625 17.4887C33.7426 17.6579 33.7687 17.8614 33.6172 17.9883C33.2383 18.3081 32.5643 18.9027 32.1933 19.2358L32.1907 19.2305M5.96555 14.6501C5.96555 15.3822 5.98385 15.9928 5.61804 16.6429C5.32286 17.1716 4.8552 17.4966 4.33267 17.4966C3.61947 17.4966 3.20402 16.9469 3.20402 16.1355C3.20402 14.5338 4.62268 14.2431 5.96555 14.2431V14.6501ZM7.83873 19.2305C7.71599 19.3415 7.53834 19.3494 7.39988 19.2754C6.7833 18.7574 6.67353 18.5169 6.33394 18.0226C5.315 19.0746 4.59399 19.3891 3.27196 19.3891C1.70967 19.3891 0.492188 18.4138 0.492188 16.4606C0.492188 14.9356 1.30994 13.8968 2.47251 13.3894C3.48101 12.94 4.88917 12.8607 5.96555 12.7365V12.4934C5.96555 12.0467 5.99952 11.5181 5.74083 11.1322C5.51354 10.786 5.07991 10.6432 4.69843 10.6432C3.99045 10.6432 3.35821 11.0106 3.20402 11.7718C3.17269 11.941 3.04989 12.1075 2.88268 12.1154L1.08001 11.9198C0.928464 11.8855 0.761312 11.7613 0.803085 11.526C1.21848 9.31647 3.19099 8.65039 4.95711 8.65039C5.86099 8.65039 7.04192 8.89357 7.75519 9.58607C8.65907 10.4398 8.57288 11.5789 8.57288 12.8185V15.7469C8.57288 16.6271 8.93342 17.0129 9.27306 17.4887C9.39328 17.6579 9.41939 17.8614 9.26784 17.9883C8.889 18.3081 8.21499 18.9027 7.84401 19.2358L7.83879 19.2305" fill="#87A097"/>
</g>
<defs>
<clipPath id="clip0_3644_37940">
<rect width="59.8264" height="26.3456" fill="white" transform="translate(0.587891 0.71582)"/>
</clipPath>
</defs>
</svg>

