<svg width="95" height="28" viewBox="0 0 95 28" fill="none" xmlns="http://www.w3.org/2000/svg">
<g clip-path="url(#clip0_1026_79727)">
<path d="M63.5562 26.8834L66.8433 10.811L68.0948 26.8834H75.1875L71.9004 1.37158H64.3147L60.7745 16.6786L57.2348 1.37158H49.6491L46.3618 26.8834H53.4419L54.7062 10.811L57.9934 26.8834H63.5562Z" fill="#7C807C"/>
<path d="M85.5546 1.37158H78.7275V26.8834H94.9103V21.5259H85.5546V1.37158Z" fill="#7C807C"/>
<path d="M16.2722 1.37158H7.67499L0.0893555 26.8834H7.67508L8.68646 22.2914H15.2607L16.2722 26.8834H23.8579L16.2722 1.37158ZM11.9736 6.98416L14.2494 17.444L9.69792 17.4441L11.9736 6.98416Z" fill="#7C807C"/>
<path d="M42.0637 8.51494C35.7811 2.97058 25.9772 5.22472 25.881 10.3008C24.4555 0.88276 35.7434 -1.08347 42.0631 1.88185C42.1757 3.39403 42.2885 5.02213 42.0637 8.51494Z" fill="#7C807C"/>
<path d="M36.8509 11.519C35.268 10.8956 32.9651 10.3286 32.9618 8.51271C32.9605 7.77102 33.2629 6.9657 34.7307 6.47412C29.6736 6.98433 27.9871 13.1911 33.5803 16.276C34.5551 16.8137 36.2478 17.384 36.2478 19.2298C36.2478 21.386 33.9 22.1654 32.3556 22.1324C29.79 22.078 27.7273 21.1737 25.375 19.4849V25.6078C28.1587 26.8168 32.693 28.2113 37.2385 26.8008C40.9121 25.6609 44.0863 22.5496 44.0863 19.2297C44.0865 13.8278 39.4397 12.5386 36.8509 11.519Z" fill="#7C807C"/>
</g>
<defs>
<clipPath id="clip0_1026_79727">
<rect width="95" height="27" fill="white" transform="translate(0 0.5)"/>
</clipPath>
</defs>
</svg>
