<svg width="88" height="30" viewBox="0 0 88 30" fill="none" xmlns="http://www.w3.org/2000/svg">
<g clip-path="url(#clip0_1114_79580)">
<path d="M53.1908 29.0104C50.5782 28.8137 48.1043 27.7758 46.1373 26.051C46.0173 25.9458 45.9004 25.8389 45.8776 25.8134C45.8547 25.7879 45.8115 25.7496 45.7815 25.7282L45.7269 25.6893L45.4852 25.9568C44.7555 26.7643 43.7556 27.498 42.678 28.0167C40.9323 28.8569 39.0056 29.1689 36.9853 28.9387C34.2372 28.6255 32.167 27.302 31.1376 25.2002C30.6837 24.2735 30.4204 23.1933 30.3478 21.9591C30.3348 21.7388 30.3269 19.4313 30.3268 15.825L30.3266 10.044H28.28H26.2334L26.2387 7.89883L26.244 5.75368L28.2852 5.7485L30.3264 5.74331L30.3317 3.44244L30.3369 1.14158H33.1313H35.9258L35.931 3.44248L35.9363 5.74338L39.0371 5.74856L42.1379 5.75374L42.1431 7.8989L42.1484 10.044H39.0423H35.9361V15.5758C35.9361 21.6014 35.9314 21.3435 36.0523 21.8827C36.2981 22.9783 36.9471 23.8557 37.8446 24.3056C38.6165 24.6925 39.5452 24.7517 40.6174 24.4821C41.4303 24.2778 42.2833 23.8339 42.9689 23.2584C43.1997 23.0646 43.4779 22.8006 43.4779 22.7752C43.4779 22.7635 43.4043 22.6079 43.3143 22.4293C42.6105 21.0322 42.1973 19.5828 42.0522 18.0013C42.0098 17.5391 42.0037 16.4882 42.0409 16.0691C42.1969 14.3156 42.6292 12.8304 43.4227 11.322C44.7293 8.83821 46.9667 6.81912 49.5628 5.781C49.859 5.6626 50.3376 5.49068 50.3465 5.49955C50.3498 5.50279 50.3103 5.57543 50.2587 5.66083C49.4804 6.94808 48.8125 9.59926 48.6917 11.8812L48.6687 12.3159L48.5279 12.5149C47.8087 13.5313 47.3495 14.7337 47.1827 16.038C47.13 16.4501 47.1299 17.4948 47.1825 17.9078C47.3603 19.302 47.8573 20.5448 48.6678 21.6217C49.6961 22.988 51.1684 23.9338 52.7648 24.2534C53.289 24.3584 53.4156 24.3693 54.0945 24.3683C54.6428 24.3683 54.7673 24.3612 55.019 24.3215C55.9337 24.1774 56.6824 23.9068 57.481 23.4316C57.6238 23.3466 57.7635 23.2596 57.7913 23.2384L57.8418 23.1998L57.7289 23.1523C57.4895 23.0515 56.668 22.6281 56.4006 22.4676C54.7893 21.5008 53.4733 20.2386 52.448 18.6766C50.1348 15.1527 49.8462 10.622 51.6935 6.83227C51.8109 6.59129 51.9842 6.25939 52.0785 6.09471C52.2653 5.76864 52.7368 5.04722 52.7989 4.99259C52.8956 4.90747 54.3477 4.87513 55.0917 4.94153C56.9254 5.10512 58.594 5.6337 60.1549 6.54544C62.8912 8.14382 64.9058 10.7651 65.7269 13.7958C66.0407 14.9539 66.1602 15.9402 66.1387 17.1947C66.1207 18.247 66.0221 18.9871 65.7684 19.9751C64.8893 23.3989 62.5057 26.2917 59.2793 27.8505C57.9205 28.507 56.4766 28.8917 54.9173 29.0127C54.6056 29.0369 53.5234 29.0356 53.1908 29.0104ZM60.758 19.0387C60.7846 18.9423 60.8384 18.7045 60.8776 18.5103C61.1702 17.059 61.0393 15.504 60.5102 14.1473C59.7218 12.1254 58.1611 10.5928 56.1961 9.91082C56.0779 9.86979 55.9694 9.83622 55.955 9.83622C55.9018 9.83622 55.7198 10.6756 55.6487 11.249C55.6126 11.5397 55.6125 12.6397 55.6485 12.9319C55.8382 14.4713 56.3674 15.7611 57.2796 16.907C57.4764 17.1541 57.9599 17.6538 58.1978 17.8557C58.8776 18.4329 59.5754 18.8347 60.4209 19.1359C60.558 19.1848 60.6791 19.2223 60.6899 19.2193C60.7007 19.2163 60.7314 19.1351 60.758 19.0387ZM74.67 29.0114C71.8476 28.912 69.2458 28.3495 66.82 27.3144C66.4636 27.1623 65.3415 26.6144 65.2689 26.5571C65.238 26.5326 65.2553 26.4987 65.4419 26.2183C66.102 25.2265 66.9107 23.8519 67.4374 22.8265C67.5739 22.5609 67.6893 22.3435 67.6939 22.3435C67.6985 22.3435 67.8217 22.3912 67.9675 22.4495C69.8352 23.1956 71.8916 23.7468 73.7281 23.9935C74.5262 24.1007 74.8056 24.1184 75.7122 24.1191C76.4146 24.1191 76.6169 24.1131 76.8653 24.082C77.8078 23.9637 78.5465 23.7574 79.2008 23.4298C80.0554 23.0019 80.582 22.454 80.7641 21.8033C80.8203 21.6025 80.8162 20.9769 80.7569 20.7019C80.6028 19.9878 80.1662 19.4677 79.265 18.9251C78.9828 18.7552 78.4501 18.4887 78.0599 18.3222C77.4339 18.0549 76.9149 17.8734 75.1513 17.3046C71.0256 15.974 68.9485 14.749 67.753 12.9414C67.0621 11.8967 66.706 10.5603 66.7058 9.01149C66.7056 7.30474 67.2126 5.80501 68.2148 4.54867C68.4462 4.25848 69.0366 3.66583 69.3341 3.42494C70.5243 2.46133 72.045 1.76251 73.8216 1.36281C76.1887 0.830253 78.7845 0.852144 82.2256 1.43368C83.4191 1.63539 85.1697 2.00517 85.1908 2.06002C85.2004 2.08507 84.9079 9.54885 84.8969 9.56075C84.8935 9.56442 80.6647 9.48843 80.6071 9.4837C80.6025 9.4837 80.6055 8.64274 80.614 7.61572L80.6292 5.74845L80.3938 5.70424C79.1627 5.47307 77.417 5.43378 76.1589 5.60889C74.3697 5.85794 73.0836 6.54112 72.601 7.49889C72.2869 8.12215 72.2772 8.7983 72.5739 9.38259C73.1411 10.4993 74.9131 11.498 78.2262 12.5681C80.7492 13.3831 82.4231 14.1041 83.6338 14.8976C85.076 15.8427 85.9212 16.9089 86.349 18.3223C86.686 19.4356 86.7383 20.9435 86.4843 22.2202C85.871 25.3022 83.4468 27.5558 79.7013 28.5257C78.1586 28.9251 76.5713 29.0784 74.67 29.0114ZM0.741211 26.8208V25.1067H1.90219H3.06317L3.15798 24.8418C3.57682 23.6715 10.3191 4.61162 10.3191 4.59787C10.3191 4.58815 9.66694 4.57779 8.86991 4.57477L7.42077 4.56937V2.86572V1.16207L13.2399 1.15685L19.059 1.15162L23.3068 13.124L27.5546 25.0963L28.6498 25.1017L29.7451 25.1071L29.7397 26.8158L29.7344 28.5244H24.5092H19.284L19.2787 26.8156L19.2734 25.1067H20.3435C20.9506 25.1067 21.4136 25.0987 21.4136 25.0884C21.4136 25.0739 20.3319 22.009 20.1424 21.4865L20.0991 21.367L14.82 21.3722L9.54089 21.3773L8.88341 23.2368L8.22592 25.0963L9.36598 25.1017L10.506 25.1071V26.8209V28.5348H5.62363H0.741214L0.741211 26.8208ZM18.588 17.1181C18.588 17.1123 17.7595 14.7726 16.7469 11.9188C15.7343 9.06507 14.8866 6.67408 14.863 6.60552L14.8202 6.48085L14.7948 6.54317C14.7809 6.57745 13.9372 8.95685 12.92 11.8307C11.9027 14.7046 11.064 17.0723 11.0561 17.0923C11.0425 17.1269 11.2298 17.1287 14.8149 17.1287C16.8901 17.1287 18.588 17.1239 18.588 17.1181Z" fill="#7C807C"/>
</g>
<defs>
<clipPath id="clip0_1114_79580">
<rect width="86.724" height="29.1456" fill="white" transform="translate(0.333984 0.427246)"/>
</clipPath>
</defs>
</svg>
