<svg width="142" height="32" viewBox="0 0 142 32" fill="none" xmlns="http://www.w3.org/2000/svg">
<g clip-path="url(#clip0_1026_79748)">
<path d="M142 12.6292C142 14.8764 141.325 15.539 139.505 16.0864C137.539 16.6626 134.046 17.0372 131.962 17.0372C129.496 17.0372 126.414 16.8931 123.802 16.2881V13.6952H138.272V10.1515H128.029C124.947 10.1515 123.802 9.31599 123.802 6.37732V4.82156C123.802 2.48792 124.507 1.79647 126.414 1.30669C128.352 0.816914 131.522 0.5 133.605 0.5C136.13 0.5 139.153 0.701673 141.765 1.27788V3.87082H127.53V6.83829H137.773C140.855 6.83829 142 7.64498 142 10.6125V12.6292Z" fill="#87A097"/>
<path d="M117.316 16.2593C114.322 16.8355 111.299 17.0084 108.364 17.0084C105.429 17.0084 102.376 16.8355 99.353 16.2593V1.27788C102.347 0.701673 105.399 0.5 108.305 0.5C111.24 0.5 114.205 0.672862 117.198 1.27788V3.95725H103.638V6.95353H112.473V10.0651H103.638V13.6087H117.257V16.2593H117.316Z" fill="#87A097"/>
<path d="M94.2167 16.2593C91.5164 16.8355 88.8161 17.0083 86.2038 17.0083C83.5916 17.0083 80.8326 16.8643 78.1323 16.2593V0.874512H82.4469V13.407H94.2167V16.2593Z" fill="#87A097"/>
<path d="M72.9666 16.3745C71.5284 16.7779 69.6206 16.9219 68.2118 16.9507L61.5491 3.75555H61.1675L54.5342 16.9507C53.1254 16.9219 51.4524 16.7779 50.0142 16.3745L58.4379 0.90332H64.4548L72.9666 16.3745Z" fill="#87A097"/>
<path d="M64.1905 12.4274C64.1905 13.9544 62.9284 15.1644 61.3728 15.1644C59.8172 15.1644 58.5845 13.9256 58.5845 12.4274C58.5845 10.9005 59.8466 9.69043 61.3728 9.69043C62.9284 9.69043 64.1905 10.9005 64.1905 12.4274Z" fill="#87A097"/>
<path d="M44.8189 16.3745C43.4394 16.7779 41.9718 16.8931 40.5043 16.9219V10.2091H29.7912V16.9219C28.3236 16.8931 26.8561 16.7491 25.4766 16.3745V1.16263C26.8561 0.759286 28.3236 0.644045 29.7912 0.615234V7.09758H40.5043V0.615234C41.9718 0.644045 43.4394 0.788097 44.8189 1.16263V16.3745Z" fill="#87A097"/>
<path d="M19.4303 3.98606H11.8578V16.6626H7.57255V3.98606H0V1.27788C3.25796 0.701673 6.54527 0.5 9.71517 0.5C12.8851 0.5 16.1724 0.672862 19.4303 1.27788V3.98606Z" fill="#87A097"/>
<path d="M5.6649 24.2396C5.6649 25.248 5.37139 25.7378 4.57892 25.8818V25.9106C5.5475 26.0259 5.81166 26.6021 5.81166 27.6104C5.81166 29.1374 5.01918 29.5984 3.22877 29.5984C2.43629 29.5984 1.1742 29.5696 0.323024 29.5119C0.205621 29.5119 0.17627 29.4831 0.17627 29.3679V22.4534C0.17627 22.3381 0.205621 22.3381 0.323024 22.3093C1.1742 22.2229 2.20149 22.1941 2.99396 22.1941C4.87243 22.2229 5.6649 22.7127 5.6649 24.2396ZM1.70252 23.4906V25.3632H2.6711C3.75709 25.3632 4.13865 25.248 4.13865 24.4413C4.13865 23.6922 3.75709 23.4906 2.84721 23.4906H1.70252ZM1.70252 26.4292V28.3019H3.14072C3.96254 28.3019 4.31476 28.1002 4.31476 27.4088C4.31476 26.6309 3.93319 26.4292 3.17007 26.4292H1.70252Z" fill="#87A097"/>
<path d="M11.3591 24.2686C11.4471 24.2686 11.5058 24.3262 11.5058 24.4126V29.2528C11.5058 29.368 11.4765 29.3968 11.3591 29.4256C10.7134 29.5409 9.77413 29.5985 9.0697 29.5985C7.22059 29.5985 6.75098 29.2528 6.75098 27.3225V24.4126C6.75098 24.3262 6.80968 24.2686 6.89773 24.2686H8.04242C8.13047 24.2686 8.18917 24.3262 8.18917 24.4126V26.9479C8.18917 28.302 8.33593 28.3596 9.21646 28.3596H10.0676V24.4126C10.0676 24.3262 10.1263 24.2686 10.2144 24.2686H11.3591Z" fill="#87A097"/>
<path d="M14.1769 22.8279C14.1769 23.3177 13.8834 23.577 13.3551 23.577C12.8268 23.577 12.5039 23.2889 12.5039 22.8279C12.5039 22.3382 12.7974 22.0789 13.3551 22.0789C13.8834 22.0501 14.1769 22.3382 14.1769 22.8279ZM13.9128 24.2685C14.0008 24.2685 14.0595 24.3261 14.0595 24.4125V29.3967C14.0595 29.512 14.0008 29.5408 13.9128 29.5408H12.7681C12.68 29.5408 12.6213 29.4832 12.6213 29.3967V24.4125C12.6213 24.3261 12.68 24.2685 12.7681 24.2685H13.9128Z" fill="#87A097"/>
<path d="M16.4955 22.2805C16.5836 22.2805 16.6423 22.3381 16.6423 22.4246V29.4255C16.6423 29.5407 16.5836 29.5696 16.4955 29.5696H15.3509C15.2628 29.5696 15.2041 29.5119 15.2041 29.4255V22.3958C15.2041 22.3093 15.2628 22.2517 15.3509 22.2517H16.4955V22.2805Z" fill="#87A097"/>
<path d="M22.2483 22.2805C22.3658 22.2805 22.3951 22.3381 22.3951 22.4246V29.195C22.3951 29.3391 22.307 29.4255 22.1896 29.4255C21.3972 29.5407 20.7514 29.5984 20.0764 29.5984C18.0512 29.5984 17.5815 29.051 17.5815 26.919C17.5815 24.8446 18.0218 24.2396 19.7829 24.2396C20.2231 24.2396 20.6047 24.2684 20.9569 24.2972V22.4246C20.9569 22.3093 20.9863 22.2805 21.1037 22.2805H22.2483ZM20.1351 25.4497C19.1665 25.4497 19.0491 25.709 19.0491 26.919C19.0491 28.0426 19.1371 28.3883 20.0764 28.3883C20.3112 28.3883 20.7221 28.3595 20.9863 28.3307V25.4497H20.1351Z" fill="#87A097"/>
<path d="M25.0954 22.8279C25.0954 23.3177 24.8019 23.577 24.2735 23.577C23.7452 23.577 23.4224 23.2889 23.4224 22.8279C23.4224 22.3382 23.7159 22.0789 24.2735 22.0789C24.8019 22.0501 25.0954 22.3382 25.0954 22.8279ZM24.8019 24.2685C24.8899 24.2685 24.9486 24.3261 24.9486 24.4125V29.3967C24.9486 29.512 24.8899 29.5408 24.8019 29.5408H23.6572C23.5691 29.5408 23.5104 29.4832 23.5104 29.3967V24.4125C23.5104 24.3261 23.5691 24.2685 23.6572 24.2685H24.8019Z" fill="#87A097"/>
<path d="M30.8482 26.487V29.3968C30.8482 29.5121 30.7895 29.5409 30.7014 29.5409H29.5567C29.4687 29.5409 29.41 29.4832 29.41 29.3968V26.8615C29.41 25.5074 29.2632 25.4498 28.3827 25.4498H27.5022V29.3968C27.5022 29.5121 27.4435 29.5409 27.3554 29.5409H26.2107C26.1227 29.5409 26.064 29.4832 26.064 29.3968V24.5279C26.064 24.4126 26.1227 24.4126 26.2107 24.3838C26.8564 24.2397 27.7957 24.2109 28.5001 24.2109C30.3786 24.2397 30.8482 24.5855 30.8482 26.487Z" fill="#87A097"/>
<path d="M36.3952 24.4126C36.5126 24.4414 36.6006 24.5279 36.6006 24.6431V29.4256C36.6006 30.8373 36.3071 31.4712 34.2525 31.4712C33.6655 31.4712 33.0491 31.4423 32.4915 31.3271C32.4034 31.3271 32.3447 31.2695 32.3447 31.1831V30.4628C32.3447 30.3476 32.3741 30.3187 32.4915 30.3187H34.1351C34.9863 30.3187 35.1918 30.1171 35.1918 29.5121V29.4544C34.7809 29.5409 34.4286 29.5697 34.0177 29.5697C32.286 29.5697 31.8164 28.9647 31.8164 26.8039C31.8164 24.7583 32.286 24.2109 34.3112 24.2109C35.045 24.2397 35.8375 24.2974 36.3952 24.4126ZM34.2232 25.4498C33.284 25.4498 33.1959 25.7955 33.1959 26.9191C33.1959 28.1292 33.3427 28.3884 34.3112 28.3884C34.546 28.3884 34.8983 28.3884 35.1624 28.3308V25.4498H34.2232Z" fill="#87A097"/>
<path d="M44.0265 25.8531V29.1087C44.0265 29.2528 43.9972 29.3392 43.8211 29.3968C43.146 29.5409 42.2948 29.5985 41.6491 29.5985C40.2109 29.5985 39.4478 29.4544 39.4478 27.9851C39.4771 26.7174 40.1522 26.4293 41.4143 26.4293H42.6177V26.0836C42.6177 25.6226 42.3242 25.421 41.7078 25.421H39.9761C39.8587 25.421 39.8293 25.3922 39.8293 25.2769V24.499C39.8293 24.3838 39.8587 24.355 39.9761 24.355C40.5631 24.2397 41.1208 24.2109 41.7078 24.2109C43.6156 24.2397 44.0265 24.8448 44.0265 25.8531ZM41.5023 27.3225C41.0034 27.3225 40.8273 27.4953 40.8273 27.8987C40.8273 28.3596 41.0327 28.4749 41.6491 28.4749C41.8545 28.4749 42.3242 28.4461 42.6177 28.3884V27.3513H41.5023V27.3225Z" fill="#87A097"/>
<path d="M50.2194 22.3093C50.3368 22.3381 50.3662 22.367 50.3662 22.4822V23.2601C50.3662 23.3753 50.3075 23.4041 50.1901 23.4041H49.427C49.0454 23.4041 48.8986 23.4617 48.8986 23.7787V24.2684H50.0727C50.1901 24.2684 50.2194 24.3261 50.1901 24.4413L50.0433 25.2192C50.014 25.3056 49.9553 25.3632 49.8672 25.3632H48.8986V29.3967C48.8986 29.5119 48.8399 29.5407 48.7519 29.5407H47.6072C47.5191 29.5407 47.4604 29.4831 47.4604 29.3967V25.3632H46.8441C46.7267 25.3632 46.668 25.3056 46.668 25.2192V24.4125C46.668 24.3261 46.7267 24.2684 46.8441 24.2684H47.4604V23.5482C47.4604 22.367 48.2823 22.2229 49.1334 22.2229C49.4857 22.2229 49.8672 22.2517 50.2194 22.3093Z" fill="#87A097"/>
<path d="M55.444 24.2686C55.5321 24.2686 55.5908 24.3262 55.5908 24.4126V29.2528C55.5908 29.368 55.5614 29.3968 55.444 29.4256C54.7983 29.5409 53.8591 29.5985 53.1547 29.5985C51.3056 29.5985 50.8359 29.2528 50.8359 27.3225V24.4126C50.8359 24.3262 50.8946 24.2686 50.9827 24.2686H52.1274C52.2154 24.2686 52.2741 24.3262 52.2741 24.4126V26.9479C52.2741 28.302 52.4209 28.3596 53.3014 28.3596H54.1526V24.4126C54.1526 24.3262 54.2113 24.2686 54.2994 24.2686H55.444Z" fill="#87A097"/>
<path d="M58.3206 22.8279C58.4086 22.7991 58.4673 22.8567 58.4673 22.972V24.326H59.3479C59.4653 24.326 59.524 24.3837 59.524 24.4701V25.2192C59.524 25.3056 59.4653 25.3632 59.3479 25.3632H58.4673V27.9273C58.4673 28.3307 58.6141 28.4171 59.025 28.4171H59.4066C59.524 28.4171 59.5827 28.4459 59.5827 28.5612V29.3679C59.5827 29.4831 59.524 29.5407 59.4359 29.5407C59.1131 29.5983 58.8195 29.6272 58.6141 29.6272C57.7923 29.6272 57.0291 29.5983 57.0291 28.4171V25.3344H56.4715C56.3541 25.3344 56.3247 25.2768 56.3247 25.1904V24.4413C56.3247 24.3548 56.3834 24.2972 56.4715 24.2972H57.0291V23.2601C57.0291 23.1736 57.0585 23.116 57.1759 23.116L58.3206 22.8279Z" fill="#87A097"/>
<path d="M64.9245 24.2686C65.0126 24.2686 65.0713 24.3262 65.0713 24.4126V29.2528C65.0713 29.368 65.0419 29.3968 64.9245 29.4256C64.2788 29.5409 63.3396 29.5985 62.6351 29.5985C60.786 29.5985 60.3164 29.2528 60.3164 27.3225V24.4126C60.3164 24.3262 60.3751 24.2686 60.4632 24.2686H61.6078C61.6959 24.2686 61.7546 24.3262 61.7546 24.4126V26.9479C61.7546 28.302 61.9014 28.3596 62.7819 28.3596H63.6331V24.4126C63.6331 24.3262 63.6918 24.2686 63.7798 24.2686H64.9245Z" fill="#87A097"/>
<path d="M69.2097 24.3262C69.3271 24.355 69.3564 24.3838 69.3564 24.5279V25.3057C69.3564 25.3922 69.2977 25.4498 69.1803 25.4498H68.2704C67.7715 25.4498 67.5954 25.5362 67.5954 25.9396V29.4256C67.5954 29.5409 67.5367 29.5697 67.4486 29.5697H66.3333C66.2452 29.5697 66.1865 29.5121 66.1865 29.4256V25.565C66.1865 24.3838 67.0377 24.2397 67.9182 24.2397C68.2117 24.2397 68.8575 24.2686 69.2097 24.3262Z" fill="#87A097"/>
<path d="M74.6396 26.8614V27.1495C74.6396 27.3512 74.5809 27.4088 74.3461 27.4088H71.3523C71.3816 28.2443 71.5871 28.4172 72.4382 28.4172H74.1406C74.2287 28.4172 74.2874 28.4748 74.2874 28.5612V29.3391C74.2874 29.4543 74.2287 29.4831 74.1406 29.4831C73.6416 29.5984 72.9372 29.6272 72.3208 29.6272C70.3837 29.6272 69.9141 29.0798 69.9141 26.9478C69.9141 24.787 70.3837 24.2685 72.3208 24.2685C74.17 24.2396 74.6396 24.7582 74.6396 26.8614ZM71.3229 26.4869H73.2307C73.2307 25.6514 72.9959 25.4497 72.2915 25.4497C71.5871 25.4497 71.3523 25.6514 71.3229 26.4869Z" fill="#87A097"/>
<path d="M84.5308 24.4126C84.6482 24.4126 84.6776 24.4414 84.6482 24.5566L83.7971 28.5325C83.5916 29.4544 83.4449 29.5985 82.6817 29.5985C81.8305 29.5985 81.8012 29.4832 81.5664 28.5325L80.95 25.9107L80.3336 28.5325C80.0988 29.4832 80.0695 29.5985 79.2183 29.5985C78.4552 29.5985 78.3084 29.4544 78.103 28.5325L77.2518 24.5566C77.2224 24.4414 77.2518 24.4126 77.3692 24.4126H78.0736C78.1323 24.4126 78.1617 24.4414 78.191 24.5566L78.9835 28.4172C79.0716 28.7342 79.1303 28.763 79.2477 28.763C79.4238 28.763 79.4238 28.7342 79.5118 28.4172L80.4217 24.7007C80.451 24.5855 80.4804 24.5566 80.5685 24.5566H81.3609C81.449 24.5566 81.4783 24.5855 81.5077 24.7007L82.4469 28.4172C82.535 28.7342 82.535 28.763 82.7111 28.763C82.8285 28.763 82.8872 28.7342 82.9752 28.4172L83.7677 24.5566C83.7971 24.4414 83.8264 24.4126 83.8851 24.4126H84.5308Z" fill="#87A097"/>
<path d="M89.7849 26.8327V27.092C89.7849 27.2936 89.7262 27.3513 89.4327 27.3513H86.3801C86.4095 28.5037 86.615 28.7918 87.6422 28.7918H89.2272C89.3152 28.7918 89.3739 28.8494 89.3739 28.9358V29.3392C89.3739 29.4256 89.3152 29.4832 89.2272 29.4832C88.7282 29.5409 88.1999 29.5697 87.6129 29.5697C85.8225 29.5697 85.4409 29.0511 85.4409 26.9479C85.4409 24.8448 85.8225 24.3262 87.6129 24.3262C89.3446 24.355 89.7555 24.8448 89.7849 26.8327ZM86.3801 26.631H88.875C88.8456 25.4498 88.6402 25.1329 87.6716 25.1329C86.615 25.1329 86.4095 25.4498 86.3801 26.631Z" fill="#87A097"/>
<path d="M96.5356 24.4412C96.6237 24.4412 96.6824 24.4989 96.6824 24.6141V25.0174C96.6824 25.1039 96.6237 25.1615 96.5356 25.1615H95.0974C93.9527 25.1615 93.806 25.536 93.806 27.0054C93.806 28.4747 93.9527 28.8204 95.0974 28.8204H96.5356C96.6237 28.8204 96.6824 28.878 96.6824 28.9645V29.3678C96.6824 29.4542 96.6237 29.5119 96.5356 29.5407C96.0367 29.5983 95.479 29.6271 95.0681 29.6271C93.219 29.6271 92.8374 29.1085 92.8374 27.0054C92.8374 24.9022 93.1896 24.3836 95.0681 24.3836C95.479 24.3548 96.0367 24.3836 96.5356 24.4412Z" fill="#87A097"/>
<path d="M101.496 25.8243V29.1087C101.496 29.1951 101.496 29.3104 101.32 29.368C100.997 29.4832 100.146 29.5697 99.2065 29.5697C97.9444 29.5697 97.3574 29.3104 97.3574 28.0427C97.3574 26.9191 97.9738 26.6022 99.0598 26.6022H100.615V25.9684C100.615 25.3922 100.263 25.1329 99.3826 25.1329H97.9444C97.827 25.1329 97.7977 25.1041 97.7977 24.9888V24.6143C97.7977 24.499 97.827 24.4702 97.9444 24.4702C98.5021 24.3838 99.0011 24.355 99.3826 24.355C100.821 24.355 101.496 24.8159 101.496 25.8243ZM99.0304 27.3513C98.5021 27.3513 98.238 27.5241 98.238 28.0427C98.238 28.6765 98.5608 28.7918 99.3533 28.7918C99.6468 28.7918 100.204 28.763 100.586 28.6765V27.3225H99.0304V27.3513Z" fill="#87A097"/>
<path d="M107.131 26.5446V29.3968C107.131 29.4832 107.072 29.5409 106.955 29.5409H106.339C106.251 29.5409 106.192 29.4832 106.192 29.3968V26.631C106.192 25.1905 105.898 25.1329 104.989 25.1329H103.668V29.3968C103.668 29.4832 103.609 29.5409 103.521 29.5409H102.875C102.787 29.5409 102.729 29.4832 102.729 29.3968V24.6431C102.729 24.5278 102.787 24.499 102.875 24.499C103.609 24.355 104.402 24.355 104.871 24.355C106.603 24.355 107.131 24.5567 107.131 26.5446Z" fill="#87A097"/>
<path d="M114.41 25.8243V29.1087C114.41 29.1951 114.41 29.3104 114.234 29.368C113.911 29.4832 113.06 29.5697 112.121 29.5697C110.859 29.5697 110.272 29.3104 110.272 28.0427C110.272 26.9191 110.888 26.6022 111.974 26.6022H113.53V25.9684C113.53 25.3922 113.178 25.1329 112.297 25.1329H110.859C110.742 25.1329 110.712 25.1041 110.712 24.9888V24.6143C110.712 24.499 110.742 24.4702 110.859 24.4702C111.417 24.3838 111.916 24.355 112.297 24.355C113.735 24.355 114.41 24.8159 114.41 25.8243ZM111.945 27.3513C111.417 27.3513 111.153 27.5241 111.153 28.0427C111.153 28.6765 111.475 28.7918 112.268 28.7918C112.561 28.7918 113.119 28.763 113.501 28.6765V27.3225H111.945V27.3513Z" fill="#87A097"/>
<path d="M116.465 22.4246C116.553 22.4246 116.612 22.4822 116.612 22.5686V29.3967C116.612 29.4831 116.553 29.5407 116.465 29.5407H115.819C115.731 29.5407 115.672 29.4831 115.672 29.3967V22.5686C115.672 22.4822 115.731 22.4246 115.819 22.4246H116.465Z" fill="#87A097"/>
<path d="M118.695 22.4246C118.783 22.4246 118.842 22.4822 118.842 22.5686V29.3967C118.842 29.4831 118.783 29.5407 118.695 29.5407H118.05C117.962 29.5407 117.903 29.4831 117.903 29.3967V22.5686C117.903 22.4822 117.962 22.4246 118.05 22.4246H118.695Z" fill="#87A097"/>
<path d="M123.362 22.9721C123.48 22.9433 123.539 23.0009 123.539 23.0873V24.4126H124.536C124.654 24.4126 124.683 24.4702 124.683 24.5567V24.9888C124.683 25.0753 124.625 25.1329 124.536 25.1329H123.539V28.302C123.539 28.7054 123.656 28.8206 124.155 28.8206H124.625C124.742 28.8206 124.771 28.8494 124.771 28.9647V29.4256C124.771 29.5121 124.713 29.5697 124.625 29.5697C124.419 29.6273 124.184 29.6273 124.096 29.6273C123.421 29.6273 122.629 29.6273 122.629 28.5613V25.1329H122.1C122.012 25.1329 121.954 25.0753 121.954 24.9888V24.5567C121.954 24.4702 122.012 24.4126 122.1 24.4126H122.629V23.289C122.629 23.2026 122.658 23.145 122.746 23.145L123.362 22.9721Z" fill="#87A097"/>
<path d="M128.176 24.4702C128.264 24.499 128.323 24.5278 128.323 24.6431V25.0464C128.323 25.1329 128.264 25.1905 128.176 25.1905H127.354C126.679 25.1905 126.532 25.3057 126.532 25.7091V29.4544C126.532 29.5409 126.474 29.5985 126.386 29.5985H125.769C125.681 29.5985 125.623 29.5409 125.623 29.4544V25.4498C125.623 24.3838 126.591 24.355 127.149 24.355C127.325 24.355 128 24.3838 128.176 24.4702Z" fill="#87A097"/>
<path d="M133.283 24.4126C133.371 24.4126 133.43 24.4702 133.43 24.5567V29.3104C133.43 29.4256 133.371 29.4256 133.283 29.4544C132.52 29.5985 131.728 29.5985 131.287 29.5985C129.585 29.5985 129.057 29.368 129.057 27.3801V24.5278C129.057 24.4414 129.115 24.3838 129.233 24.3838H129.849C129.937 24.3838 129.996 24.4414 129.996 24.5278V27.2936C129.996 28.7342 130.289 28.7918 131.199 28.7918H132.52V24.5567C132.52 24.4702 132.579 24.4126 132.667 24.4126H133.283Z" fill="#87A097"/>
<path d="M138.008 24.4414C138.096 24.4414 138.155 24.499 138.155 24.5855V24.9888C138.155 25.0752 138.096 25.1329 138.008 25.1329H136.218C135.778 25.1329 135.514 25.2769 135.514 25.6226V25.7379C135.514 25.9972 135.631 26.2277 136.101 26.4005L137.363 26.8903C138.243 27.2072 138.331 27.697 138.331 28.2156V28.3308C138.331 29.3968 137.686 29.5985 136.394 29.5985C135.572 29.5985 134.809 29.5409 134.633 29.512C134.516 29.512 134.486 29.4544 134.486 29.368V28.9646C134.486 28.8782 134.545 28.8206 134.633 28.8206H136.394C137.157 28.8206 137.392 28.7342 137.392 28.3308V28.2156C137.392 27.9563 137.275 27.7546 136.834 27.5817L135.484 27.0632C134.75 26.7751 134.574 26.2277 134.574 25.7091V25.5074C134.574 24.4702 135.484 24.3262 136.512 24.3262C136.952 24.355 137.451 24.3838 138.008 24.4414Z" fill="#87A097"/>
<path d="M140.415 22.9721C140.533 22.9433 140.591 23.0009 140.591 23.0873V24.4126H141.589C141.707 24.4126 141.736 24.4702 141.736 24.5567V24.9888C141.736 25.0753 141.677 25.1329 141.589 25.1329H140.591V28.302C140.591 28.7054 140.709 28.8206 141.208 28.8206H141.677C141.795 28.8206 141.824 28.8494 141.824 28.9647V29.4256C141.824 29.5121 141.765 29.5697 141.677 29.5697C141.472 29.6273 141.237 29.6273 141.149 29.6273C140.474 29.6273 139.681 29.6273 139.681 28.5613V25.1329H139.124C139.036 25.1329 138.977 25.0753 138.977 24.9888V24.5567C138.977 24.4702 139.036 24.4126 139.124 24.4126H139.652V23.289C139.652 23.2026 139.681 23.145 139.77 23.145L140.415 22.9721Z" fill="#87A097"/>
</g>
<defs>
<clipPath id="clip0_1026_79748">
<rect width="142" height="31" fill="white" transform="translate(0 0.5)"/>
</clipPath>
</defs>
</svg>
