<svg width="56" height="57" viewBox="0 0 56 57" fill="none" xmlns="http://www.w3.org/2000/svg">
<mask id="path-1-inside-1_2348_129927" fill="white">
<path d="M0 20.6421C0 16.2581 3.55396 12.7041 7.93799 12.7041H9.92248C14.3065 12.7041 17.8605 16.2581 17.8605 20.6421C17.8605 21.1901 17.4162 21.6343 16.8682 21.6343H0.992249C0.444245 21.6343 0 21.1901 0 20.6421Z"/>
</mask>
<path d="M0 20.6421C0 16.2581 3.55396 12.7041 7.93799 12.7041H9.92248C14.3065 12.7041 17.8605 16.2581 17.8605 20.6421C17.8605 21.1901 17.4162 21.6343 16.8682 21.6343H0.992249C0.444245 21.6343 0 21.1901 0 20.6421Z" stroke="#F2FF88" stroke-width="3" mask="url(#path-1-inside-1_2348_129927)"/>
<path d="M13.7614 8.63394C13.7614 11.3022 11.5983 13.4653 8.93003 13.4653C6.26172 13.4653 4.09863 11.3022 4.09863 8.63394C4.09863 5.96563 6.26172 3.80254 8.93003 3.80254C11.5983 3.80254 13.7614 5.96563 13.7614 8.63394Z" stroke="#F2FF88" stroke-width="1.5"/>
<mask id="path-3-inside-2_2348_129927" fill="white">
<path d="M17.8604 49.6421C17.8604 45.2581 21.4143 41.7041 25.7983 41.7041H27.7828C32.1669 41.7041 35.7208 45.2581 35.7208 49.6421C35.7208 50.1901 35.2766 50.6343 34.7286 50.6343H18.8526C18.3046 50.6343 17.8604 50.1901 17.8604 49.6421Z"/>
</mask>
<path d="M17.8604 49.6421C17.8604 45.2581 21.4143 41.7041 25.7983 41.7041H27.7828C32.1669 41.7041 35.7208 45.2581 35.7208 49.6421C35.7208 50.1901 35.2766 50.6343 34.7286 50.6343H18.8526C18.3046 50.6343 17.8604 50.1901 17.8604 49.6421Z" stroke="#F2FF88" stroke-width="3" mask="url(#path-3-inside-2_2348_129927)"/>
<path d="M31.6218 37.6339C31.6218 40.3022 29.4587 42.4653 26.7904 42.4653C24.1221 42.4653 21.959 40.3022 21.959 37.6339C21.959 34.9656 24.1221 32.8025 26.7904 32.8025C29.4587 32.8025 31.6218 34.9656 31.6218 37.6339Z" stroke="#F2FF88" stroke-width="1.5"/>
<path d="M20 12.2158L36 12.2158" stroke="#F2FF88" stroke-width="2" stroke-linecap="round"/>
<path d="M10 25.2158L18 39.0722" stroke="#F2FF88" stroke-width="2" stroke-linecap="round"/>
<path d="M44 25.2158L36 39.0722" stroke="#F2FF88" stroke-width="2" stroke-linecap="round"/>
<mask id="path-8-inside-3_2348_129927" fill="white">
<path d="M38 20.6421C38 16.2581 41.554 12.7041 45.938 12.7041H47.9225C52.3065 12.7041 55.8605 16.2581 55.8605 20.6421C55.8605 21.1901 55.4162 21.6343 54.8682 21.6343H38.9922C38.4442 21.6343 38 21.1901 38 20.6421Z"/>
</mask>
<path d="M38 20.6421C38 16.2581 41.554 12.7041 45.938 12.7041H47.9225C52.3065 12.7041 55.8605 16.2581 55.8605 20.6421C55.8605 21.1901 55.4162 21.6343 54.8682 21.6343H38.9922C38.4442 21.6343 38 21.1901 38 20.6421Z" stroke="#F2FF88" stroke-width="3" mask="url(#path-8-inside-3_2348_129927)"/>
<path d="M51.7614 8.63394C51.7614 11.3022 49.5983 13.4653 46.93 13.4653C44.2617 13.4653 42.0986 11.3022 42.0986 8.63394C42.0986 5.96563 44.2617 3.80254 46.93 3.80254C49.5983 3.80254 51.7614 5.96563 51.7614 8.63394Z" stroke="#F2FF88" stroke-width="1.5"/>
</svg>

