<svg width="56" height="57" viewBox="0 0 56 57" fill="none" xmlns="http://www.w3.org/2000/svg">
  <path d="M40.4705 48.7288L40.232 48.0177L40.4705 48.7288ZM41.8607 48.1523L42.1953 48.8236L41.8607 48.1523ZM46.769 43.244L46.0978 42.9094L46.769 43.244ZM47.3455 41.8538L48.0566 42.0922L47.3455 41.8538ZM47.3455 34.9128L46.6344 35.1513L47.3455 34.9128ZM46.947 32.2933L46.4166 31.763L46.947 32.2933ZM46.769 33.5226L47.4403 33.188L46.769 33.5226ZM48.828 28.9981L48.2976 29.5284L48.828 28.9981ZM44.971 26.5553L45.5014 27.0857L44.971 26.5553ZM46.3852 26.5553L45.8549 27.0857L46.3852 26.5553ZM41.8607 28.6143L42.1953 27.943L41.8607 28.6143ZM40.4705 28.0378L40.7089 27.3267L40.4705 28.0378ZM33.5295 28.0378L33.768 28.7489L33.5295 28.0378ZM30.91 28.4363L30.3797 28.9667L30.91 28.4363ZM32.1393 28.6143L31.8047 27.943L32.1393 28.6143ZM26.6545 34.9128L25.9434 34.6744L26.6545 34.9128ZM27.053 44.4733L26.5227 43.943L27.053 44.4733ZM27.231 43.244L27.9022 42.9094L27.231 43.244ZM25.172 47.7685L24.6417 48.2989L25.172 47.7685ZM25.172 46.3543L24.6417 45.824L25.172 46.3543ZM30.91 48.3303L30.3797 47.7999L30.91 48.3303ZM33.5295 48.7288L33.2911 49.4399L33.5295 48.7288ZM33.5227 49.7239V52.3833H35.0227V49.7239H33.5227ZM31.8047 48.8236C32.2824 49.0617 32.7788 49.2681 33.2911 49.4399L33.768 48.0177C33.3221 47.8682 32.8899 47.6885 32.4739 47.4811L31.8047 48.8236ZM29.5593 50.7416L31.4403 48.8606L30.3797 47.7999L28.4986 49.6809L29.5593 50.7416ZM24.6417 48.2989L27.0844 50.7416L28.1451 49.6809L25.7024 47.2382L24.6417 48.2989ZM26.5227 43.943L24.6417 45.824L25.7024 46.8847L27.5834 45.0036L26.5227 43.943ZM25.9434 42.0922C26.1152 42.6045 26.3216 43.1009 26.5597 43.5786L27.9022 42.9094C27.6948 42.4934 27.5151 42.0612 27.3656 41.6153L25.9434 42.0922ZM23 41.8606H25.6594V40.3606H23V41.8606ZM21.25 36.656V40.1106H22.75V36.656H21.25ZM25.6594 34.906H23V36.406H25.6594V34.906ZM26.5597 33.188C26.3216 33.6657 26.1152 34.1621 25.9434 34.6744L27.3656 35.1513C27.5151 34.7054 27.6948 34.2732 27.9022 33.8572L26.5597 33.188ZM24.6417 30.9426L26.5227 32.8236L27.5834 31.763L25.7024 29.8819L24.6417 30.9426ZM27.0844 26.025L24.6417 28.4677L25.7024 29.5284L28.1451 27.0857L27.0844 26.025ZM31.4403 27.906L29.5593 26.025L28.4986 27.0857L30.3797 28.9667L31.4403 27.906ZM33.2911 27.3267C32.7788 27.4985 32.2824 27.7049 31.8047 27.943L32.4739 29.2855C32.8899 29.0781 33.3221 28.8984 33.768 28.7489L33.2911 27.3267ZM33.5227 24.3833V27.0427H35.0227V24.3833H33.5227ZM38.7273 22.6333H35.2727V24.1333H38.7273V22.6333ZM40.4773 27.0427V24.3833H38.9773V27.0427H40.4773ZM42.1953 27.943C41.7176 27.7049 41.2212 27.4985 40.7089 27.3267L40.232 28.7489C40.6779 28.8984 41.1101 29.0781 41.5261 29.2855L42.1953 27.943ZM44.4407 26.025L42.5597 27.906L43.6203 28.9667L45.5014 27.0857L44.4407 26.025ZM49.3583 28.4677L46.9156 26.025L45.8549 27.0857L48.2976 29.5284L49.3583 28.4677ZM47.4773 32.8236L49.3583 30.9426L48.2976 29.8819L46.4166 31.763L47.4773 32.8236ZM48.0566 34.6744C47.8848 34.1621 47.6784 33.6657 47.4403 33.188L46.0978 33.8572C46.3052 34.2732 46.4849 34.7054 46.6344 35.1513L48.0566 34.6744ZM51 34.906H48.3406V36.406H51V34.906ZM52.75 40.1106V36.656H51.25V40.1106H52.75ZM48.3406 41.8606H51V40.3606H48.3406V41.8606ZM47.4403 43.5786C47.6784 43.1009 47.8848 42.6045 48.0566 42.0922L46.6344 41.6153C46.4849 42.0612 46.3052 42.4934 46.0978 42.9094L47.4403 43.5786ZM49.3583 45.824L47.4773 43.943L46.4166 45.0036L48.2976 46.8847L49.3583 45.824ZM46.9156 50.7416L49.3583 48.2989L48.2976 47.2382L45.8549 49.6809L46.9156 50.7416ZM42.5597 48.8606L44.4407 50.7416L45.5014 49.6809L43.6203 47.7999L42.5597 48.8606ZM40.7089 49.4399C41.2212 49.2681 41.7176 49.0617 42.1953 48.8236L41.5261 47.4811C41.1101 47.6885 40.6779 47.8682 40.232 48.0177L40.7089 49.4399ZM40.4773 52.3833V49.7239H38.9773V52.3833H40.4773ZM35.2727 54.1333H38.7273V52.6333H35.2727V54.1333ZM43.0682 38.3834C43.0682 41.7347 40.3514 44.4515 37.0001 44.4515V45.9515C41.1799 45.9515 44.5682 42.5632 44.5682 38.3834H43.0682ZM37.0001 32.3152C40.3514 32.3152 43.0682 35.032 43.0682 38.3834H44.5682C44.5682 34.2036 41.1799 30.8152 37.0001 30.8152V32.3152ZM30.9319 38.3834C30.9319 35.032 33.6487 32.3152 37.0001 32.3152V30.8152C32.8203 30.8152 29.4319 34.2036 29.4319 38.3834H30.9319ZM37.0001 44.4515C33.6487 44.4515 30.9319 41.7347 30.9319 38.3834H29.4319C29.4319 42.5632 32.8203 45.9515 37.0001 45.9515V44.4515ZM38.9773 52.3833C38.9773 52.5214 38.8654 52.6333 38.7273 52.6333V54.1333C39.6938 54.1333 40.4773 53.3498 40.4773 52.3833H38.9773ZM40.232 48.0177C39.524 48.2551 38.9773 48.9146 38.9773 49.7239H40.4773C40.4773 49.6207 40.5517 49.4926 40.7089 49.4399L40.232 48.0177ZM43.6203 47.7999C43.048 47.2276 42.1948 47.1478 41.5261 47.4811L42.1953 48.8236C42.3435 48.7497 42.4867 48.7876 42.5597 48.8606L43.6203 47.7999ZM45.8549 49.6809C45.7573 49.7786 45.599 49.7786 45.5014 49.6809L44.4407 50.7416C45.1241 51.425 46.2321 51.425 46.9156 50.7416L45.8549 49.6809ZM48.2976 46.8847C48.3953 46.9823 48.3953 47.1406 48.2976 47.2382L49.3583 48.2989C50.0417 47.6155 50.0417 46.5074 49.3583 45.824L48.2976 46.8847ZM46.0978 42.9094C45.7645 43.5781 45.8443 44.4313 46.4166 45.0036L47.4773 43.943C47.4043 43.87 47.3664 43.7268 47.4403 43.5786L46.0978 42.9094ZM48.3406 40.3606C47.5313 40.3606 46.8718 40.9073 46.6344 41.6153L48.0566 42.0922C48.1093 41.935 48.2374 41.8606 48.3406 41.8606V40.3606ZM51.25 40.1106C51.25 40.2486 51.1381 40.3606 51 40.3606V41.8606C51.9665 41.8606 52.75 41.0771 52.75 40.1106H51.25ZM51 36.406C51.1381 36.406 51.25 36.518 51.25 36.656H52.75C52.75 35.6895 51.9665 34.906 51 34.906V36.406ZM46.6344 35.1513C46.8718 35.8593 47.5313 36.406 48.3406 36.406V34.906C48.2374 34.906 48.1093 34.8316 48.0566 34.6744L46.6344 35.1513ZM46.4166 31.763C45.8443 32.3353 45.7645 33.1885 46.0978 33.8572L47.4403 33.188C47.3664 33.0398 47.4043 32.8966 47.4773 32.8236L46.4166 31.763ZM48.2976 29.5284C48.3953 29.626 48.3953 29.7843 48.2976 29.8819L49.3583 30.9426C50.0417 30.2592 50.0417 29.1512 49.3583 28.4677L48.2976 29.5284ZM45.5014 27.0857C45.599 26.988 45.7573 26.988 45.8549 27.0857L46.9156 26.025C46.2322 25.3416 45.1241 25.3416 44.4407 26.025L45.5014 27.0857ZM41.5261 29.2855C42.1948 29.6188 43.048 29.539 43.6203 28.9667L42.5597 27.906C42.4867 27.979 42.3435 28.0169 42.1953 27.943L41.5261 29.2855ZM38.9773 27.0427C38.9773 27.852 39.524 28.5115 40.232 28.7489L40.7089 27.3267C40.5517 27.274 40.4773 27.1459 40.4773 27.0427H38.9773ZM38.7273 24.1333C38.8654 24.1333 38.9773 24.2452 38.9773 24.3833H40.4773C40.4773 23.4168 39.6938 22.6333 38.7273 22.6333V24.1333ZM35.0227 24.3833C35.0227 24.2452 35.1347 24.1333 35.2727 24.1333V22.6333C34.3062 22.6333 33.5227 23.4168 33.5227 24.3833H35.0227ZM33.768 28.7489C34.476 28.5115 35.0227 27.852 35.0227 27.0427H33.5227C33.5227 27.1459 33.4483 27.274 33.2911 27.3267L33.768 28.7489ZM30.3797 28.9667C30.952 29.539 31.8052 29.6188 32.4739 29.2855L31.8047 27.943C31.6565 28.0169 31.5133 27.979 31.4403 27.906L30.3797 28.9667ZM28.1451 27.0857C28.2427 26.988 28.401 26.988 28.4986 27.0857L29.5593 26.025C28.8759 25.3416 27.7679 25.3416 27.0844 26.025L28.1451 27.0857ZM25.7024 29.8819C25.6047 29.7843 25.6047 29.626 25.7024 29.5284L24.6417 28.4677C23.9583 29.1512 23.9583 30.2592 24.6417 30.9426L25.7024 29.8819ZM27.9022 33.8572C28.2355 33.1885 28.1557 32.3353 27.5834 31.763L26.5227 32.8236C26.5957 32.8966 26.6336 33.0398 26.5597 33.188L27.9022 33.8572ZM25.6594 36.406C26.4687 36.406 27.1282 35.8593 27.3656 35.1513L25.9434 34.6744C25.8907 34.8316 25.7626 34.906 25.6594 34.906V36.406ZM22.75 36.656C22.75 36.518 22.8619 36.406 23 36.406V34.906C22.0335 34.906 21.25 35.6895 21.25 36.656H22.75ZM23 40.3606C22.8619 40.3606 22.75 40.2486 22.75 40.1106H21.25C21.25 41.0771 22.0335 41.8606 23 41.8606V40.3606ZM27.3656 41.6153C27.1282 40.9073 26.4687 40.3606 25.6594 40.3606V41.8606C25.7626 41.8606 25.8907 41.935 25.9434 42.0922L27.3656 41.6153ZM27.5834 45.0036C28.1557 44.4313 28.2355 43.5781 27.9022 42.9094L26.5597 43.5786C26.6336 43.7268 26.5957 43.87 26.5227 43.943L27.5834 45.0036ZM25.7024 47.2382C25.6047 47.1406 25.6047 46.9823 25.7024 46.8847L24.6417 45.824C23.9583 46.5074 23.9583 47.6154 24.6417 48.2989L25.7024 47.2382ZM28.4986 49.6809C28.401 49.7786 28.2427 49.7786 28.1451 49.6809L27.0844 50.7416C27.7679 51.425 28.8759 51.425 29.5593 50.7416L28.4986 49.6809ZM32.4739 47.4811C31.8052 47.1478 30.952 47.2276 30.3797 47.7999L31.4403 48.8606C31.5133 48.7876 31.6565 48.7497 31.8047 48.8236L32.4739 47.4811ZM33.5227 52.3833C33.5227 53.3498 34.3062 54.1333 35.2727 54.1333V52.6333C35.1347 52.6333 35.0227 52.5214 35.0227 52.3833H33.5227ZM35.0227 49.7239C35.0227 48.9146 34.476 48.2551 33.768 48.0177L33.2911 49.4399C33.4483 49.4926 33.5227 49.6207 33.5227 49.7239H35.0227Z" fill="#F2FF88" />
  <path d="M6.5 26.8833C6.5 27.7117 5.82843 28.3833 5 28.3833C4.17157 28.3833 3.5 27.7117 3.5 26.8833C3.5 26.0549 4.17157 25.3833 5 25.3833C5.82843 25.3833 6.5 26.0549 6.5 26.8833Z" stroke="#F2FF88" stroke-width="1.5" />
  <path d="M14.5 18.8833C14.5 19.7117 13.8284 20.3833 13 20.3833C12.1716 20.3833 11.5 19.7117 11.5 18.8833C11.5 18.0549 12.1716 17.3833 13 17.3833C13.8284 17.3833 14.5 18.0549 14.5 18.8833Z" stroke="#F2FF88" stroke-width="1.5" />
  <path d="M20.5 24.3833C20.5 25.2117 19.8284 25.8833 19 25.8833C18.1716 25.8833 17.5 25.2117 17.5 24.3833C17.5 23.5549 18.1716 22.8833 19 22.8833C19.8284 22.8833 20.5 23.5549 20.5 24.3833Z" stroke="#F2FF88" stroke-width="1.5" />
  <path d="M33.0854 12.3833C33.0854 13.2117 32.4138 13.8833 31.5854 13.8833C30.7569 13.8833 30.0854 13.2117 30.0854 12.3833C30.0854 11.5549 30.7569 10.8833 31.5854 10.8833C32.4138 10.8833 33.0854 11.5549 33.0854 12.3833Z" stroke="#F2FF88" stroke-width="1.5" />
  <path d="M39.5854 17.8833C39.5854 18.7117 38.9138 19.3833 38.0854 19.3833C37.2569 19.3833 36.5854 18.7117 36.5854 17.8833C36.5854 17.0549 37.2569 16.3833 38.0854 16.3833C38.9138 16.3833 39.5854 17.0549 39.5854 17.8833Z" stroke="#F2FF88" stroke-width="1.5" />
  <path d="M5.5 26.3833L11.5 20.3833M52 3.8833L51 7.3833M52 3.8833L39.5 16.3833M52 3.8833L50.25 4.3833L48.5 4.8833M14.5 20.3833L16.75 22.6333L17.5 23.3833M20.5 23.3833L30.2596 13.6237M33.2822 13.1655L37 16.8833" stroke="#F2FF88" stroke-width="1.5" />
  <circle cx="11" cy="43.3833" r="7.25" stroke="#FFFF8A" stroke-width="1.5" />
  <path d="M11 43.3833L14.5 39.8833" stroke="#FFFF8A" stroke-width="1.5" stroke-linecap="round" stroke-linejoin="round" />
  <path d="M11 35.8833V33.3833M11 33.3833H12M11 33.3833H10" stroke="#FFFF8A" stroke-width="1.5" stroke-linecap="round" stroke-linejoin="round" />
</svg>
