<svg width="56" height="56" viewBox="0 0 56 56" fill="none" xmlns="http://www.w3.org/2000/svg">
  <path d="M28.4861 1.55595L29.0876 3.33904L30.9885 3.35366C31.2347 3.35551 31.3367 3.66599 31.1387 3.81065L29.6095 4.92724L30.1828 6.71924C30.257 6.95109 29.9899 7.1433 29.7896 7.00166L28.2432 5.90859L26.6968 7.00166C26.4966 7.14313 26.2293 6.95126 26.3036 6.71924L26.8769 4.92724L25.3476 3.81065C25.1497 3.66599 25.2516 3.35551 25.4978 3.35366L27.3987 3.33904L28.0002 1.55595C28.0778 1.3251 28.4083 1.3251 28.4861 1.55595Z" fill="#F2FF88" />
  <path d="M28.4861 49.4985L29.0876 51.2816L30.9885 51.2962C31.2347 51.298 31.3367 51.6085 31.1387 51.7532L29.6095 52.8698L30.1828 54.6618C30.257 54.8936 29.9899 55.0858 29.7896 54.9442L28.2432 53.8511L26.6968 54.9442C26.4966 55.0856 26.2293 54.8938 26.3036 54.6618L26.8769 52.8698L25.3476 51.7532C25.1497 51.6085 25.2516 51.298 25.4978 51.2962L27.3987 51.2816L28.0002 49.4985C28.0778 49.2674 28.4083 49.2674 28.4861 49.4985Z" fill="#F2FF88" />
  <path d="M52.7293 25.527L53.3308 27.3101L55.2317 27.3247C55.4779 27.3266 55.5798 27.637 55.3819 27.7817L53.8526 28.8983L54.4259 30.6903C54.5002 30.9221 54.2331 31.1143 54.0327 30.9727L52.4863 29.8796L50.9399 30.9727C50.7398 31.1142 50.4725 30.9223 50.5467 30.6903L51.12 28.8983L49.5908 27.7817C49.3928 27.637 49.4948 27.3266 49.741 27.3247L51.6418 27.3101L52.2434 25.527C52.321 25.2963 52.6515 25.2963 52.7293 25.527Z" fill="#F2FF88" />
  <path d="M4.24298 25.527L4.84448 27.3101L6.74533 27.3247C6.99154 27.3266 7.09349 27.637 6.89554 27.7817L5.36629 28.8983L5.93959 30.6903C6.01384 30.9221 5.74674 31.1143 5.5464 30.9727L4 29.8796L2.4536 30.9727C2.25343 31.1142 1.98616 30.9223 2.06041 30.6903L2.63371 28.8983L1.10446 27.7817C0.906511 27.637 1.00846 27.3266 1.25467 27.3247L3.15552 27.3101L3.75702 25.527C3.83484 25.2963 4.16533 25.2963 4.24298 25.527Z" fill="#F2FF88" />
  <path d="M7.88238 13.0091L8.48389 14.7922L10.3847 14.8068C10.6309 14.8086 10.7329 15.1191 10.5349 15.2638L9.0057 16.3804L9.57899 18.1723C9.65325 18.4042 9.38614 18.5964 9.18581 18.4548L7.6394 17.3617L6.093 18.4548C5.89284 18.5962 5.62556 18.4044 5.69982 18.1723L6.27311 16.3804L4.74387 15.2638C4.54592 15.1191 4.64787 14.8086 4.89407 14.8068L6.79492 14.7922L7.39642 13.0091C7.47424 12.7782 7.80439 12.7782 7.88238 13.0091Z" fill="#F2FF88" />
  <path d="M49.8726 36.9801L50.4741 38.7632L52.375 38.7778C52.6212 38.7797 52.7231 39.0902 52.5252 39.2348L50.9959 40.3514L51.5692 42.1434C51.6435 42.3756 51.3764 42.5675 51.176 42.4258L49.6296 41.3328L48.0832 42.4258C47.8831 42.5673 47.6158 42.3754 47.69 42.1434L48.2633 40.3514L46.7341 39.2348C46.5361 39.0902 46.6381 38.7797 46.8843 38.7778L48.7852 38.7632L49.3867 36.9801C49.4645 36.7495 49.7948 36.7495 49.8726 36.9801Z" fill="#F2FF88" />
  <path d="M40.9992 4.23501L41.6006 6.01805L43.5014 6.03266C43.7476 6.03451 43.8496 6.34498 43.6516 6.48964L42.1224 7.6062L42.6957 9.39813C42.77 9.62998 42.5029 9.82218 42.3025 9.68055L40.7562 8.58751L39.2097 9.68055C39.0095 9.82201 38.7422 9.63015 38.8165 9.39813L39.3898 7.6062L37.8606 6.48964C37.6626 6.34498 37.7646 6.03451 38.0108 6.03266L39.9116 6.01805L40.513 4.23501C40.5909 4.00434 40.921 4.00434 40.9992 4.23501Z" fill="#F2FF88" />
  <path d="M16.7559 45.7543L17.3574 47.5374L19.2583 47.552C19.5045 47.5538 19.6064 47.8643 19.4085 48.009L17.8792 49.1256L18.4525 50.9176C18.5268 51.1494 18.2597 51.3416 18.0593 51.2L16.5129 50.1069L14.9665 51.2C14.7664 51.3415 14.4991 51.1496 14.5733 50.9176L15.1466 49.1256L13.6174 48.009C13.4195 47.8643 13.5214 47.5538 13.7676 47.552L15.6685 47.5376L16.27 45.7545C16.3478 45.5233 16.6783 45.5233 16.7559 45.7543Z" fill="#F2FF88" />
  <path d="M49.3867 13.0091L48.7852 14.7922L46.8843 14.8068C46.6381 14.8086 46.5361 15.1191 46.7341 15.2638L48.2633 16.3804L47.69 18.1723C47.6158 18.4042 47.8829 18.5964 48.0832 18.4548L49.6296 17.3617L51.176 18.4548C51.3762 18.5962 51.6435 18.4044 51.5692 18.1723L50.9959 16.3804L52.5252 15.2638C52.7231 15.1191 52.6212 14.8086 52.375 14.8068L50.4741 14.7922L49.8726 13.0091C49.7948 12.7782 49.4645 12.7782 49.3867 13.0091Z" fill="#F2FF88" />
  <path d="M7.39642 36.9801L6.79492 38.7632L4.89407 38.7778C4.64787 38.7797 4.54592 39.0902 4.74387 39.2348L6.27311 40.3514L5.69982 42.1434C5.62556 42.3756 5.89267 42.5675 6.093 42.4258L7.6394 41.3328L9.18581 42.4258C9.38597 42.5673 9.65325 42.3754 9.57899 42.1434L9.0057 40.3514L10.5349 39.2348C10.7329 39.0902 10.6309 38.7797 10.3847 38.7778L8.48389 38.7632L7.88238 36.9801C7.80439 36.7495 7.47424 36.7495 7.39642 36.9801Z" fill="#F2FF88" />
  <path d="M16.27 4.23502L15.6685 6.0181L13.7676 6.03272C13.5214 6.03457 13.4195 6.34505 13.6174 6.48971L15.1466 7.6063L14.5733 9.39829C14.4991 9.63014 14.7662 9.82234 14.9665 9.68071L16.5129 8.58764L18.0593 9.68071C18.2595 9.82218 18.5268 9.63031 18.4525 9.39829L17.8792 7.6063L19.4085 6.48971C19.6064 6.34505 19.5045 6.03457 19.2583 6.03272L17.3574 6.0181L16.7559 4.23502C16.6779 4.00434 16.3478 4.00434 16.27 4.23502Z" fill="#F2FF88" />
  <path d="M40.5131 45.7543L39.9116 47.5374L38.0108 47.552C37.7646 47.5538 37.6626 47.8643 37.8606 48.009L39.3898 49.1256L38.8165 50.9176C38.7423 51.1494 39.0094 51.3416 39.2097 51.2L40.7561 50.1069L42.3025 51.2C42.5027 51.3415 42.7699 51.1496 42.6957 50.9176L42.1224 49.1256L43.6516 48.009C43.8496 47.8643 43.7476 47.5538 43.5014 47.552L41.6006 47.5376L40.9991 45.7545C40.9211 45.5233 40.5909 45.5233 40.5131 45.7543Z" fill="#F2FF88" />
  <mask id="path-13-inside-1_140_58398" fill="white">
    <path d="M19 35.5894C19 31.2053 22.554 27.6514 26.938 27.6514H28.9225C33.3065 27.6514 36.8605 31.2053 36.8605 35.5894C36.8605 36.1374 36.4162 36.5816 35.8682 36.5816H19.9922C19.4442 36.5816 19 36.1374 19 35.5894Z" />
  </mask>
  <path d="M19 35.5894C19 31.2053 22.554 27.6514 26.938 27.6514H28.9225C33.3065 27.6514 36.8605 31.2053 36.8605 35.5894C36.8605 36.1374 36.4162 36.5816 35.8682 36.5816H19.9922C19.4442 36.5816 19 36.1374 19 35.5894Z" stroke="#F2FF88" stroke-width="3" mask="url(#path-13-inside-1_140_58398)" />
  <path d="M32.7617 23.5812C32.7617 26.2495 30.5986 28.4126 27.9303 28.4126C25.262 28.4126 23.0989 26.2495 23.0989 23.5812C23.0989 20.9129 25.262 18.7498 27.9303 18.7498C30.5986 18.7498 32.7617 20.9129 32.7617 23.5812Z" stroke="#F2FF88" stroke-width="1.5" />
</svg>
