<svg width="56" height="57" viewBox="0 0 56 57" fill="none" xmlns="http://www.w3.org/2000/svg">
  <g clip-path="url(#clip0_128_52664)">
    <path d="M38.2774 39.3833H17.7373C17.5418 39.3833 17.3542 39.303 17.216 39.1601C17.0777 39.0171 17 38.8233 17 38.6211V30.3908C17 29.732 17.1258 29.0796 17.3702 28.471C17.6145 27.8625 17.9727 27.3098 18.4241 26.8446C18.8755 26.3794 19.4113 26.0109 20.0007 25.7601C20.5902 25.5094 21.2217 25.3813 21.8591 25.3833H34.1556C35.4404 25.3833 36.6726 25.9109 37.5811 26.85C38.4896 27.7891 39 29.0628 39 30.3908V38.6211C39 38.8207 38.9244 39.0122 38.7893 39.1547C38.6542 39.2973 38.4704 39.3793 38.2774 39.3833ZM18.4747 37.8589H37.5401V30.3908C37.5391 29.9324 37.4508 29.4787 37.2802 29.0556C37.1096 28.6324 36.86 28.2482 36.5457 27.9247C36.2315 27.6013 35.8586 27.345 35.4485 27.1705C35.0384 26.996 34.5991 26.9067 34.1556 26.9077H21.8591C20.966 26.9097 20.1101 27.2773 19.4785 27.9301C18.847 28.5829 18.4914 29.4677 18.4894 30.3908L18.4747 37.8589Z" fill="#FFFF8A" />
    <path fill-rule="evenodd" clip-rule="evenodd" d="M28 21.8833C31.0376 21.8833 33.5 19.4209 33.5 16.3833C33.5 13.3457 31.0376 10.8833 28 10.8833C24.9624 10.8833 22.5 13.3457 22.5 16.3833C22.5 19.4209 24.9624 21.8833 28 21.8833ZM28 23.3833C31.866 23.3833 35 20.2493 35 16.3833C35 12.5173 31.866 9.3833 28 9.3833C24.134 9.3833 21 12.5173 21 16.3833C21 20.2493 24.134 23.3833 28 23.3833Z" fill="#F2FF88" />
    <path d="M28 55.3833C28 55.3833 50 44.5833 50 28.3833V9.4833L28 1.3833L6 9.4833V28.3833C6 44.5833 28 55.3833 28 55.3833Z" stroke="#F2FF88" stroke-width="1.5" stroke-linecap="round" stroke-linejoin="round" />
    <path d="M24 31.8833L27 34.8833L32.5 29.3833" stroke="#F2FF88" stroke-width="1.5" />
  </g>
  <defs>
    <clipPath id="clip0_128_52664">
      <rect width="56" height="56" fill="white" transform="translate(0 0.383301)" />
    </clipPath>
  </defs>
</svg>
